lab/data/171128/plate2/10p50mm20mm0mmX/15.csv

X,CH1,CH2,Start,Increment,
Sequence,Volt,Volt,-1.014000e-04,5.000000e-07,
0,-6.250000e-02,-1.250000e-02,
1,3.125000e-02,1.250000e-02,
2,-6.250000e-02,1.250000e-02,
3,3.125000e-02,-6.250000e-03,
4,-6.250000e-02,1.250000e-02,
5,3.125000e-02,-1.875000e-02,
6,-6.250000e-02,-6.250000e-03,
7,3.125000e-02,-1.875000e-02,
8,-6.250000e-02,-1.875000e-02,
9,3.125000e-02,0.000000e+00,
10,-6.250000e-02,-1.250000e-02,
11,3.125000e-02,1.250000e-02,
12,-6.250000e-02,0.000000e+00,
13,3.125000e-02,1.250000e-02,
14,0.000000e+00,6.250000e-03,
15,-6.250000e-02,-1.875000e-02,
16,-6.250000e-02,-6.250000e-03,
17,3.125000e-02,-2.500000e-02,
18,-6.250000e-02,-1.875000e-02,
19,3.125000e-02,6.250000e-03,
20,-6.250000e-02,-1.250000e-02,
21,3.125000e-02,1.250000e-02,
22,-6.250000e-02,1.875000e-02,
23,3.125000e-02,-6.250000e-03,
24,-6.250000e-02,6.250000e-03,
25,3.125000e-02,-1.875000e-02,
26,-6.250000e-02,-1.875000e-02,
27,3.125000e-02,0.000000e+00,
28,-6.250000e-02,-1.875000e-02,
29,3.125000e-02,0.000000e+00,
30,-6.250000e-02,-1.250000e-02,
31,3.125000e-02,1.875000e-02,
32,-6.250000e-02,1.875000e-02,
33,3.125000e-02,-6.250000e-03,
34,-6.250000e-02,1.250000e-02,
35,3.125000e-02,-1.250000e-02,
36,-6.250000e-02,6.250000e-03,
37,3.125000e-02,-1.875000e-02,
38,0.000000e+00,-6.250000e-03,
39,-6.250000e-02,-1.875000e-02,
40,0.000000e+00,-1.875000e-02,
41,-6.250000e-02,6.250000e-03,
42,-6.250000e-02,-6.250000e-03,
43,3.125000e-02,1.875000e-02,
44,0.000000e+00,1.250000e-02,
45,-6.250000e-02,-1.250000e-02,
46,-6.250000e-02,0.000000e+00,
47,3.125000e-02,-2.500000e-02,
48,0.000000e+00,-2.500000e-02,
49,-6.250000e-02,0.000000e+00,
50,-6.250000e-02,-1.250000e-02,
51,3.125000e-02,6.250000e-03,
52,-6.250000e-02,-6.250000e-03,
53,3.125000e-02,1.250000e-02,
54,-6.250000e-02,1.250000e-02,
55,0.000000e+00,-6.250000e-03,
56,-6.250000e-02,6.250000e-03,
57,3.125000e-02,-1.875000e-02,
58,-6.250000e-02,-1.875000e-02,
59,3.125000e-02,0.000000e+00,
60,-6.250000e-02,0.000000e+00,
61,3.125000e-02,-1.875000e-02,
62,-6.250000e-02,-1.250000e-02,
63,3.125000e-02,1.250000e-02,
64,-6.250000e-02,1.875000e-02,
65,3.125000e-02,-1.250000e-02,
66,-6.250000e-02,6.250000e-03,
67,3.125000e-02,-1.875000e-02,
68,-6.250000e-02,-1.875000e-02,
69,3.125000e-02,-6.250000e-03,
70,-6.250000e-02,-1.875000e-02,
71,3.125000e-02,1.250000e-02,
72,0.000000e+00,-6.250000e-03,
73,-6.250000e-02,1.250000e-02,
74,-6.250000e-02,-6.250000e-03,
75,0.000000e+00,1.250000e-02,
76,-6.250000e-02,6.250000e-03,
77,3.125000e-02,-1.875000e-02,
78,-6.250000e-02,-1.875000e-02,
79,0.000000e+00,0.000000e+00,
80,-6.250000e-02,-1.250000e-02,
81,3.125000e-02,6.250000e-03,
82,0.000000e+00,6.250000e-03,
83,-6.250000e-02,-1.250000e-02,
84,-6.250000e-02,1.250000e-02,
85,3.125000e-02,-6.250000e-03,
86,-6.250000e-02,6.250000e-03,
87,3.125000e-02,-1.250000e-02,
88,0.000000e+00,6.250000e-03,
89,-6.250000e-02,-1.250000e-02,
90,-6.250000e-02,-1.250000e-02,
91,3.125000e-02,0.000000e+00,
92,-6.250000e-02,-1.250000e-02,
93,0.000000e+00,6.250000e-03,
94,-6.250000e-02,-6.250000e-03,
95,3.125000e-02,1.250000e-02,
96,-6.250000e-02,1.250000e-02,
97,3.125000e-02,-1.875000e-02,
98,0.000000e+00,0.000000e+00,
99,-6.250000e-02,-1.875000e-02,
100,-6.250000e-02,-1.875000e-02,
101,3.125000e-02,0.000000e+00,
102,-6.250000e-02,-1.250000e-02,
103,3.125000e-02,6.250000e-03,
104,-6.250000e-02,-6.250000e-03,
105,3.125000e-02,6.250000e-03,
106,0.000000e+00,6.250000e-03,
107,-6.250000e-02,-1.875000e-02,
108,-6.250000e-02,-1.875000e-02,
109,3.125000e-02,0.000000e+00,
110,-6.250000e-02,-1.875000e-02,
111,3.125000e-02,6.250000e-03,
112,-6.250000e-02,-6.250000e-03,
113,3.125000e-02,1.250000e-02,
114,-6.250000e-02,6.250000e-03,
115,3.125000e-02,-1.250000e-02,
116,-6.250000e-02,6.250000e-03,
117,3.125000e-02,-1.250000e-02,
118,0.000000e+00,0.000000e+00,
119,-6.250000e-02,-1.875000e-02,
120,-6.250000e-02,0.000000e+00,
121,3.125000e-02,-1.875000e-02,
122,-6.250000e-02,6.250000e-03,
123,3.125000e-02,-1.250000e-02,
124,0.000000e+00,-6.250000e-03,
125,-6.250000e-02,6.250000e-03,
126,-6.250000e-02,6.250000e-03,
127,3.125000e-02,-1.250000e-02,
128,0.000000e+00,0.000000e+00,
129,-6.250000e-02,-2.500000e-02,
130,-6.250000e-02,-2.500000e-02,
131,3.125000e-02,6.250000e-03,
132,-6.250000e-02,-1.250000e-02,
133,3.125000e-02,6.250000e-03,
134,-6.250000e-02,1.250000e-02,
135,3.125000e-02,-6.250000e-03,
136,-6.250000e-02,1.250000e-02,
137,3.125000e-02,-1.250000e-02,
138,-6.250000e-02,0.000000e+00,
139,3.125000e-02,-1.875000e-02,
140,0.000000e+00,-1.875000e-02,
141,-6.250000e-02,0.000000e+00,
142,0.000000e+00,-1.250000e-02,
143,-6.250000e-02,6.250000e-03,
144,-6.250000e-02,-6.250000e-03,
145,0.000000e+00,1.250000e-02,
146,-6.250000e-02,1.250000e-02,
147,3.125000e-02,-1.875000e-02,
148,-6.250000e-02,-1.875000e-02,
149,3.125000e-02,-6.250000e-03,
150,0.000000e+00,-1.875000e-02,
151,-6.250000e-02,6.250000e-03,
152,-6.250000e-02,-1.250000e-02,
153,3.125000e-02,1.250000e-02,
154,-6.250000e-02,1.250000e-02,
155,0.000000e+00,-6.250000e-03,
156,-6.250000e-02,0.000000e+00,
157,3.125000e-02,-1.875000e-02,
158,-6.250000e-02,-1.875000e-02,
159,3.125000e-02,0.000000e+00,
160,-6.250000e-02,-1.875000e-02,
161,3.125000e-02,6.250000e-03,
162,-6.250000e-02,-1.250000e-02,
163,3.125000e-02,1.250000e-02,
164,-6.250000e-02,1.250000e-02,
165,0.000000e+00,-1.250000e-02,
166,-6.250000e-02,6.250000e-03,
167,3.125000e-02,-1.875000e-02,
168,-6.250000e-02,-2.500000e-02,
169,3.125000e-02,0.000000e+00,
170,0.000000e+00,-1.250000e-02,
171,-6.250000e-02,6.250000e-03,
172,-6.250000e-02,-6.250000e-03,
173,3.125000e-02,6.250000e-03,
174,0.000000e+00,6.250000e-03,
175,-6.250000e-02,-1.250000e-02,
176,-6.250000e-02,6.250000e-03,
177,3.125000e-02,-1.875000e-02,
178,-6.250000e-02,-6.250000e-03,
179,3.125000e-02,-2.500000e-02,
180,-6.250000e-02,-1.250000e-02,
181,0.000000e+00,6.250000e-03,
182,-6.250000e-02,-6.250000e-03,
183,3.125000e-02,1.250000e-02,
184,0.000000e+00,1.250000e-02,
185,-6.250000e-02,-1.250000e-02,
186,-6.250000e-02,-1.250000e-02,
187,0.000000e+00,6.250000e-03,
188,0.000000e+00,0.000000e+00,
189,-6.250000e-02,-1.875000e-02,
190,-6.250000e-02,-1.875000e-02,
191,0.000000e+00,0.000000e+00,
192,-6.250000e-02,-1.250000e-02,
193,3.125000e-02,1.250000e-02,
194,-6.250000e-02,1.250000e-02,
195,7.500000e-01,-6.250000e-03,
196,6.875000e-01,-1.875000e-02,
197,1.031250e+00,1.250000e-02,
198,8.750000e-01,0.000000e+00,
199,-2.500000e-01,-2.500000e-02,
200,-2.187500e-01,-3.125000e-02,
201,-1.062500e+00,0.000000e+00,
202,-1.093750e+00,-1.250000e-02,
203,-4.375000e-01,1.875000e-02,
204,-4.687500e-01,1.250000e-02,
205,7.500000e-01,-1.250000e-02,
206,7.187500e-01,0.000000e+00,
207,1.031250e+00,-1.875000e-02,
208,9.062500e-01,-6.250000e-03,
209,-2.500000e-01,-2.500000e-02,
210,-2.187500e-01,-2.500000e-02,
211,-1.062500e+00,6.250000e-03,
212,-1.093750e+00,-6.250000e-03,
213,-4.062500e-01,1.250000e-02,
214,-4.687500e-01,6.250000e-03,
215,7.500000e-01,-1.250000e-02,
216,7.187500e-01,0.000000e+00,
217,1.031250e+00,-1.875000e-02,
218,8.750000e-01,-2.500000e-02,
219,-2.500000e-01,0.000000e+00,
220,-2.187500e-01,-1.250000e-02,
221,-1.062500e+00,6.250000e-03,
222,-1.093750e+00,6.250000e-03,
223,-4.062500e-01,-1.250000e-02,
224,-4.687500e-01,-1.875000e-02,
225,7.500000e-01,6.250000e-03,
226,7.187500e-01,6.250000e-03,
227,1.031250e+00,-1.875000e-02,
228,8.750000e-01,-2.500000e-02,
229,-2.500000e-01,0.000000e+00,
230,-1.875000e-01,-1.250000e-02,
231,-1.062500e+00,1.875000e-02,
232,-1.093750e+00,6.250000e-03,
233,-4.375000e-01,-1.250000e-02,
234,-4.687500e-01,-1.250000e-02,
235,7.500000e-01,6.250000e-03,
236,7.187500e-01,6.250000e-03,
237,1.031250e+00,-2.500000e-02,
238,8.750000e-01,-2.500000e-02,
239,-2.500000e-01,0.000000e+00,
240,-2.187500e-01,-1.250000e-02,
241,-1.062500e+00,6.250000e-03,
242,-1.062500e+00,-6.250000e-03,
243,-4.375000e-01,1.250000e-02,
244,-4.687500e-01,6.250000e-03,
245,7.500000e-01,-1.875000e-02,
246,7.187500e-01,0.000000e+00,
247,1.031250e+00,-1.875000e-02,
248,8.750000e-01,0.000000e+00,
249,-2.500000e-01,-1.875000e-02,
250,-2.187500e-01,-1.250000e-02,
251,-1.062500e+00,6.250000e-03,
252,-1.062500e+00,6.250000e-03,
253,-4.062500e-01,-1.250000e-02,
254,-4.687500e-01,-1.250000e-02,
255,7.500000e-01,6.250000e-03,
256,7.187500e-01,-1.250000e-02,
257,1.031250e+00,6.250000e-03,
258,8.750000e-01,0.000000e+00,
259,-2.500000e-01,-2.500000e-02,
260,-1.875000e-01,-1.875000e-02,
261,-1.062500e+00,0.000000e+00,
262,-1.093750e+00,-1.250000e-02,
263,-4.375000e-01,6.250000e-03,
264,-4.687500e-01,1.250000e-02,
265,7.500000e-01,-1.875000e-02,
266,7.187500e-01,0.000000e+00,
267,1.031250e+00,-1.875000e-02,
268,8.750000e-01,6.250000e-03,
269,-2.500000e-01,-1.875000e-02,
270,-2.187500e-01,-1.875000e-02,
271,-1.093750e+00,0.000000e+00,
272,-1.093750e+00,-1.250000e-02,
273,-4.375000e-01,6.250000e-03,
274,-4.687500e-01,6.250000e-03,
275,7.500000e-01,-1.250000e-02,
276,7.187500e-01,0.000000e+00,
277,1.031250e+00,-1.875000e-02,
278,8.750000e-01,-1.875000e-02,
279,-2.500000e-01,0.000000e+00,
280,-1.875000e-01,-1.875000e-02,
281,-1.062500e+00,0.000000e+00,
282,-1.093750e+00,-1.875000e-02,
283,-4.062500e-01,6.250000e-03,
284,-4.687500e-01,-1.250000e-02,
285,7.500000e-01,6.250000e-03,
286,6.875000e-01,6.250000e-03,
287,1.031250e+00,-1.250000e-02,
288,8.750000e-01,6.250000e-03,
289,-2.500000e-01,-1.250000e-02,
290,-2.187500e-01,-1.250000e-02,
291,-1.062500e+00,6.250000e-03,
292,-1.093750e+00,0.000000e+00,
293,-4.062500e-01,-1.875000e-02,
294,-4.687500e-01,-2.500000e-02,
295,0.000000e+00,6.250000e-03,
296,-6.250000e-02,-1.250000e-02,
297,3.125000e-02,1.875000e-02,
298,-6.250000e-02,1.250000e-02,
299,3.125000e-02,-1.875000e-02,
300,-6.250000e-02,-1.875000e-02,
301,3.125000e-02,0.000000e+00,
302,-6.250000e-02,0.000000e+00,
303,3.125000e-02,-1.875000e-02,
304,-6.250000e-02,-1.250000e-02,
305,3.125000e-02,6.250000e-03,
306,-6.250000e-02,6.250000e-03,
307,3.125000e-02,-1.250000e-02,
308,-6.250000e-02,6.250000e-03,
309,3.125000e-02,-1.875000e-02,
310,-6.250000e-02,-1.875000e-02,
311,0.000000e+00,0.000000e+00,
312,-6.250000e-02,-1.250000e-02,
313,3.125000e-02,6.250000e-03,
314,0.000000e+00,-1.250000e-02,
315,-6.250000e-02,6.250000e-03,
316,-6.250000e-02,-1.250000e-02,
317,3.125000e-02,0.000000e+00,
318,-6.250000e-02,6.250000e-03,
319,3.125000e-02,-1.875000e-02,
320,-6.250000e-02,0.000000e+00,
321,3.125000e-02,-1.875000e-02,
322,3.125000e-02,0.000000e+00,
323,-9.375000e-02,-1.875000e-02,
324,-6.250000e-02,-1.875000e-02,
325,3.125000e-02,0.000000e+00,
326,-6.250000e-02,-1.250000e-02,
327,3.125000e-02,0.000000e+00,
328,-6.250000e-02,-1.250000e-02,
329,3.125000e-02,0.000000e+00,
330,-6.250000e-02,-1.875000e-02,
331,3.125000e-02,1.250000e-02,
332,-6.250000e-02,6.250000e-03,
333,3.125000e-02,-1.875000e-02,
334,-6.250000e-02,-1.250000e-02,
335,3.125000e-02,0.000000e+00,
336,-6.250000e-02,-1.250000e-02,
337,3.125000e-02,6.250000e-03,
338,0.000000e+00,1.250000e-02,
339,-6.250000e-02,-1.250000e-02,
340,-6.250000e-02,0.000000e+00,
341,3.125000e-02,-1.875000e-02,
342,-6.250000e-02,-1.875000e-02,
343,3.125000e-02,0.000000e+00,
344,-6.250000e-02,6.250000e-03,
345,3.125000e-02,-1.250000e-02,
346,0.000000e+00,-1.250000e-02,
347,-6.250000e-02,6.250000e-03,
348,-6.250000e-02,6.250000e-03,
349,0.000000e+00,-1.875000e-02,
350,-6.250000e-02,0.000000e+00,
351,3.125000e-02,-1.875000e-02,
352,-6.250000e-02,-1.875000e-02,
353,3.125000e-02,0.000000e+00,
354,-6.250000e-02,-1.250000e-02,
355,3.125000e-02,6.250000e-03,
356,-6.250000e-02,-1.250000e-02,
357,0.000000e+00,6.250000e-03,
358,-6.250000e-02,6.250000e-03,
359,3.125000e-02,-1.250000e-02,
360,-6.250000e-02,-1.250000e-02,
361,3.125000e-02,6.250000e-03,
362,-6.250000e-02,0.000000e+00,
363,3.125000e-02,-1.875000e-02,
364,-6.250000e-02,-1.875000e-02,
365,3.125000e-02,6.250000e-03,
366,-6.250000e-02,-1.250000e-02,
367,3.125000e-02,6.250000e-03,
368,3.125000e-02,6.250000e-03,
369,-6.250000e-02,-1.250000e-02,
370,-6.250000e-02,6.250000e-03,
371,3.125000e-02,-1.875000e-02,
372,-6.250000e-02,-1.250000e-02,
373,3.125000e-02,6.250000e-03,
374,0.000000e+00,0.000000e+00,
375,-6.250000e-02,-2.500000e-02,
376,0.000000e+00,-2.500000e-02,
377,-6.250000e-02,6.250000e-03,
378,-6.250000e-02,6.250000e-03,
379,3.125000e-02,-1.250000e-02,
380,-6.250000e-02,0.000000e+00,
381,3.125000e-02,-1.875000e-02,
382,-6.250000e-02,-1.875000e-02,
383,3.125000e-02,0.000000e+00,
384,-6.250000e-02,0.000000e+00,
385,3.125000e-02,-1.875000e-02,
386,-6.250000e-02,-1.250000e-02,
387,3.125000e-02,6.250000e-03,
388,-6.250000e-02,-1.250000e-02,
389,3.125000e-02,6.250000e-03,
390,-6.250000e-02,6.250000e-03,
391,3.125000e-02,-1.250000e-02,
392,-6.250000e-02,0.000000e+00,
393,3.125000e-02,-1.875000e-02,
394,-6.250000e-02,-1.875000e-02,
395,3.125000e-02,6.250000e-03,
396,-6.250000e-02,6.250000e-03,
397,3.125000e-02,-1.875000e-02,
398,-6.250000e-02,6.250000e-03,
399,3.125000e-02,-1.875000e-02,
400,-6.250000e-02,0.000000e+00,
401,3.125000e-02,-1.875000e-02,
402,-6.250000e-02,-1.250000e-02,
403,3.125000e-02,6.250000e-03,
404,0.000000e+00,-1.250000e-02,
405,-6.250000e-02,0.000000e+00,
406,-6.250000e-02,-1.250000e-02,
407,3.125000e-02,0.000000e+00,
408,0.000000e+00,0.000000e+00,
409,-6.250000e-02,-1.875000e-02,
410,3.125000e-02,-1.875000e-02,
411,-9.375000e-02,0.000000e+00,
412,-6.250000e-02,-6.250000e-03,
413,3.125000e-02,6.250000e-03,
414,-6.250000e-02,6.250000e-03,
415,3.125000e-02,-1.875000e-02,
416,-6.250000e-02,0.000000e+00,
417,3.125000e-02,-2.500000e-02,
418,-6.250000e-02,-2.500000e-02,
419,3.125000e-02,6.250000e-03,
420,0.000000e+00,-6.250000e-03,
421,-6.250000e-02,6.250000e-03,
422,-6.250000e-02,6.250000e-03,
423,3.125000e-02,-1.250000e-02,
424,-6.250000e-02,0.000000e+00,
425,3.125000e-02,-1.875000e-02,
426,-6.250000e-02,-6.250000e-03,
427,3.125000e-02,-2.500000e-02,
428,-6.250000e-02,-1.875000e-02,
429,3.125000e-02,0.000000e+00,
430,-6.250000e-02,-1.875000e-02,
431,3.125000e-02,1.250000e-02,
432,-6.250000e-02,-1.250000e-02,
433,3.125000e-02,6.250000e-03,
434,-6.250000e-02,-1.250000e-02,
435,3.125000e-02,6.250000e-03,
436,0.000000e+00,-1.250000e-02,
437,-6.250000e-02,6.250000e-03,
438,-6.250000e-02,0.000000e+00,
439,3.125000e-02,-1.875000e-02,
440,0.000000e+00,-1.875000e-02,
441,-6.250000e-02,0.000000e+00,
442,0.000000e+00,-1.250000e-02,
443,-6.250000e-02,1.250000e-02,
444,-6.250000e-02,1.250000e-02,
445,3.125000e-02,-1.250000e-02,
446,-6.250000e-02,0.000000e+00,
447,3.125000e-02,-1.875000e-02,
448,-6.250000e-02,-6.250000e-03,
449,3.125000e-02,-1.875000e-02,
450,-6.250000e-02,-1.875000e-02,
451,3.125000e-02,6.250000e-03,
452,0.000000e+00,-6.250000e-03,
453,-6.250000e-02,1.250000e-02,
454,-6.250000e-02,1.250000e-02,
455,3.125000e-02,-1.250000e-02,
456,-6.250000e-02,0.000000e+00,
457,3.125000e-02,-1.875000e-02,
458,0.000000e+00,0.000000e+00,
459,-6.250000e-02,-1.875000e-02,
460,-6.250000e-02,-1.875000e-02,
461,3.125000e-02,6.250000e-03,
462,-6.250000e-02,-6.250000e-03,
463,3.125000e-02,6.250000e-03,
464,-6.250000e-02,-1.250000e-02,
465,3.125000e-02,1.875000e-02,
466,0.000000e+00,6.250000e-03,
467,-6.250000e-02,-1.875000e-02,
468,-6.250000e-02,-6.250000e-03,
469,3.125000e-02,-2.500000e-02,
470,-6.250000e-02,-1.875000e-02,
471,3.125000e-02,6.250000e-03,
472,3.125000e-02,1.250000e-02,
473,-6.250000e-02,-1.250000e-02,
474,-6.250000e-02,0.000000e+00,
475,3.125000e-02,-1.875000e-02,
476,-6.250000e-02,-1.250000e-02,
477,3.125000e-02,6.250000e-03,
478,-6.250000e-02,0.000000e+00,
479,3.125000e-02,-3.125000e-02,
480,-6.250000e-02,-2.500000e-02,
481,3.125000e-02,0.000000e+00,
482,-6.250000e-02,-1.250000e-02,
483,3.125000e-02,6.250000e-03,
484,-6.250000e-02,-1.250000e-02,
485,3.125000e-02,6.250000e-03,
486,-6.250000e-02,6.250000e-03,
487,3.125000e-02,-1.250000e-02,
488,-6.250000e-02,0.000000e+00,
489,3.125000e-02,-2.500000e-02,
490,-6.250000e-02,-1.875000e-02,
491,3.125000e-02,0.000000e+00,
492,-6.250000e-02,-1.250000e-02,
493,3.125000e-02,6.250000e-03,
494,-6.250000e-02,6.250000e-03,
495,3.125000e-02,-1.250000e-02,
496,3.125000e-02,0.000000e+00,
497,-6.250000e-02,-1.875000e-02,
498,-6.250000e-02,-2.500000e-02,
499,3.125000e-02,6.250000e-03,
500,-6.250000e-02,-1.875000e-02,
501,3.125000e-02,0.000000e+00,
502,-6.250000e-02,-1.250000e-02,
503,3.125000e-02,6.250000e-03,
504,-6.250000e-02,6.250000e-03,
505,3.125000e-02,-1.875000e-02,
506,-6.250000e-02,-1.875000e-02,
507,3.125000e-02,0.000000e+00,
508,3.125000e-02,0.000000e+00,
509,-6.250000e-02,-2.500000e-02,
510,0.000000e+00,-1.875000e-02,
511,-6.250000e-02,6.250000e-03,
512,-6.250000e-02,1.250000e-02,
513,3.125000e-02,-1.250000e-02,
514,-6.250000e-02,-1.250000e-02,
515,3.125000e-02,6.250000e-03,
516,-6.250000e-02,-1.250000e-02,
517,3.125000e-02,6.250000e-03,
518,3.125000e-02,0.000000e+00,
519,-6.250000e-02,-1.875000e-02,
520,-6.250000e-02,-2.500000e-02,
521,3.125000e-02,0.000000e+00,
522,3.125000e-02,-1.250000e-02,
523,-6.250000e-02,6.250000e-03,
524,-6.250000e-02,1.250000e-02,
525,3.125000e-02,-1.250000e-02,
526,-6.250000e-02,0.000000e+00,
527,3.125000e-02,-1.875000e-02,
528,-6.250000e-02,-6.250000e-03,
529,3.125000e-02,-2.500000e-02,
530,-6.250000e-02,-2.500000e-02,
531,3.125000e-02,6.250000e-03,
532,-6.250000e-02,-1.875000e-02,
533,3.125000e-02,1.250000e-02,
534,-6.250000e-02,1.250000e-02,
535,3.125000e-02,-6.250000e-03,
536,-6.250000e-02,6.250000e-03,
537,3.125000e-02,-1.875000e-02,
538,-6.250000e-02,-6.250000e-03,
539,0.000000e+00,-2.500000e-02,
540,0.000000e+00,-2.500000e-02,
541,-6.250000e-02,0.000000e+00,
542,0.000000e+00,-1.250000e-02,
543,-6.250000e-02,1.250000e-02,
544,0.000000e+00,1.250000e-02,
545,-6.250000e-02,-6.250000e-03,
546,-6.250000e-02,6.250000e-03,
547,3.125000e-02,-1.250000e-02,
548,0.000000e+00,0.000000e+00,
549,-6.250000e-02,-2.500000e-02,
550,-6.250000e-02,-3.125000e-02,
551,0.000000e+00,0.000000e+00,
552,-6.250000e-02,-1.250000e-02,
553,3.125000e-02,6.250000e-03,
554,-6.250000e-02,1.250000e-02,
555,3.125000e-02,-6.250000e-03,
556,-6.250000e-02,1.250000e-02,
557,3.125000e-02,-1.250000e-02,
558,-6.250000e-02,6.250000e-03,
559,3.125000e-02,-1.875000e-02,
560,-6.250000e-02,-6.250000e-03,
561,3.125000e-02,-3.125000e-02,
562,-6.250000e-02,-1.875000e-02,
563,3.125000e-02,6.250000e-03,
564,-6.250000e-02,-6.250000e-03,
565,3.125000e-02,2.500000e-02,
566,-6.250000e-02,6.250000e-03,
567,3.125000e-02,-1.250000e-02,
568,-6.250000e-02,6.250000e-03,
569,3.125000e-02,-1.875000e-02,
570,-6.250000e-02,-6.250000e-03,
571,3.125000e-02,-2.500000e-02,
572,-6.250000e-02,-2.500000e-02,
573,3.125000e-02,6.250000e-03,
574,-6.250000e-02,-6.250000e-03,
575,3.125000e-02,1.250000e-02,
576,0.000000e+00,1.250000e-02,
577,-6.250000e-02,-1.250000e-02,
578,-6.250000e-02,0.000000e+00,
579,3.125000e-02,-2.500000e-02,
580,0.000000e+00,-2.500000e-02,
581,-6.250000e-02,-1.250000e-02,
582,-6.250000e-02,-1.875000e-02,
583,3.125000e-02,1.250000e-02,
584,-6.250000e-02,1.250000e-02,
585,3.125000e-02,-6.250000e-03,
586,-6.250000e-02,6.250000e-03,
587,3.125000e-02,-1.250000e-02,
588,0.000000e+00,0.000000e+00,
589,-6.250000e-02,-2.500000e-02,
590,-6.250000e-02,-3.125000e-02,
591,3.125000e-02,-6.250000e-03,
592,0.000000e+00,-1.875000e-02,
593,-6.250000e-02,6.250000e-03,
594,0.000000e+00,1.250000e-02,
595,-6.250000e-02,-6.250000e-03,
596,-6.250000e-02,6.250000e-03,
597,3.125000e-02,-1.250000e-02,
598,-6.250000e-02,-1.875000e-02,
599,3.125000e-02,6.250000e-03,
600,0.000000e+00,-1.875000e-02,
601,-6.250000e-02,0.000000e+00,
602,0.000000e+00,-1.875000e-02,
603,-6.250000e-02,6.250000e-03,
604,-6.250000e-02,-1.250000e-02,
605,3.125000e-02,1.250000e-02,
606,0.000000e+00,1.250000e-02,
607,-6.250000e-02,-1.250000e-02,
608,-6.250000e-02,0.000000e+00,
609,0.000000e+00,-1.875000e-02,
610,-6.250000e-02,0.000000e+00,
611,3.125000e-02,-2.500000e-02,
612,0.000000e+00,-2.500000e-02,
613,-6.250000e-02,0.000000e+00,
614,0.000000e+00,-1.250000e-02,
615,-6.250000e-02,1.250000e-02,
616,-6.250000e-02,1.250000e-02,
617,3.125000e-02,-6.250000e-03,
618,-9.375000e-02,6.250000e-03,
619,3.125000e-02,-1.875000e-02,
620,-6.250000e-02,-6.250000e-03,
621,3.125000e-02,-2.500000e-02,
622,-6.250000e-02,-2.500000e-02,
623,3.125000e-02,0.000000e+00,
624,0.000000e+00,-1.250000e-02,
