lab/data/171205/csv/defects/04.csv

X,CH1,CH2,Start,Increment,
Sequence,Volt,Volt,-3.273998e-05,5.000000e-07,
0,0.000000e+00,6.250000e-03,
1,-1.875000e-01,-1.250000e-02,
2,0.000000e+00,0.000000e+00,
3,-1.875000e-01,-1.875000e-02,
4,0.000000e+00,-6.250000e-03,
5,-1.875000e-01,-2.500000e-02,
6,0.000000e+00,-1.875000e-02,
7,-1.875000e-01,0.000000e+00,
8,0.000000e+00,-1.250000e-02,
9,-1.875000e-01,6.250000e-03,
10,0.000000e+00,-6.250000e-03,
11,-1.875000e-01,6.250000e-03,
12,0.000000e+00,0.000000e+00,
13,-1.875000e-01,-1.875000e-02,
14,0.000000e+00,-6.250000e-03,
15,-1.875000e-01,-2.500000e-02,
16,0.000000e+00,-2.500000e-02,
17,-1.875000e-01,0.000000e+00,
18,-1.250000e-01,-1.250000e-02,
19,0.000000e+00,6.250000e-03,
20,-1.250000e-01,6.250000e-03,
21,0.000000e+00,-1.250000e-02,
22,0.000000e+00,6.250000e-03,
23,-1.875000e-01,-3.125000e-02,
24,0.000000e+00,-1.875000e-02,
25,-1.875000e-01,-6.250000e-03,
26,0.000000e+00,-1.875000e-02,
27,-1.875000e-01,0.000000e+00,
28,0.000000e+00,-1.250000e-02,
29,-1.875000e-01,0.000000e+00,
30,0.000000e+00,0.000000e+00,
31,-1.875000e-01,-1.250000e-02,
32,-1.250000e-01,0.000000e+00,
33,0.000000e+00,-1.875000e-02,
34,-1.250000e-01,0.000000e+00,
35,0.000000e+00,-1.875000e-02,
36,-1.250000e-01,-1.875000e-02,
37,0.000000e+00,0.000000e+00,
38,-1.250000e-01,0.000000e+00,
39,0.000000e+00,-1.875000e-02,
40,0.000000e+00,0.000000e+00,
41,-1.875000e-01,-1.875000e-02,
42,0.000000e+00,-1.250000e-02,
43,-1.875000e-01,6.250000e-03,
44,0.000000e+00,-1.875000e-02,
45,-1.875000e-01,0.000000e+00,
46,0.000000e+00,-1.875000e-02,
47,-1.875000e-01,0.000000e+00,
48,-1.250000e-01,-1.875000e-02,
49,0.000000e+00,0.000000e+00,
50,-1.250000e-01,-1.250000e-02,
51,0.000000e+00,0.000000e+00,
52,-1.250000e-01,-1.250000e-02,
53,0.000000e+00,6.250000e-03,
54,-1.250000e-01,0.000000e+00,
55,0.000000e+00,-1.875000e-02,
56,-1.250000e-01,6.250000e-03,
57,1.062500e+00,-2.500000e-02,
58,9.375000e-01,-1.875000e-02,
59,2.000000e+00,6.250000e-03,
60,1.937500e+00,-1.250000e-02,
61,0.000000e+00,6.250000e-03,
62,6.250000e-02,0.000000e+00,
63,-2.062500e+00,-1.875000e-02,
64,-2.187500e+00,0.000000e+00,
65,-1.312500e+00,-1.875000e-02,
66,-1.375000e+00,-1.875000e-02,
67,1.062500e+00,0.000000e+00,
68,1.000000e+00,-1.250000e-02,
69,2.000000e+00,0.000000e+00,
70,1.937500e+00,-1.250000e-02,
71,0.000000e+00,6.250000e-03,
72,6.250000e-02,-1.250000e-02,
73,-2.125000e+00,0.000000e+00,
74,-2.187500e+00,0.000000e+00,
75,-1.312500e+00,-1.875000e-02,
76,-1.437500e+00,-1.875000e-02,
77,1.125000e+00,0.000000e+00,
78,1.000000e+00,-1.250000e-02,
79,2.062500e+00,6.250000e-03,
80,1.937500e+00,0.000000e+00,
81,0.000000e+00,-1.250000e-02,
82,6.250000e-02,0.000000e+00,
83,-2.062500e+00,-1.250000e-02,
84,-2.187500e+00,0.000000e+00,
85,-1.312500e+00,-2.500000e-02,
86,-1.375000e+00,-1.875000e-02,
87,1.062500e+00,0.000000e+00,
88,1.000000e+00,-1.250000e-02,
89,2.000000e+00,0.000000e+00,
90,1.937500e+00,1.250000e-02,
91,0.000000e+00,-1.875000e-02,
92,6.250000e-02,0.000000e+00,
93,-2.062500e+00,-1.875000e-02,
94,-2.187500e+00,-1.875000e-02,
95,-1.312500e+00,0.000000e+00,
96,-1.437500e+00,-1.875000e-02,
97,1.062500e+00,0.000000e+00,
98,1.000000e+00,-1.250000e-02,
99,2.062500e+00,0.000000e+00,
100,1.937500e+00,6.250000e-03,
101,0.000000e+00,-1.250000e-02,
102,6.250000e-02,0.000000e+00,
103,-2.062500e+00,-1.875000e-02,
104,-2.187500e+00,-6.250000e-03,
105,-1.375000e+00,-1.875000e-02,
106,-1.375000e+00,-1.875000e-02,
107,1.062500e+00,0.000000e+00,
108,1.000000e+00,-1.250000e-02,
109,2.062500e+00,0.000000e+00,
110,1.937500e+00,0.000000e+00,
111,0.000000e+00,-1.250000e-02,
112,6.250000e-02,0.000000e+00,
113,-2.062500e+00,-1.875000e-02,
114,-2.187500e+00,-1.875000e-02,
115,-1.312500e+00,-6.250000e-03,
116,-1.375000e+00,-1.875000e-02,
117,1.062500e+00,0.000000e+00,
118,1.000000e+00,0.000000e+00,
119,2.062500e+00,-1.250000e-02,
120,1.937500e+00,-1.250000e-02,
121,0.000000e+00,6.250000e-03,
122,6.250000e-02,6.250000e-03,
123,-2.062500e+00,-2.500000e-02,
124,-2.187500e+00,0.000000e+00,
125,-1.312500e+00,-2.500000e-02,
126,-1.437500e+00,-1.875000e-02,
127,1.062500e+00,-6.250000e-03,
128,1.000000e+00,-1.875000e-02,
129,2.062500e+00,6.250000e-03,
130,1.937500e+00,6.250000e-03,
131,0.000000e+00,-1.250000e-02,
132,6.250000e-02,0.000000e+00,
133,-2.062500e+00,-1.875000e-02,
134,-2.187500e+00,-2.500000e-02,
135,-1.312500e+00,-6.250000e-03,
136,-1.437500e+00,-2.500000e-02,
137,1.062500e+00,0.000000e+00,
138,1.000000e+00,-1.250000e-02,
139,2.000000e+00,1.250000e-02,
140,1.937500e+00,-6.250000e-03,
141,0.000000e+00,1.250000e-02,
142,6.250000e-02,6.250000e-03,
143,-2.062500e+00,-2.500000e-02,
144,-2.250000e+00,-2.500000e-02,
145,-1.312500e+00,-6.250000e-03,
146,-1.375000e+00,-2.500000e-02,
147,1.062500e+00,0.000000e+00,
148,1.000000e+00,-1.250000e-02,
149,2.000000e+00,6.250000e-03,
150,1.937500e+00,6.250000e-03,
151,0.000000e+00,-1.250000e-02,
152,6.250000e-02,0.000000e+00,
153,-2.062500e+00,-1.250000e-02,
154,-2.250000e+00,-6.250000e-03,
155,-1.312500e+00,-2.500000e-02,
156,-1.437500e+00,-6.250000e-03,
157,0.000000e+00,-3.125000e-02,
158,-1.250000e-01,-1.875000e-02,
159,0.000000e+00,0.000000e+00,
160,0.000000e+00,-1.250000e-02,
161,-1.875000e-01,1.250000e-02,
162,0.000000e+00,6.250000e-03,
163,-1.875000e-01,-1.250000e-02,
164,0.000000e+00,0.000000e+00,
165,-1.875000e-01,-2.500000e-02,
166,-1.250000e-01,-6.250000e-03,
167,0.000000e+00,-1.875000e-02,
168,-1.250000e-01,-2.500000e-02,
169,0.000000e+00,0.000000e+00,
170,0.000000e+00,-1.250000e-02,
171,-1.875000e-01,6.250000e-03,
172,0.000000e+00,6.250000e-03,
173,-1.875000e-01,-1.250000e-02,
174,-1.250000e-01,0.000000e+00,
175,0.000000e+00,-1.875000e-02,
176,-1.250000e-01,-6.250000e-03,
177,0.000000e+00,-1.875000e-02,
178,0.000000e+00,-1.875000e-02,
179,-1.875000e-01,0.000000e+00,
180,-1.250000e-01,-1.250000e-02,
181,0.000000e+00,0.000000e+00,
182,0.000000e+00,0.000000e+00,
183,-1.875000e-01,-1.250000e-02,
184,0.000000e+00,0.000000e+00,
185,-1.875000e-01,-1.250000e-02,
186,-1.250000e-01,0.000000e+00,
187,0.000000e+00,-1.875000e-02,
188,-1.250000e-01,-6.250000e-03,
189,0.000000e+00,-1.875000e-02,
190,0.000000e+00,1.250000e-02,
191,-1.875000e-01,-2.500000e-02,
192,-1.250000e-01,0.000000e+00,
193,0.000000e+00,-1.875000e-02,
194,-1.250000e-01,-1.875000e-02,
195,0.000000e+00,0.000000e+00,
196,0.000000e+00,0.000000e+00,
197,-1.875000e-01,-1.875000e-02,
198,0.000000e+00,-1.875000e-02,
199,-1.250000e-01,0.000000e+00,
200,0.000000e+00,-1.875000e-02,
201,-1.875000e-01,0.000000e+00,
202,0.000000e+00,-1.250000e-02,
203,-1.875000e-01,0.000000e+00,
204,0.000000e+00,6.250000e-03,
205,-1.875000e-01,-1.250000e-02,
206,-1.250000e-01,0.000000e+00,
207,0.000000e+00,-1.875000e-02,
208,0.000000e+00,0.000000e+00,
209,-1.250000e-01,-1.875000e-02,
210,-1.250000e-01,0.000000e+00,
211,0.000000e+00,-1.875000e-02,
212,-1.250000e-01,-1.875000e-02,
213,0.000000e+00,6.250000e-03,
214,0.000000e+00,0.000000e+00,
215,-1.875000e-01,-1.875000e-02,
216,0.000000e+00,-1.250000e-02,
217,-1.875000e-01,0.000000e+00,
218,-1.250000e-01,-1.250000e-02,
219,0.000000e+00,0.000000e+00,
220,0.000000e+00,0.000000e+00,
221,-1.875000e-01,-1.875000e-02,
222,0.000000e+00,-1.875000e-02,
223,-1.875000e-01,0.000000e+00,
224,0.000000e+00,-1.875000e-02,
225,-1.875000e-01,0.000000e+00,
226,-1.250000e-01,-1.250000e-02,
227,0.000000e+00,6.250000e-03,
228,-1.250000e-01,6.250000e-03,
229,0.000000e+00,-1.875000e-02,
230,-1.250000e-01,-6.250000e-03,
231,0.000000e+00,-2.500000e-02,
232,0.000000e+00,-1.875000e-02,
233,-1.875000e-01,-6.250000e-03,
234,-1.250000e-01,-1.250000e-02,
235,0.000000e+00,6.250000e-03,
236,-1.250000e-01,-6.250000e-03,
237,0.000000e+00,6.250000e-03,
238,0.000000e+00,0.000000e+00,
239,-1.875000e-01,-1.250000e-02,
240,0.000000e+00,0.000000e+00,
241,-1.875000e-01,-2.500000e-02,
242,0.000000e+00,-2.500000e-02,
243,-1.875000e-01,-6.250000e-03,
244,0.000000e+00,-1.875000e-02,
245,-1.875000e-01,6.250000e-03,
246,0.000000e+00,-6.250000e-03,
247,-1.875000e-01,6.250000e-03,
248,0.000000e+00,6.250000e-03,
249,-1.875000e-01,-1.250000e-02,
250,0.000000e+00,0.000000e+00,
251,-1.875000e-01,-2.500000e-02,
252,-1.250000e-01,-2.500000e-02,
253,0.000000e+00,-6.250000e-03,
254,0.000000e+00,-1.875000e-02,
255,-1.875000e-01,0.000000e+00,
256,0.000000e+00,-1.250000e-02,
257,-1.875000e-01,1.250000e-02,
258,-1.250000e-01,1.250000e-02,
259,0.000000e+00,-1.250000e-02,
260,-1.250000e-01,0.000000e+00,
261,0.000000e+00,-2.500000e-02,
262,-1.250000e-01,-2.500000e-02,
263,0.000000e+00,-6.250000e-03,
264,0.000000e+00,-2.500000e-02,
265,-1.875000e-01,0.000000e+00,
266,0.000000e+00,-1.250000e-02,
267,-1.875000e-01,1.250000e-02,
268,-1.250000e-01,1.250000e-02,
269,0.000000e+00,-6.250000e-03,
270,0.000000e+00,6.250000e-03,
271,-1.875000e-01,-2.500000e-02,
272,-1.250000e-01,-1.250000e-02,
273,0.000000e+00,-2.500000e-02,
274,-1.250000e-01,-6.250000e-03,
275,0.000000e+00,-2.500000e-02,
276,0.000000e+00,-1.875000e-02,
277,-1.875000e-01,6.250000e-03,
278,-1.250000e-01,-6.250000e-03,
279,0.000000e+00,1.250000e-02,
280,0.000000e+00,6.250000e-03,
281,-1.875000e-01,-1.250000e-02,
282,0.000000e+00,-6.250000e-03,
283,-1.875000e-01,-2.500000e-02,
284,0.000000e+00,-2.500000e-02,
285,-1.875000e-01,-6.250000e-03,
286,0.000000e+00,-1.875000e-02,
287,-1.875000e-01,6.250000e-03,
288,-1.250000e-01,-6.250000e-03,
289,0.000000e+00,1.250000e-02,
290,-1.250000e-01,1.250000e-02,
291,0.000000e+00,-1.875000e-02,
292,0.000000e+00,-6.250000e-03,
293,-1.875000e-01,-2.500000e-02,
294,-1.250000e-01,-2.500000e-02,
295,0.000000e+00,-6.250000e-03,
296,0.000000e+00,-1.875000e-02,
297,-1.875000e-01,0.000000e+00,
298,0.000000e+00,-6.250000e-03,
299,-1.250000e-01,1.250000e-02,
300,0.000000e+00,6.250000e-03,
301,-1.875000e-01,-1.875000e-02,
302,0.000000e+00,-6.250000e-03,
303,-1.875000e-01,-2.500000e-02,
304,0.000000e+00,-6.250000e-03,
305,-1.875000e-01,-2.500000e-02,
306,-1.250000e-01,-1.875000e-02,
307,0.000000e+00,0.000000e+00,
308,-1.250000e-01,-6.250000e-03,
309,0.000000e+00,6.250000e-03,
310,0.000000e+00,0.000000e+00,
311,-1.875000e-01,-1.875000e-02,
312,-1.250000e-01,0.000000e+00,
313,0.000000e+00,-2.500000e-02,
314,-1.250000e-01,-6.250000e-03,
315,0.000000e+00,-2.500000e-02,
316,0.000000e+00,-1.875000e-02,
317,-1.875000e-01,6.250000e-03,
318,-1.250000e-01,-1.250000e-02,
319,0.000000e+00,6.250000e-03,
320,0.000000e+00,0.000000e+00,
321,-1.875000e-01,-1.250000e-02,
322,0.000000e+00,0.000000e+00,
323,-1.875000e-01,-2.500000e-02,
324,0.000000e+00,-2.500000e-02,
325,-1.875000e-01,-6.250000e-03,
326,-1.250000e-01,-1.875000e-02,
327,0.000000e+00,0.000000e+00,
328,0.000000e+00,-1.250000e-02,
329,-1.875000e-01,6.250000e-03,
330,0.000000e+00,6.250000e-03,
331,-1.250000e-01,-1.250000e-02,
332,-1.250000e-01,0.000000e+00,
333,0.000000e+00,-1.875000e-02,
334,0.000000e+00,-6.250000e-03,
335,-1.875000e-01,-2.500000e-02,
336,-1.250000e-01,-2.500000e-02,
337,0.000000e+00,0.000000e+00,
338,0.000000e+00,-1.250000e-02,
339,-1.875000e-01,6.250000e-03,
340,-1.250000e-01,-1.250000e-02,
341,0.000000e+00,6.250000e-03,
342,-1.250000e-01,0.000000e+00,
343,0.000000e+00,-1.875000e-02,
344,-1.250000e-01,-6.250000e-03,
345,0.000000e+00,-2.500000e-02,
346,0.000000e+00,-1.875000e-02,
347,-1.875000e-01,0.000000e+00,
348,0.000000e+00,-1.875000e-02,
349,-1.875000e-01,0.000000e+00,
350,0.000000e+00,6.250000e-03,
351,-1.875000e-01,-1.250000e-02,
352,0.000000e+00,0.000000e+00,
353,-1.875000e-01,-1.875000e-02,
354,0.000000e+00,-6.250000e-03,
355,-1.875000e-01,-1.875000e-02,
356,0.000000e+00,-1.875000e-02,
357,-1.875000e-01,0.000000e+00,
358,0.000000e+00,0.000000e+00,
359,-1.875000e-01,-1.875000e-02,
360,0.000000e+00,-1.250000e-02,
361,-1.875000e-01,6.250000e-03,
362,0.000000e+00,0.000000e+00,
363,-1.875000e-01,-1.250000e-02,
364,0.000000e+00,0.000000e+00,
365,-1.875000e-01,-1.875000e-02,
366,-1.875000e-01,-1.875000e-02,
367,0.000000e+00,0.000000e+00,
368,-1.250000e-01,-1.250000e-02,
369,0.000000e+00,0.000000e+00,
370,-1.250000e-01,0.000000e+00,
371,0.000000e+00,-1.250000e-02,
372,-1.250000e-01,-1.250000e-02,
373,0.000000e+00,6.250000e-03,
374,0.000000e+00,0.000000e+00,
375,-1.875000e-01,-1.875000e-02,
376,-1.250000e-01,-1.875000e-02,
377,0.000000e+00,-6.250000e-03,
378,0.000000e+00,-1.875000e-02,
379,-1.875000e-01,0.000000e+00,
380,-1.250000e-01,-1.250000e-02,
381,0.000000e+00,6.250000e-03,
382,0.000000e+00,0.000000e+00,
383,-1.875000e-01,-1.875000e-02,
384,0.000000e+00,-1.875000e-02,
385,-1.875000e-01,0.000000e+00,
386,-1.250000e-01,0.000000e+00,
387,0.000000e+00,-1.875000e-02,
388,0.000000e+00,-1.875000e-02,
389,-1.875000e-01,0.000000e+00,
390,0.000000e+00,-1.875000e-02,
391,-1.875000e-01,6.250000e-03,
392,0.000000e+00,0.000000e+00,
393,-1.875000e-01,-1.875000e-02,
394,0.000000e+00,0.000000e+00,
395,-1.875000e-01,-1.875000e-02,
396,0.000000e+00,-1.875000e-02,
397,-1.875000e-01,0.000000e+00,
398,-1.250000e-01,0.000000e+00,
399,0.000000e+00,-1.875000e-02,
400,-1.250000e-01,-1.875000e-02,
401,0.000000e+00,6.250000e-03,
402,-1.875000e-01,-1.250000e-02,
403,0.000000e+00,6.250000e-03,
404,-1.250000e-01,0.000000e+00,
405,0.000000e+00,-1.875000e-02,
406,-1.250000e-01,-1.875000e-02,
407,0.000000e+00,0.000000e+00,
408,-1.250000e-01,0.000000e+00,
409,0.000000e+00,-1.875000e-02,
410,-1.250000e-01,-1.250000e-02,
411,0.000000e+00,0.000000e+00,
412,0.000000e+00,-1.250000e-02,
413,-1.875000e-01,6.250000e-03,
414,0.000000e+00,6.250000e-03,
415,-1.875000e-01,-1.875000e-02,
416,0.000000e+00,-6.250000e-03,
417,-1.250000e-01,-2.500000e-02,
418,0.000000e+00,-1.875000e-02,
419,-1.250000e-01,0.000000e+00,
420,0.000000e+00,-1.250000e-02,
421,-1.875000e-01,6.250000e-03,
422,0.000000e+00,6.250000e-03,
423,-1.875000e-01,-1.875000e-02,
424,0.000000e+00,0.000000e+00,
425,-1.875000e-01,-1.875000e-02,
426,-1.250000e-01,-1.875000e-02,
427,0.000000e+00,0.000000e+00,
428,-1.250000e-01,0.000000e+00,
429,0.000000e+00,-1.875000e-02,
430,0.000000e+00,0.000000e+00,
431,-1.250000e-01,-1.875000e-02,
432,-1.250000e-01,0.000000e+00,
433,0.000000e+00,-1.250000e-02,
434,0.000000e+00,-1.250000e-02,
435,-1.875000e-01,0.000000e+00,
436,-1.250000e-01,0.000000e+00,
437,0.000000e+00,-1.875000e-02,
438,0.000000e+00,-6.250000e-03,
439,-1.250000e-01,-1.875000e-02,
440,0.000000e+00,0.000000e+00,
441,-1.875000e-01,-1.875000e-02,
442,0.000000e+00,0.000000e+00,
443,-1.875000e-01,-1.875000e-02,
444,-1.250000e-01,-1.875000e-02,
445,0.000000e+00,0.000000e+00,
446,0.000000e+00,0.000000e+00,
447,-1.875000e-01,-1.875000e-02,
448,-1.250000e-01,0.000000e+00,
449,0.000000e+00,-1.875000e-02,
450,-1.250000e-01,-1.875000e-02,
451,0.000000e+00,0.000000e+00,
452,-1.250000e-01,0.000000e+00,
453,0.000000e+00,-1.875000e-02,
454,-1.250000e-01,-1.875000e-02,
455,0.000000e+00,0.000000e+00,
456,0.000000e+00,6.250000e-03,
457,-1.250000e-01,-1.875000e-02,
458,0.000000e+00,-1.250000e-02,
459,-1.250000e-01,0.000000e+00,
460,0.000000e+00,-1.250000e-02,
461,-1.875000e-01,0.000000e+00,
462,-1.875000e-01,0.000000e+00,
463,0.000000e+00,-1.875000e-02,
464,-1.250000e-01,-1.875000e-02,
465,0.000000e+00,6.250000e-03,
466,0.000000e+00,-1.250000e-02,
467,-1.875000e-01,6.250000e-03,
468,0.000000e+00,-1.250000e-02,
469,-1.875000e-01,6.250000e-03,
470,0.000000e+00,0.000000e+00,
471,-1.875000e-01,-1.875000e-02,
472,-1.875000e-01,-6.250000e-03,
473,0.000000e+00,-2.500000e-02,
474,0.000000e+00,-1.875000e-02,
475,-1.875000e-01,0.000000e+00,
476,0.000000e+00,-1.250000e-02,
477,-1.875000e-01,6.250000e-03,
478,0.000000e+00,-1.250000e-02,
479,-1.875000e-01,6.250000e-03,
480,-1.250000e-01,0.000000e+00,
481,0.000000e+00,-1.875000e-02,
482,0.000000e+00,-6.250000e-03,
483,-1.250000e-01,-2.500000e-02,
484,-1.250000e-01,-1.875000e-02,
485,0.000000e+00,0.000000e+00,
486,-1.250000e-01,-1.250000e-02,
487,0.000000e+00,6.250000e-03,
488,0.000000e+00,6.250000e-03,
489,-1.875000e-01,-1.250000e-02,
490,0.000000e+00,6.250000e-03,
491,-1.875000e-01,-1.875000e-02,
492,0.000000e+00,-6.250000e-03,
493,-1.875000e-01,-2.500000e-02,
494,0.000000e+00,-1.875000e-02,
495,-1.875000e-01,0.000000e+00,
496,0.000000e+00,-1.250000e-02,
497,-1.875000e-01,6.250000e-03,
498,0.000000e+00,-6.250000e-03,
499,-1.875000e-01,6.250000e-03,
500,0.000000e+00,-1.250000e-02,
501,-1.875000e-01,6.250000e-03,
502,-1.875000e-01,0.000000e+00,
503,0.000000e+00,-2.500000e-02,
504,-1.250000e-01,-2.500000e-02,
505,0.000000e+00,-6.250000e-03,
506,-1.250000e-01,-1.875000e-02,
507,0.000000e+00,6.250000e-03,
508,-1.250000e-01,6.250000e-03,
509,0.000000e+00,-1.250000e-02,
510,0.000000e+00,6.250000e-03,
511,-1.875000e-01,-1.250000e-02,
512,-1.875000e-01,-6.250000e-03,
513,0.000000e+00,-2.500000e-02,
514,0.000000e+00,-2.500000e-02,
515,-1.875000e-01,-6.250000e-03,
516,0.000000e+00,-1.875000e-02,
517,-1.875000e-01,6.250000e-03,
518,0.000000e+00,6.250000e-03,
519,-1.875000e-01,-1.250000e-02,
520,0.000000e+00,6.250000e-03,
521,-1.875000e-01,-1.250000e-02,
522,-1.250000e-01,0.000000e+00,
523,0.000000e+00,-2.500000e-02,
524,0.000000e+00,-6.250000e-03,
525,-1.875000e-01,-3.125000e-02,
526,-1.250000e-01,-2.500000e-02,
527,0.000000e+00,0.000000e+00,
528,-1.250000e-01,-1.250000e-02,
529,0.000000e+00,6.250000e-03,
530,-1.250000e-01,-6.250000e-03,
531,0.000000e+00,1.250000e-02,
532,-1.250000e-01,0.000000e+00,
533,0.000000e+00,-2.500000e-02,
534,0.000000e+00,-1.250000e-02,
535,-1.875000e-01,-3.125000e-02,
536,-1.250000e-01,-3.125000e-02,
537,0.000000e+00,-6.250000e-03,
538,0.000000e+00,-1.250000e-02,
539,-1.875000e-01,6.250000e-03,
540,0.000000e+00,-6.250000e-03,
541,-1.875000e-01,1.250000e-02,
542,0.000000e+00,6.250000e-03,
543,-1.875000e-01,-2.500000e-02,
544,0.000000e+00,-1.250000e-02,
545,-1.875000e-01,-3.125000e-02,
546,0.000000e+00,-2.500000e-02,
547,-1.250000e-01,-6.250000e-03,
548,-1.250000e-01,-1.250000e-02,
549,0.000000e+00,6.250000e-03,
550,-1.250000e-01,-6.250000e-03,
551,0.000000e+00,6.250000e-03,
552,-1.250000e-01,6.250000e-03,
553,0.000000e+00,-1.875000e-02,
554,-1.250000e-01,-6.250000e-03,
555,0.000000e+00,-2.500000e-02,
556,-1.250000e-01,-2.500000e-02,
557,0.000000e+00,-6.250000e-03,
558,0.000000e+00,-1.250000e-02,
559,-1.875000e-01,6.250000e-03,
560,0.000000e+00,-6.250000e-03,
561,-1.875000e-01,1.250000e-02,
562,0.000000e+00,6.250000e-03,
563,-1.875000e-01,-1.875000e-02,
564,-1.250000e-01,-6.250000e-03,
565,0.000000e+00,-2.500000e-02,
566,0.000000e+00,-2.500000e-02,
567,-1.875000e-01,-6.250000e-03,
568,0.000000e+00,-1.875000e-02,
569,-1.250000e-01,0.000000e+00,
570,0.000000e+00,-6.250000e-03,
571,-1.875000e-01,6.250000e-03,
572,0.000000e+00,6.250000e-03,
573,-1.875000e-01,-1.875000e-02,
574,-1.250000e-01,-6.250000e-03,
575,0.000000e+00,-2.500000e-02,
576,0.000000e+00,-1.875000e-02,
577,-1.875000e-01,-6.250000e-03,
578,-1.250000e-01,-1.875000e-02,
579,0.000000e+00,0.000000e+00,
580,0.000000e+00,-1.250000e-02,
581,-1.875000e-01,6.250000e-03,
582,-1.250000e-01,6.250000e-03,
583,0.000000e+00,-1.250000e-02,
584,-1.250000e-01,0.000000e+00,
585,0.000000e+00,-2.500000e-02,
586,0.000000e+00,-2.500000e-02,
587,-1.875000e-01,-6.250000e-03,
588,0.000000e+00,-1.875000e-02,
589,-1.875000e-01,0.000000e+00,
590,-1.250000e-01,1.250000e-02,
591,0.000000e+00,-1.250000e-02,
592,-1.250000e-01,6.250000e-03,
593,0.000000e+00,-1.250000e-02,
594,-1.250000e-01,0.000000e+00,
595,0.000000e+00,-2.500000e-02,
596,0.000000e+00,-6.250000e-03,
597,-1.250000e-01,-2.500000e-02,
598,0.000000e+00,-1.875000e-02,
599,-1.875000e-01,0.000000e+00,
600,0.000000e+00,-1.250000e-02,
601,-1.875000e-01,6.250000e-03,
602,-1.250000e-01,6.250000e-03,
603,0.000000e+00,-1.250000e-02,
604,-1.250000e-01,0.000000e+00,
605,0.000000e+00,-1.875000e-02,
606,-1.250000e-01,-6.250000e-03,
607,0.000000e+00,-2.500000e-02,
608,-1.250000e-01,-1.875000e-02,
609,0.000000e+00,0.000000e+00,
610,0.000000e+00,-1.250000e-02,
611,-1.875000e-01,6.250000e-03,
612,0.000000e+00,6.250000e-03,
613,-1.875000e-01,-1.250000e-02,
614,-1.250000e-01,-1.250000e-02,
615,0.000000e+00,0.000000e+00,
616,0.000000e+00,-6.250000e-03,
617,-1.875000e-01,-2.500000e-02,
618,0.000000e+00,-2.500000e-02,
619,-1.875000e-01,0.000000e+00,
620,-1.250000e-01,-1.250000e-02,
621,0.000000e+00,0.000000e+00,
622,0.000000e+00,-1.875000e-02,
623,-1.875000e-01,6.250000e-03,
