lab/data/20171128/plate2/50mm20mm0mmX/21.csv

X,CH1,CH2,Start,Increment,
Sequence,Volt,Volt,-1.014000e-04,5.000000e-07,
0,-6.250000e-02,-1.250000e-02,
1,3.125000e-02,1.250000e-02,
2,-6.250000e-02,6.250000e-03,
3,3.125000e-02,-6.250000e-03,
4,-6.250000e-02,6.250000e-03,
5,3.125000e-02,-1.875000e-02,
6,-6.250000e-02,0.000000e+00,
7,3.125000e-02,-1.875000e-02,
8,-6.250000e-02,-1.875000e-02,
9,3.125000e-02,0.000000e+00,
10,-6.250000e-02,6.250000e-03,
11,3.125000e-02,-1.250000e-02,
12,-6.250000e-02,6.250000e-03,
13,3.125000e-02,-1.250000e-02,
14,-6.250000e-02,6.250000e-03,
15,3.125000e-02,-1.250000e-02,
16,3.125000e-02,0.000000e+00,
17,-6.250000e-02,-1.875000e-02,
18,3.125000e-02,-1.875000e-02,
19,-6.250000e-02,0.000000e+00,
20,-6.250000e-02,-1.250000e-02,
21,3.125000e-02,1.250000e-02,
22,-6.250000e-02,6.250000e-03,
23,3.125000e-02,-1.250000e-02,
24,-6.250000e-02,6.250000e-03,
25,3.125000e-02,-1.875000e-02,
26,3.125000e-02,-1.250000e-02,
27,-6.250000e-02,0.000000e+00,
28,-6.250000e-02,0.000000e+00,
29,3.125000e-02,-1.875000e-02,
30,-6.250000e-02,-1.875000e-02,
31,3.125000e-02,6.250000e-03,
32,-6.250000e-02,6.250000e-03,
33,3.125000e-02,-1.250000e-02,
34,-6.250000e-02,-1.250000e-02,
35,3.125000e-02,0.000000e+00,
36,-6.250000e-02,-1.250000e-02,
37,3.125000e-02,0.000000e+00,
38,-6.250000e-02,0.000000e+00,
39,3.125000e-02,-1.875000e-02,
40,-6.250000e-02,0.000000e+00,
41,3.125000e-02,-1.875000e-02,
42,0.000000e+00,-1.250000e-02,
43,-6.250000e-02,6.250000e-03,
44,-6.250000e-02,-6.250000e-03,
45,3.125000e-02,6.250000e-03,
46,3.125000e-02,6.250000e-03,
47,-6.250000e-02,-1.250000e-02,
48,-6.250000e-02,0.000000e+00,
49,3.125000e-02,-1.875000e-02,
50,-6.250000e-02,-1.250000e-02,
51,3.125000e-02,0.000000e+00,
52,3.125000e-02,1.250000e-02,
53,-6.250000e-02,-1.875000e-02,
54,-6.250000e-02,-1.250000e-02,
55,3.125000e-02,1.250000e-02,
56,-6.250000e-02,6.250000e-03,
57,3.125000e-02,-1.250000e-02,
58,3.125000e-02,0.000000e+00,
59,-6.250000e-02,-1.875000e-02,
60,-6.250000e-02,-1.875000e-02,
61,3.125000e-02,6.250000e-03,
62,-6.250000e-02,-1.250000e-02,
63,3.125000e-02,1.250000e-02,
64,-6.250000e-02,1.250000e-02,
65,3.125000e-02,-1.250000e-02,
66,-6.250000e-02,0.000000e+00,
67,3.125000e-02,-1.875000e-02,
68,-6.250000e-02,-1.875000e-02,
69,3.125000e-02,0.000000e+00,
70,-6.250000e-02,-1.250000e-02,
71,3.125000e-02,6.250000e-03,
72,-6.250000e-02,6.250000e-03,
73,3.125000e-02,-1.250000e-02,
74,-6.250000e-02,0.000000e+00,
75,3.125000e-02,-1.250000e-02,
76,-6.250000e-02,-1.250000e-02,
77,3.125000e-02,0.000000e+00,
78,3.125000e-02,-1.250000e-02,
79,-6.250000e-02,6.250000e-03,
80,-6.250000e-02,-1.250000e-02,
81,3.125000e-02,6.250000e-03,
82,-6.250000e-02,-1.250000e-02,
83,3.125000e-02,6.250000e-03,
84,-6.250000e-02,-1.250000e-02,
85,3.125000e-02,6.250000e-03,
86,-6.250000e-02,-1.875000e-02,
87,3.125000e-02,6.250000e-03,
88,-6.250000e-02,-1.250000e-02,
89,3.125000e-02,6.250000e-03,
90,-6.250000e-02,-1.250000e-02,
91,3.125000e-02,6.250000e-03,
92,-6.250000e-02,-1.250000e-02,
93,3.125000e-02,0.000000e+00,
94,-6.250000e-02,-1.250000e-02,
95,3.125000e-02,6.250000e-03,
96,-6.250000e-02,6.250000e-03,
97,3.125000e-02,-1.250000e-02,
98,0.000000e+00,0.000000e+00,
99,-6.250000e-02,-1.250000e-02,
100,-6.250000e-02,0.000000e+00,
101,3.125000e-02,-1.875000e-02,
102,3.125000e-02,-1.250000e-02,
103,-6.250000e-02,6.250000e-03,
104,-6.250000e-02,-6.250000e-03,
105,3.125000e-02,1.250000e-02,
106,-6.250000e-02,6.250000e-03,
107,3.125000e-02,-1.250000e-02,
108,-6.250000e-02,-1.875000e-02,
109,3.125000e-02,0.000000e+00,
110,-6.250000e-02,-1.875000e-02,
111,3.125000e-02,0.000000e+00,
112,-6.250000e-02,6.250000e-03,
113,3.125000e-02,-1.250000e-02,
114,3.125000e-02,-6.250000e-03,
115,-6.250000e-02,1.250000e-02,
116,-6.250000e-02,1.250000e-02,
117,3.125000e-02,-1.875000e-02,
118,-6.250000e-02,-1.875000e-02,
119,3.125000e-02,0.000000e+00,
120,-6.250000e-02,-1.875000e-02,
121,3.125000e-02,6.250000e-03,
122,-6.250000e-02,-1.250000e-02,
123,3.125000e-02,6.250000e-03,
124,-6.250000e-02,-6.250000e-03,
125,3.125000e-02,1.250000e-02,
126,-6.250000e-02,1.250000e-02,
127,3.125000e-02,-1.250000e-02,
128,-6.250000e-02,0.000000e+00,
129,3.125000e-02,-1.875000e-02,
130,-6.250000e-02,-6.250000e-03,
131,3.125000e-02,-1.875000e-02,
132,-6.250000e-02,-1.875000e-02,
133,3.125000e-02,6.250000e-03,
134,-6.250000e-02,-6.250000e-03,
135,3.125000e-02,6.250000e-03,
136,-6.250000e-02,6.250000e-03,
137,3.125000e-02,-1.250000e-02,
138,-6.250000e-02,0.000000e+00,
139,3.125000e-02,-1.875000e-02,
140,-6.250000e-02,0.000000e+00,
141,3.125000e-02,-2.500000e-02,
142,-6.250000e-02,-2.500000e-02,
143,3.125000e-02,6.250000e-03,
144,-6.250000e-02,-1.250000e-02,
145,3.125000e-02,1.250000e-02,
146,-6.250000e-02,1.250000e-02,
147,3.125000e-02,-6.250000e-03,
148,-6.250000e-02,6.250000e-03,
149,3.125000e-02,-1.875000e-02,
150,-6.250000e-02,-6.250000e-03,
151,3.125000e-02,-2.500000e-02,
152,-6.250000e-02,-2.500000e-02,
153,3.125000e-02,1.250000e-02,
154,-6.250000e-02,-1.250000e-02,
155,3.125000e-02,1.250000e-02,
156,-6.250000e-02,1.250000e-02,
157,3.125000e-02,-6.250000e-03,
158,-6.250000e-02,6.250000e-03,
159,3.125000e-02,-1.250000e-02,
160,-6.250000e-02,0.000000e+00,
161,3.125000e-02,-2.500000e-02,
162,-6.250000e-02,-1.875000e-02,
163,3.125000e-02,0.000000e+00,
164,-6.250000e-02,-1.250000e-02,
165,3.125000e-02,1.250000e-02,
166,-6.250000e-02,0.000000e+00,
167,3.125000e-02,1.250000e-02,
168,-6.250000e-02,1.250000e-02,
169,3.125000e-02,-1.250000e-02,
170,-6.250000e-02,0.000000e+00,
171,3.125000e-02,-2.500000e-02,
172,-6.250000e-02,-2.500000e-02,
173,3.125000e-02,-6.250000e-03,
174,-6.250000e-02,-1.875000e-02,
175,3.125000e-02,6.250000e-03,
176,-6.250000e-02,-6.250000e-03,
177,3.125000e-02,1.875000e-02,
178,-6.250000e-02,1.250000e-02,
179,3.125000e-02,-1.250000e-02,
180,-6.250000e-02,0.000000e+00,
181,3.125000e-02,-3.125000e-02,
182,-6.250000e-02,-3.125000e-02,
183,3.125000e-02,-1.250000e-02,
184,-6.250000e-02,-2.500000e-02,
185,3.125000e-02,1.250000e-02,
186,-6.250000e-02,0.000000e+00,
187,3.125000e-02,2.500000e-02,
188,-6.250000e-02,1.250000e-02,
189,3.125000e-02,-1.250000e-02,
190,0.000000e+00,6.250000e-03,
191,-6.250000e-02,-2.500000e-02,
192,-6.250000e-02,-1.250000e-02,
193,3.125000e-02,-3.125000e-02,
194,-6.250000e-02,-2.500000e-02,
195,7.187500e-01,1.250000e-02,
196,6.875000e-01,-6.250000e-03,
197,1.031250e+00,1.875000e-02,
198,9.062500e-01,1.875000e-02,
199,-2.187500e-01,-6.250000e-03,
200,-1.875000e-01,6.250000e-03,
201,-1.062500e+00,-1.875000e-02,
202,-1.062500e+00,-1.250000e-02,
203,-4.375000e-01,-3.125000e-02,
204,-4.687500e-01,-2.500000e-02,
205,7.500000e-01,0.000000e+00,
206,6.875000e-01,-1.250000e-02,
207,1.031250e+00,1.875000e-02,
208,9.062500e-01,1.875000e-02,
209,-2.187500e-01,-6.250000e-03,
210,-1.875000e-01,6.250000e-03,
211,-1.062500e+00,-1.875000e-02,
212,-1.093750e+00,-1.250000e-02,
213,-4.062500e-01,-3.125000e-02,
214,-5.000000e-01,-3.125000e-02,
215,7.500000e-01,0.000000e+00,
216,6.875000e-01,-1.250000e-02,
217,1.031250e+00,1.875000e-02,
218,9.062500e-01,6.250000e-03,
219,-2.187500e-01,2.500000e-02,
220,-1.875000e-01,1.875000e-02,
221,-1.062500e+00,-2.500000e-02,
222,-1.062500e+00,-1.250000e-02,
223,-4.375000e-01,-3.125000e-02,
224,-4.687500e-01,-2.500000e-02,
225,7.500000e-01,6.250000e-03,
226,7.187500e-01,-6.250000e-03,
227,1.031250e+00,1.875000e-02,
228,9.062500e-01,1.875000e-02,
229,-2.187500e-01,0.000000e+00,
230,-1.875000e-01,1.250000e-02,
231,-1.062500e+00,-1.875000e-02,
232,-1.062500e+00,-6.250000e-03,
233,-4.062500e-01,-2.500000e-02,
234,-4.687500e-01,-2.500000e-02,
235,7.500000e-01,0.000000e+00,
236,6.875000e-01,-1.250000e-02,
237,1.031250e+00,1.250000e-02,
238,9.062500e-01,1.250000e-02,
239,-2.187500e-01,-6.250000e-03,
240,-1.875000e-01,6.250000e-03,
241,-1.062500e+00,-1.250000e-02,
242,-1.062500e+00,0.000000e+00,
243,-4.375000e-01,-2.500000e-02,
244,-4.687500e-01,-2.500000e-02,
245,7.500000e-01,0.000000e+00,
246,7.187500e-01,-1.250000e-02,
247,1.031250e+00,1.250000e-02,
248,9.062500e-01,0.000000e+00,
249,-2.187500e-01,1.250000e-02,
250,-1.875000e-01,1.250000e-02,
251,-1.062500e+00,-1.250000e-02,
252,-1.062500e+00,0.000000e+00,
253,-4.375000e-01,-2.500000e-02,
254,-4.687500e-01,0.000000e+00,
255,7.500000e-01,-3.125000e-02,
256,7.187500e-01,-1.875000e-02,
257,1.031250e+00,1.250000e-02,
258,9.062500e-01,-6.250000e-03,
259,-2.187500e-01,1.250000e-02,
260,-1.875000e-01,1.250000e-02,
261,-1.062500e+00,-1.250000e-02,
262,-1.062500e+00,0.000000e+00,
263,-4.375000e-01,-1.875000e-02,
264,-4.687500e-01,-6.250000e-03,
265,7.500000e-01,-2.500000e-02,
266,6.875000e-01,-1.875000e-02,
267,1.031250e+00,6.250000e-03,
268,9.062500e-01,-6.250000e-03,
269,-2.187500e-01,1.250000e-02,
270,-1.875000e-01,1.250000e-02,
271,-1.062500e+00,-6.250000e-03,
272,-1.062500e+00,6.250000e-03,
273,-4.375000e-01,-1.250000e-02,
274,-4.687500e-01,0.000000e+00,
275,7.500000e-01,-1.875000e-02,
276,6.875000e-01,-1.875000e-02,
277,1.031250e+00,0.000000e+00,
278,9.062500e-01,-1.250000e-02,
279,-2.187500e-01,1.250000e-02,
280,-1.875000e-01,1.250000e-02,
281,-1.062500e+00,-6.250000e-03,
282,-1.062500e+00,6.250000e-03,
283,-4.375000e-01,-1.250000e-02,
284,-4.687500e-01,0.000000e+00,
285,7.500000e-01,-1.875000e-02,
286,6.875000e-01,-1.875000e-02,
287,1.031250e+00,6.250000e-03,
288,9.062500e-01,0.000000e+00,
289,-2.187500e-01,-1.875000e-02,
290,-1.875000e-01,-1.250000e-02,
291,-1.062500e+00,6.250000e-03,
292,-1.062500e+00,1.250000e-02,
293,-4.375000e-01,-1.250000e-02,
294,-4.687500e-01,0.000000e+00,
295,3.125000e-02,-1.875000e-02,
296,3.125000e-02,0.000000e+00,
297,-6.250000e-02,-1.875000e-02,
298,-6.250000e-02,-1.250000e-02,
299,3.125000e-02,0.000000e+00,
300,3.125000e-02,-1.250000e-02,
301,-6.250000e-02,0.000000e+00,
302,-6.250000e-02,6.250000e-03,
303,3.125000e-02,-1.250000e-02,
304,-6.250000e-02,-1.250000e-02,
305,3.125000e-02,6.250000e-03,
306,-6.250000e-02,6.250000e-03,
307,3.125000e-02,-1.250000e-02,
308,-6.250000e-02,-1.250000e-02,
309,3.125000e-02,6.250000e-03,
310,-6.250000e-02,6.250000e-03,
311,3.125000e-02,-1.250000e-02,
312,-6.250000e-02,0.000000e+00,
313,3.125000e-02,-1.250000e-02,
314,-6.250000e-02,-1.250000e-02,
315,3.125000e-02,6.250000e-03,
316,-6.250000e-02,-1.250000e-02,
317,3.125000e-02,6.250000e-03,
318,-6.250000e-02,-1.250000e-02,
319,3.125000e-02,6.250000e-03,
320,-6.250000e-02,-1.250000e-02,
321,3.125000e-02,1.250000e-02,
322,-6.250000e-02,0.000000e+00,
323,3.125000e-02,-1.875000e-02,
324,-6.250000e-02,-1.875000e-02,
325,3.125000e-02,6.250000e-03,
326,-6.250000e-02,-1.250000e-02,
327,3.125000e-02,6.250000e-03,
328,3.125000e-02,-1.250000e-02,
329,-6.250000e-02,6.250000e-03,
330,-6.250000e-02,-1.250000e-02,
331,3.125000e-02,0.000000e+00,
332,-6.250000e-02,0.000000e+00,
333,3.125000e-02,-1.250000e-02,
334,3.125000e-02,0.000000e+00,
335,-6.250000e-02,-1.875000e-02,
336,-6.250000e-02,-1.250000e-02,
337,3.125000e-02,6.250000e-03,
338,-6.250000e-02,6.250000e-03,
339,3.125000e-02,-1.250000e-02,
340,-6.250000e-02,0.000000e+00,
341,3.125000e-02,-1.875000e-02,
342,-6.250000e-02,-1.250000e-02,
343,3.125000e-02,6.250000e-03,
344,3.125000e-02,-1.250000e-02,
345,-6.250000e-02,6.250000e-03,
346,-6.250000e-02,0.000000e+00,
347,3.125000e-02,-1.250000e-02,
348,-6.250000e-02,-1.875000e-02,
349,3.125000e-02,0.000000e+00,
350,-6.250000e-02,-1.875000e-02,
351,3.125000e-02,6.250000e-03,
352,-6.250000e-02,-1.250000e-02,
353,3.125000e-02,6.250000e-03,
354,3.125000e-02,-1.250000e-02,
355,-6.250000e-02,1.250000e-02,
356,-6.250000e-02,0.000000e+00,
357,3.125000e-02,-1.875000e-02,
358,-6.250000e-02,-1.875000e-02,
359,3.125000e-02,0.000000e+00,
360,3.125000e-02,-1.875000e-02,
361,-6.250000e-02,6.250000e-03,
362,-6.250000e-02,-6.250000e-03,
363,3.125000e-02,1.250000e-02,
364,-6.250000e-02,6.250000e-03,
365,3.125000e-02,-1.250000e-02,
366,-6.250000e-02,0.000000e+00,
367,3.125000e-02,-1.875000e-02,
368,3.125000e-02,0.000000e+00,
369,-6.250000e-02,-1.875000e-02,
370,-6.250000e-02,-1.250000e-02,
371,3.125000e-02,6.250000e-03,
372,-6.250000e-02,6.250000e-03,
373,3.125000e-02,-1.250000e-02,
374,-6.250000e-02,6.250000e-03,
375,3.125000e-02,-1.250000e-02,
376,3.125000e-02,-1.250000e-02,
377,-6.250000e-02,0.000000e+00,
378,-6.250000e-02,-1.250000e-02,
379,3.125000e-02,6.250000e-03,
380,-6.250000e-02,-1.250000e-02,
381,3.125000e-02,6.250000e-03,
382,-6.250000e-02,-1.250000e-02,
383,3.125000e-02,6.250000e-03,
384,-6.250000e-02,-1.250000e-02,
385,3.125000e-02,6.250000e-03,
386,-6.250000e-02,6.250000e-03,
387,3.125000e-02,-1.875000e-02,
388,-6.250000e-02,0.000000e+00,
389,3.125000e-02,-1.875000e-02,
390,-6.250000e-02,-1.250000e-02,
391,3.125000e-02,6.250000e-03,
392,3.125000e-02,-1.250000e-02,
393,-6.250000e-02,6.250000e-03,
394,-6.250000e-02,6.250000e-03,
395,3.125000e-02,-1.250000e-02,
396,-6.250000e-02,6.250000e-03,
397,3.125000e-02,-1.875000e-02,
398,3.125000e-02,0.000000e+00,
399,-6.250000e-02,-1.875000e-02,
400,3.125000e-02,-1.875000e-02,
401,-6.250000e-02,0.000000e+00,
402,3.125000e-02,-1.250000e-02,
403,-6.250000e-02,6.250000e-03,
404,-6.250000e-02,6.250000e-03,
405,3.125000e-02,-1.250000e-02,
406,-6.250000e-02,0.000000e+00,
407,3.125000e-02,-1.875000e-02,
408,3.125000e-02,-1.875000e-02,
409,-6.250000e-02,0.000000e+00,
410,-6.250000e-02,0.000000e+00,
411,3.125000e-02,-1.875000e-02,
412,-6.250000e-02,-6.250000e-03,
413,3.125000e-02,1.250000e-02,
414,-6.250000e-02,6.250000e-03,
415,3.125000e-02,-1.250000e-02,
416,3.125000e-02,0.000000e+00,
417,-6.250000e-02,-1.875000e-02,
418,-6.250000e-02,-1.875000e-02,
419,3.125000e-02,0.000000e+00,
420,-6.250000e-02,-1.250000e-02,
421,3.125000e-02,1.250000e-02,
422,-6.250000e-02,6.250000e-03,
423,3.125000e-02,-1.250000e-02,
424,-6.250000e-02,-1.250000e-02,
425,3.125000e-02,6.250000e-03,
426,-6.250000e-02,-1.250000e-02,
427,3.125000e-02,6.250000e-03,
428,-6.250000e-02,0.000000e+00,
429,3.125000e-02,-1.875000e-02,
430,-6.250000e-02,-1.875000e-02,
431,3.125000e-02,0.000000e+00,
432,3.125000e-02,-1.250000e-02,
433,-6.250000e-02,6.250000e-03,
434,-6.250000e-02,6.250000e-03,
435,3.125000e-02,-1.250000e-02,
436,-6.250000e-02,6.250000e-03,
437,3.125000e-02,-1.250000e-02,
438,-6.250000e-02,0.000000e+00,
439,3.125000e-02,-1.875000e-02,
440,-6.250000e-02,0.000000e+00,
441,3.125000e-02,-1.875000e-02,
442,-6.250000e-02,-1.250000e-02,
443,3.125000e-02,6.250000e-03,
444,-6.250000e-02,-6.250000e-03,
445,3.125000e-02,1.250000e-02,
446,0.000000e+00,6.250000e-03,
447,-6.250000e-02,-1.250000e-02,
448,-6.250000e-02,-6.250000e-03,
449,3.125000e-02,-1.875000e-02,
450,-6.250000e-02,-1.875000e-02,
451,3.125000e-02,0.000000e+00,
452,-6.250000e-02,6.250000e-03,
453,3.125000e-02,-1.250000e-02,
454,-6.250000e-02,1.250000e-02,
455,3.125000e-02,-1.875000e-02,
456,-6.250000e-02,0.000000e+00,
457,3.125000e-02,-1.875000e-02,
458,0.000000e+00,0.000000e+00,
459,-6.250000e-02,-1.875000e-02,
460,3.125000e-02,-1.250000e-02,
461,-6.250000e-02,6.250000e-03,
462,-6.250000e-02,6.250000e-03,
463,3.125000e-02,-1.250000e-02,
464,-6.250000e-02,-1.250000e-02,
465,3.125000e-02,6.250000e-03,
466,-6.250000e-02,6.250000e-03,
467,3.125000e-02,-1.875000e-02,
468,-6.250000e-02,0.000000e+00,
469,3.125000e-02,-1.875000e-02,
470,-6.250000e-02,-1.250000e-02,
471,3.125000e-02,6.250000e-03,
472,-6.250000e-02,6.250000e-03,
473,3.125000e-02,-1.250000e-02,
474,-6.250000e-02,6.250000e-03,
475,3.125000e-02,-1.250000e-02,
476,-6.250000e-02,-1.250000e-02,
477,3.125000e-02,6.250000e-03,
478,-6.250000e-02,-1.250000e-02,
479,3.125000e-02,0.000000e+00,
480,-6.250000e-02,-1.875000e-02,
481,3.125000e-02,6.250000e-03,
482,-6.250000e-02,-1.250000e-02,
483,3.125000e-02,6.250000e-03,
484,-6.250000e-02,-6.250000e-03,
485,3.125000e-02,1.250000e-02,
486,-6.250000e-02,6.250000e-03,
487,3.125000e-02,-1.875000e-02,
488,-6.250000e-02,0.000000e+00,
489,3.125000e-02,-1.875000e-02,
490,-6.250000e-02,-1.875000e-02,
491,3.125000e-02,0.000000e+00,
492,3.125000e-02,-1.250000e-02,
493,-6.250000e-02,1.250000e-02,
494,-6.250000e-02,1.250000e-02,
495,3.125000e-02,-6.250000e-03,
496,-6.250000e-02,6.250000e-03,
497,3.125000e-02,-1.250000e-02,
498,-6.250000e-02,0.000000e+00,
499,3.125000e-02,-1.875000e-02,
500,3.125000e-02,-1.875000e-02,
501,-6.250000e-02,0.000000e+00,
502,-6.250000e-02,-1.875000e-02,
503,3.125000e-02,6.250000e-03,
504,-6.250000e-02,1.250000e-02,
505,3.125000e-02,-1.250000e-02,
506,-6.250000e-02,6.250000e-03,
507,3.125000e-02,-1.250000e-02,
508,-6.250000e-02,0.000000e+00,
509,3.125000e-02,-1.875000e-02,
510,3.125000e-02,0.000000e+00,
511,-6.250000e-02,-1.875000e-02,
512,-6.250000e-02,-1.875000e-02,
513,3.125000e-02,6.250000e-03,
514,3.125000e-02,6.250000e-03,
515,-6.250000e-02,-1.250000e-02,
516,-6.250000e-02,-1.250000e-02,
517,0.000000e+00,6.250000e-03,
518,-6.250000e-02,0.000000e+00,
519,3.125000e-02,-1.875000e-02,
520,-6.250000e-02,-2.500000e-02,
521,3.125000e-02,6.250000e-03,
522,-6.250000e-02,-2.500000e-02,
523,3.125000e-02,6.250000e-03,
524,-6.250000e-02,-6.250000e-03,
525,3.125000e-02,1.250000e-02,
526,-6.250000e-02,1.250000e-02,
527,3.125000e-02,-1.250000e-02,
528,-6.250000e-02,6.250000e-03,
529,3.125000e-02,-1.875000e-02,
530,-6.250000e-02,-6.250000e-03,
531,3.125000e-02,-2.500000e-02,
532,-6.250000e-02,-1.875000e-02,
533,3.125000e-02,0.000000e+00,
534,-6.250000e-02,-6.250000e-03,
535,3.125000e-02,1.250000e-02,
536,-6.250000e-02,1.250000e-02,
537,3.125000e-02,-6.250000e-03,
538,-6.250000e-02,6.250000e-03,
539,3.125000e-02,-1.875000e-02,
540,-6.250000e-02,-6.250000e-03,
541,3.125000e-02,-3.125000e-02,
542,-6.250000e-02,-1.875000e-02,
543,3.125000e-02,6.250000e-03,
544,-6.250000e-02,-6.250000e-03,
545,3.125000e-02,1.250000e-02,
546,-6.250000e-02,1.250000e-02,
547,3.125000e-02,0.000000e+00,
548,-6.250000e-02,6.250000e-03,
549,3.125000e-02,-1.250000e-02,
550,-6.250000e-02,0.000000e+00,
551,3.125000e-02,-2.500000e-02,
552,-6.250000e-02,-2.500000e-02,
553,3.125000e-02,-6.250000e-03,
554,-6.250000e-02,-1.875000e-02,
555,3.125000e-02,6.250000e-03,
556,-6.250000e-02,-6.250000e-03,
557,3.125000e-02,1.875000e-02,
558,-6.250000e-02,1.250000e-02,
559,3.125000e-02,-6.250000e-03,
560,-6.250000e-02,0.000000e+00,
561,3.125000e-02,-3.125000e-02,
562,-6.250000e-02,-3.125000e-02,
563,3.125000e-02,-1.250000e-02,
564,-6.250000e-02,-1.875000e-02,
565,3.125000e-02,1.250000e-02,
566,-6.250000e-02,0.000000e+00,
567,3.125000e-02,1.875000e-02,
568,-6.250000e-02,0.000000e+00,
569,3.125000e-02,1.875000e-02,
570,0.000000e+00,6.250000e-03,
571,-6.250000e-02,-1.875000e-02,
572,-6.250000e-02,-1.250000e-02,
573,3.125000e-02,-3.125000e-02,
574,-6.250000e-02,-3.125000e-02,
575,3.125000e-02,6.250000e-03,
576,-6.250000e-02,-6.250000e-03,
577,3.125000e-02,1.875000e-02,
578,-6.250000e-02,1.250000e-02,
579,3.125000e-02,-6.250000e-03,
580,-6.250000e-02,6.250000e-03,
581,3.125000e-02,-2.500000e-02,
582,3.125000e-02,-1.250000e-02,
583,-6.250000e-02,-2.500000e-02,
584,-6.250000e-02,-2.500000e-02,
585,3.125000e-02,0.000000e+00,
586,-6.250000e-02,-1.250000e-02,
587,0.000000e+00,1.250000e-02,
588,3.125000e-02,0.000000e+00,
589,-6.250000e-02,2.500000e-02,
590,-6.250000e-02,6.250000e-03,
591,3.125000e-02,-1.875000e-02,
592,-6.250000e-02,0.000000e+00,
593,3.125000e-02,-2.500000e-02,
594,0.000000e+00,-6.250000e-03,
595,-6.250000e-02,-2.500000e-02,
596,-6.250000e-02,-1.875000e-02,
597,3.125000e-02,1.250000e-02,
598,-6.250000e-02,0.000000e+00,
599,3.125000e-02,1.875000e-02,
600,-6.250000e-02,1.250000e-02,
601,3.125000e-02,-1.250000e-02,
602,-6.250000e-02,-6.250000e-03,
603,3.125000e-02,-2.500000e-02,
604,-6.250000e-02,-6.250000e-03,
605,3.125000e-02,-2.500000e-02,
606,-6.250000e-02,-1.875000e-02,
607,3.125000e-02,1.250000e-02,
608,-6.250000e-02,0.000000e+00,
609,3.125000e-02,1.875000e-02,
610,-6.250000e-02,1.250000e-02,
611,3.125000e-02,-1.875000e-02,
612,-6.250000e-02,-6.250000e-03,
613,3.125000e-02,-3.125000e-02,
614,-6.250000e-02,-2.500000e-02,
615,3.125000e-02,-6.250000e-03,
616,3.125000e-02,-1.875000e-02,
617,-6.250000e-02,6.250000e-03,
618,-6.250000e-02,-6.250000e-03,
619,3.125000e-02,1.250000e-02,
620,-6.250000e-02,1.250000e-02,
621,3.125000e-02,-1.875000e-02,
622,-6.250000e-02,-6.250000e-03,
623,3.125000e-02,-3.125000e-02,
624,-6.250000e-02,-2.500000e-02,
