lab/data/171205/200v10p150mm2cm14defects/07.csv

X,CH1,CH2,Start,Increment,
Sequence,Volt,Volt,-1.007400e-04,5.000000e-07,
0,0.000000e+00,-1.250000e-02,
1,-1.875000e-01,6.250000e-03,
2,0.000000e+00,-6.250000e-03,
3,-1.875000e-01,6.250000e-03,
4,0.000000e+00,6.250000e-03,
5,-1.875000e-01,-1.250000e-02,
6,0.000000e+00,0.000000e+00,
7,-1.875000e-01,-2.500000e-02,
8,-1.250000e-01,-2.500000e-02,
9,0.000000e+00,-6.250000e-03,
10,0.000000e+00,-1.875000e-02,
11,-1.875000e-01,0.000000e+00,
12,0.000000e+00,6.250000e-03,
13,-1.875000e-01,-1.250000e-02,
14,0.000000e+00,-1.250000e-02,
15,-1.875000e-01,1.250000e-02,
16,-1.250000e-01,0.000000e+00,
17,0.000000e+00,-1.875000e-02,
18,-1.250000e-01,-1.875000e-02,
19,0.000000e+00,0.000000e+00,
20,0.000000e+00,-2.500000e-02,
21,-1.875000e-01,0.000000e+00,
22,0.000000e+00,-1.250000e-02,
23,-1.875000e-01,6.250000e-03,
24,0.000000e+00,6.250000e-03,
25,-1.875000e-01,-1.250000e-02,
26,0.000000e+00,0.000000e+00,
27,-1.875000e-01,-1.875000e-02,
28,-1.250000e-01,-6.250000e-03,
29,0.000000e+00,-2.500000e-02,
30,-1.875000e-01,-2.500000e-02,
31,0.000000e+00,0.000000e+00,
32,0.000000e+00,-1.875000e-02,
33,-1.250000e-01,0.000000e+00,
34,0.000000e+00,-1.250000e-02,
35,-1.875000e-01,6.250000e-03,
36,0.000000e+00,6.250000e-03,
37,-1.875000e-01,-1.250000e-02,
38,0.000000e+00,-6.250000e-03,
39,-1.875000e-01,-2.500000e-02,
40,0.000000e+00,-2.500000e-02,
41,-1.875000e-01,0.000000e+00,
42,-1.250000e-01,-1.250000e-02,
43,0.000000e+00,0.000000e+00,
44,-1.250000e-01,6.250000e-03,
45,0.000000e+00,-1.250000e-02,
46,-1.250000e-01,6.250000e-03,
47,0.000000e+00,-1.250000e-02,
48,0.000000e+00,0.000000e+00,
49,-1.875000e-01,-2.500000e-02,
50,-1.250000e-01,-1.875000e-02,
51,0.000000e+00,-6.250000e-03,
52,0.000000e+00,-1.250000e-02,
53,-1.875000e-01,6.250000e-03,
54,-1.250000e-01,-6.250000e-03,
55,0.000000e+00,6.250000e-03,
56,0.000000e+00,6.250000e-03,
57,-1.875000e-01,-1.875000e-02,
58,0.000000e+00,-6.250000e-03,
59,-1.875000e-01,-1.875000e-02,
60,-1.250000e-01,-1.875000e-02,
61,0.000000e+00,0.000000e+00,
62,-1.250000e-01,-1.875000e-02,
63,0.000000e+00,0.000000e+00,
64,0.000000e+00,-1.250000e-02,
65,-1.875000e-01,6.250000e-03,
66,0.000000e+00,0.000000e+00,
67,-1.875000e-01,-1.875000e-02,
68,-1.250000e-01,0.000000e+00,
69,0.000000e+00,-1.875000e-02,
70,0.000000e+00,-1.875000e-02,
71,-1.875000e-01,0.000000e+00,
72,0.000000e+00,-1.250000e-02,
73,-1.875000e-01,0.000000e+00,
74,-1.250000e-01,-1.250000e-02,
75,0.000000e+00,6.250000e-03,
76,-1.250000e-01,-1.250000e-02,
77,0.000000e+00,6.250000e-03,
78,-1.250000e-01,0.000000e+00,
79,0.000000e+00,-1.875000e-02,
80,0.000000e+00,-1.875000e-02,
81,-1.875000e-01,6.250000e-03,
82,0.000000e+00,-1.875000e-02,
83,-1.875000e-01,0.000000e+00,
84,0.000000e+00,0.000000e+00,
85,-1.875000e-01,-1.875000e-02,
86,-1.250000e-01,-1.250000e-02,
87,0.000000e+00,6.250000e-03,
88,0.000000e+00,0.000000e+00,
89,-1.875000e-01,-1.250000e-02,
90,-1.250000e-01,0.000000e+00,
91,0.000000e+00,-1.875000e-02,
92,0.000000e+00,-1.875000e-02,
93,-1.875000e-01,0.000000e+00,
94,0.000000e+00,-1.250000e-02,
95,-1.250000e-01,6.250000e-03,
96,-1.250000e-01,-1.250000e-02,
97,0.000000e+00,6.250000e-03,
98,-1.250000e-01,0.000000e+00,
99,0.000000e+00,-1.875000e-02,
100,0.000000e+00,0.000000e+00,
101,-1.875000e-01,-1.875000e-02,
102,-1.250000e-01,-1.875000e-02,
103,0.000000e+00,6.250000e-03,
104,-1.250000e-01,6.250000e-03,
105,0.000000e+00,-1.250000e-02,
106,-1.250000e-01,6.250000e-03,
107,0.000000e+00,-1.250000e-02,
108,0.000000e+00,0.000000e+00,
109,-1.875000e-01,-1.875000e-02,
110,-1.250000e-01,-1.875000e-02,
111,0.000000e+00,0.000000e+00,
112,0.000000e+00,-1.250000e-02,
113,-1.875000e-01,6.250000e-03,
114,-1.250000e-01,-1.250000e-02,
115,0.000000e+00,1.250000e-02,
116,0.000000e+00,-1.250000e-02,
117,-1.875000e-01,6.250000e-03,
118,-1.250000e-01,0.000000e+00,
119,0.000000e+00,-1.875000e-02,
120,-1.250000e-01,0.000000e+00,
121,0.000000e+00,-1.875000e-02,
122,0.000000e+00,-1.250000e-02,
123,-1.875000e-01,6.250000e-03,
124,-1.250000e-01,6.250000e-03,
125,0.000000e+00,-1.250000e-02,
126,0.000000e+00,0.000000e+00,
127,-1.875000e-01,-1.250000e-02,
128,0.000000e+00,0.000000e+00,
129,-1.875000e-01,-1.875000e-02,
130,0.000000e+00,-1.875000e-02,
131,-1.875000e-01,0.000000e+00,
132,0.000000e+00,-1.250000e-02,
133,-1.875000e-01,6.250000e-03,
134,-1.250000e-01,6.250000e-03,
135,0.000000e+00,-1.250000e-02,
136,-1.250000e-01,6.250000e-03,
137,0.000000e+00,-1.250000e-02,
138,-1.250000e-01,0.000000e+00,
139,0.000000e+00,-1.875000e-02,
140,0.000000e+00,-6.250000e-03,
141,-1.875000e-01,-1.875000e-02,
142,-1.250000e-01,-1.875000e-02,
143,0.000000e+00,0.000000e+00,
144,0.000000e+00,6.250000e-03,
145,-1.875000e-01,-1.250000e-02,
146,0.000000e+00,6.250000e-03,
147,-1.875000e-01,-1.250000e-02,
148,0.000000e+00,6.250000e-03,
149,-1.875000e-01,-2.500000e-02,
150,-1.250000e-01,-6.250000e-03,
151,0.000000e+00,-2.500000e-02,
152,0.000000e+00,-1.875000e-02,
153,-1.875000e-01,0.000000e+00,
154,-1.250000e-01,-1.250000e-02,
155,0.000000e+00,1.250000e-02,
156,0.000000e+00,1.250000e-02,
157,-1.875000e-01,-1.250000e-02,
158,0.000000e+00,0.000000e+00,
159,-1.875000e-01,-2.500000e-02,
160,-1.250000e-01,-2.500000e-02,
161,0.000000e+00,-6.250000e-03,
162,0.000000e+00,-1.875000e-02,
163,-1.875000e-01,0.000000e+00,
164,-1.250000e-01,-1.250000e-02,
165,0.000000e+00,1.250000e-02,
166,-1.250000e-01,1.250000e-02,
167,0.000000e+00,-6.250000e-03,
168,-1.250000e-01,6.250000e-03,
169,0.000000e+00,-1.875000e-02,
170,-1.250000e-01,-6.250000e-03,
171,0.000000e+00,-2.500000e-02,
172,-1.250000e-01,-2.500000e-02,
173,0.000000e+00,-6.250000e-03,
174,-1.250000e-01,-1.875000e-02,
175,0.000000e+00,1.250000e-02,
176,-1.250000e-01,1.250000e-02,
177,0.000000e+00,-6.250000e-03,
178,-1.250000e-01,1.250000e-02,
179,0.000000e+00,-1.250000e-02,
180,-1.250000e-01,-2.500000e-02,
181,0.000000e+00,0.000000e+00,
182,0.000000e+00,-3.125000e-02,
183,-1.250000e-01,-6.250000e-03,
184,0.000000e+00,-2.500000e-02,
185,-1.875000e-01,6.250000e-03,
186,-1.250000e-01,-6.250000e-03,
187,0.000000e+00,1.250000e-02,
188,0.000000e+00,1.250000e-02,
189,-1.875000e-01,-1.250000e-02,
190,0.000000e+00,0.000000e+00,
191,-1.875000e-01,-3.125000e-02,
192,-1.250000e-01,-3.125000e-02,
193,1.125000e+00,-6.250000e-03,
194,1.000000e+00,-2.500000e-02,
195,2.000000e+00,6.250000e-03,
196,1.937500e+00,-6.250000e-03,
197,-6.250000e-02,1.250000e-02,
198,6.250000e-02,1.250000e-02,
199,-2.062500e+00,-6.250000e-03,
200,-2.187500e+00,6.250000e-03,
201,-1.312500e+00,-1.875000e-02,
202,-1.375000e+00,-6.250000e-03,
203,1.062500e+00,-3.125000e-02,
204,1.000000e+00,-3.125000e-02,
205,2.000000e+00,-6.250000e-03,
206,1.937500e+00,-1.250000e-02,
207,0.000000e+00,1.250000e-02,
208,6.250000e-02,1.250000e-02,
209,-2.062500e+00,-6.250000e-03,
210,-2.187500e+00,6.250000e-03,
211,-1.312500e+00,-1.250000e-02,
212,-1.375000e+00,0.000000e+00,
213,1.062500e+00,-2.500000e-02,
214,1.000000e+00,-3.125000e-02,
215,2.000000e+00,-6.250000e-03,
216,1.937500e+00,-2.500000e-02,
217,0.000000e+00,0.000000e+00,
218,6.250000e-02,-1.250000e-02,
219,-2.062500e+00,1.250000e-02,
220,-2.187500e+00,1.250000e-02,
221,-1.312500e+00,-6.250000e-03,
222,-1.375000e+00,6.250000e-03,
223,1.062500e+00,-2.500000e-02,
224,1.000000e+00,-6.250000e-03,
225,2.000000e+00,-3.125000e-02,
226,1.937500e+00,-3.125000e-02,
227,0.000000e+00,0.000000e+00,
228,6.250000e-02,-1.250000e-02,
229,-2.062500e+00,1.250000e-02,
230,-2.187500e+00,1.250000e-02,
231,-1.312500e+00,-6.250000e-03,
232,-1.437500e+00,6.250000e-03,
233,1.062500e+00,-1.875000e-02,
234,1.000000e+00,-6.250000e-03,
235,2.000000e+00,-2.500000e-02,
236,1.937500e+00,-3.125000e-02,
237,0.000000e+00,-6.250000e-03,
238,6.250000e-02,-1.875000e-02,
239,-2.062500e+00,6.250000e-03,
240,-2.187500e+00,-6.250000e-03,
241,-1.312500e+00,1.250000e-02,
242,-1.375000e+00,6.250000e-03,
243,1.125000e+00,-1.250000e-02,
244,1.000000e+00,0.000000e+00,
245,2.062500e+00,-2.500000e-02,
246,1.937500e+00,-3.125000e-02,
247,0.000000e+00,-6.250000e-03,
248,6.250000e-02,-2.500000e-02,
249,-2.062500e+00,0.000000e+00,
250,-2.187500e+00,-1.250000e-02,
251,-1.312500e+00,1.250000e-02,
252,-1.437500e+00,1.250000e-02,
253,1.062500e+00,-6.250000e-03,
254,1.000000e+00,6.250000e-03,
255,2.062500e+00,-2.500000e-02,
256,1.937500e+00,-6.250000e-03,
257,0.000000e+00,-2.500000e-02,
258,6.250000e-02,-1.875000e-02,
259,-2.062500e+00,0.000000e+00,
260,-2.250000e+00,-1.250000e-02,
261,-1.312500e+00,1.250000e-02,
262,-1.375000e+00,1.250000e-02,
263,1.062500e+00,-6.250000e-03,
264,1.000000e+00,6.250000e-03,
265,2.000000e+00,-2.500000e-02,
266,1.937500e+00,-2.500000e-02,
267,0.000000e+00,-6.250000e-03,
268,6.250000e-02,-2.500000e-02,
269,-2.062500e+00,-6.250000e-03,
270,-2.250000e+00,-1.250000e-02,
271,-1.312500e+00,6.250000e-03,
272,-1.375000e+00,6.250000e-03,
273,1.125000e+00,-1.250000e-02,
274,1.000000e+00,0.000000e+00,
275,2.062500e+00,-1.875000e-02,
276,1.937500e+00,-6.250000e-03,
277,0.000000e+00,-2.500000e-02,
278,6.250000e-02,-1.875000e-02,
279,-2.062500e+00,0.000000e+00,
280,-2.187500e+00,-1.250000e-02,
281,-1.312500e+00,1.250000e-02,
282,-1.375000e+00,-1.250000e-02,
283,1.062500e+00,1.250000e-02,
284,1.000000e+00,6.250000e-03,
285,2.000000e+00,-1.250000e-02,
286,1.937500e+00,0.000000e+00,
287,0.000000e+00,-2.500000e-02,
288,6.250000e-02,-6.250000e-03,
289,-2.062500e+00,-2.500000e-02,
290,-2.187500e+00,-1.875000e-02,
291,-1.312500e+00,0.000000e+00,
292,-1.437500e+00,-1.250000e-02,
293,6.250000e-02,1.250000e-02,
294,-1.250000e-01,1.250000e-02,
295,0.000000e+00,-1.250000e-02,
296,-1.250000e-01,0.000000e+00,
297,0.000000e+00,-1.875000e-02,
298,0.000000e+00,-6.250000e-03,
299,-1.875000e-01,-2.500000e-02,
300,-1.250000e-01,-1.875000e-02,
301,0.000000e+00,0.000000e+00,
302,-1.250000e-01,-1.250000e-02,
303,0.000000e+00,6.250000e-03,
304,0.000000e+00,6.250000e-03,
305,-1.875000e-01,-1.250000e-02,
306,0.000000e+00,6.250000e-03,
307,-1.875000e-01,-1.875000e-02,
308,-1.250000e-01,-6.250000e-03,
309,0.000000e+00,-2.500000e-02,
310,0.000000e+00,-6.250000e-03,
311,-1.875000e-01,-2.500000e-02,
312,-1.250000e-01,-1.875000e-02,
313,0.000000e+00,0.000000e+00,
314,-1.250000e-01,-6.250000e-03,
315,0.000000e+00,1.875000e-02,
316,-1.250000e-01,6.250000e-03,
317,0.000000e+00,-1.250000e-02,
318,0.000000e+00,0.000000e+00,
319,-1.875000e-01,-1.875000e-02,
320,0.000000e+00,-2.500000e-02,
321,-1.875000e-01,-6.250000e-03,
322,0.000000e+00,-1.875000e-02,
323,-1.875000e-01,0.000000e+00,
324,-1.875000e-01,-1.250000e-02,
325,0.000000e+00,6.250000e-03,
326,0.000000e+00,6.250000e-03,
327,-1.875000e-01,-6.250000e-03,
328,-1.250000e-01,6.250000e-03,
329,0.000000e+00,-1.250000e-02,
330,-1.250000e-01,0.000000e+00,
331,0.000000e+00,-2.500000e-02,
332,0.000000e+00,-2.500000e-02,
333,-1.875000e-01,-6.250000e-03,
334,-1.250000e-01,-1.875000e-02,
335,0.000000e+00,6.250000e-03,
336,0.000000e+00,-6.250000e-03,
337,-1.875000e-01,6.250000e-03,
338,-1.250000e-01,6.250000e-03,
339,0.000000e+00,-1.250000e-02,
340,0.000000e+00,0.000000e+00,
341,-1.875000e-01,-1.875000e-02,
342,0.000000e+00,-6.250000e-03,
343,-1.875000e-01,-2.500000e-02,
344,-1.250000e-01,-1.875000e-02,
345,0.000000e+00,6.250000e-03,
346,-1.250000e-01,-1.250000e-02,
347,0.000000e+00,1.250000e-02,
348,-1.250000e-01,1.250000e-02,
349,0.000000e+00,-1.250000e-02,
350,0.000000e+00,0.000000e+00,
351,-1.875000e-01,-1.875000e-02,
352,0.000000e+00,0.000000e+00,
353,-1.875000e-01,-1.875000e-02,
354,0.000000e+00,-1.875000e-02,
355,-1.875000e-01,0.000000e+00,
356,-1.250000e-01,-1.250000e-02,
357,0.000000e+00,0.000000e+00,
358,-1.250000e-01,-1.250000e-02,
359,0.000000e+00,6.250000e-03,
360,0.000000e+00,0.000000e+00,
361,-1.875000e-01,-1.875000e-02,
362,0.000000e+00,-1.875000e-02,
363,-1.875000e-01,0.000000e+00,
364,0.000000e+00,0.000000e+00,
365,-1.875000e-01,-1.875000e-02,
366,-1.250000e-01,-1.875000e-02,
367,0.000000e+00,0.000000e+00,
368,-1.250000e-01,-1.875000e-02,
369,0.000000e+00,6.250000e-03,
370,0.000000e+00,0.000000e+00,
371,-1.875000e-01,-1.250000e-02,
372,-1.250000e-01,-1.250000e-02,
373,0.000000e+00,0.000000e+00,
374,-1.250000e-01,0.000000e+00,
375,0.000000e+00,-1.875000e-02,
376,-1.250000e-01,-1.875000e-02,
377,0.000000e+00,6.250000e-03,
378,-1.250000e-01,-1.250000e-02,
379,0.000000e+00,0.000000e+00,
380,0.000000e+00,-1.250000e-02,
381,-1.875000e-01,6.250000e-03,
382,0.000000e+00,1.250000e-02,
383,-1.875000e-01,-1.875000e-02,
384,-1.250000e-01,-1.250000e-02,
385,0.000000e+00,0.000000e+00,
386,-1.250000e-01,0.000000e+00,
387,0.000000e+00,-1.875000e-02,
388,-1.250000e-01,0.000000e+00,
389,0.000000e+00,-1.875000e-02,
390,-1.250000e-01,-1.250000e-02,
391,0.000000e+00,6.250000e-03,
392,-1.250000e-01,0.000000e+00,
393,0.000000e+00,-1.875000e-02,
394,-1.250000e-01,-1.875000e-02,
395,0.000000e+00,0.000000e+00,
396,0.000000e+00,-1.250000e-02,
397,-1.875000e-01,0.000000e+00,
398,-1.250000e-01,-1.250000e-02,
399,0.000000e+00,0.000000e+00,
400,-1.250000e-01,-1.250000e-02,
401,0.000000e+00,0.000000e+00,
402,0.000000e+00,0.000000e+00,
403,-1.875000e-01,-1.875000e-02,
404,-1.250000e-01,0.000000e+00,
405,0.000000e+00,-1.875000e-02,
406,0.000000e+00,0.000000e+00,
407,-1.875000e-01,-1.875000e-02,
408,0.000000e+00,-1.250000e-02,
409,-1.875000e-01,6.250000e-03,
410,0.000000e+00,0.000000e+00,
411,-1.875000e-01,-1.875000e-02,
412,0.000000e+00,-1.875000e-02,
413,-1.250000e-01,0.000000e+00,
414,-1.250000e-01,-1.875000e-02,
415,0.000000e+00,6.250000e-03,
416,-1.250000e-01,0.000000e+00,
417,0.000000e+00,-1.875000e-02,
418,-1.250000e-01,-1.875000e-02,
419,0.000000e+00,0.000000e+00,
420,0.000000e+00,-1.250000e-02,
421,-1.250000e-01,0.000000e+00,
422,-1.250000e-01,-1.875000e-02,
423,0.000000e+00,0.000000e+00,
424,-1.250000e-01,0.000000e+00,
425,0.000000e+00,-1.875000e-02,
426,0.000000e+00,-1.875000e-02,
427,-1.875000e-01,0.000000e+00,
428,0.000000e+00,-1.250000e-02,
429,-1.875000e-01,0.000000e+00,
430,-1.250000e-01,6.250000e-03,
431,0.000000e+00,-1.250000e-02,
432,0.000000e+00,6.250000e-03,
433,-1.875000e-01,-1.875000e-02,
434,-1.250000e-01,-6.250000e-03,
435,0.000000e+00,-2.500000e-02,
436,-1.250000e-01,-1.875000e-02,
437,0.000000e+00,6.250000e-03,
438,0.000000e+00,-1.250000e-02,
439,-1.875000e-01,6.250000e-03,
440,-1.250000e-01,6.250000e-03,
441,0.000000e+00,-1.250000e-02,
442,-1.250000e-01,0.000000e+00,
443,0.000000e+00,-1.875000e-02,
444,0.000000e+00,-6.250000e-03,
445,-1.875000e-01,-2.500000e-02,
446,-1.250000e-01,-1.875000e-02,
447,0.000000e+00,0.000000e+00,
448,0.000000e+00,1.250000e-02,
449,-1.875000e-01,-1.875000e-02,
450,-1.250000e-01,6.250000e-03,
451,0.000000e+00,-1.250000e-02,
452,-1.250000e-01,0.000000e+00,
453,0.000000e+00,-1.875000e-02,
454,-1.250000e-01,-6.250000e-03,
455,0.000000e+00,-2.500000e-02,
456,-1.250000e-01,-2.500000e-02,
457,0.000000e+00,0.000000e+00,
458,0.000000e+00,-1.875000e-02,
459,-1.250000e-01,6.250000e-03,
460,0.000000e+00,6.250000e-03,
461,-1.875000e-01,-1.250000e-02,
462,0.000000e+00,0.000000e+00,
463,-1.250000e-01,-1.875000e-02,
464,-1.250000e-01,-6.250000e-03,
465,0.000000e+00,-2.500000e-02,
466,-1.250000e-01,-2.500000e-02,
467,0.000000e+00,-6.250000e-03,
468,-1.250000e-01,-1.875000e-02,
469,0.000000e+00,6.250000e-03,
470,-1.250000e-01,1.250000e-02,
471,0.000000e+00,-1.250000e-02,
472,0.000000e+00,6.250000e-03,
473,-1.875000e-01,-1.250000e-02,
474,0.000000e+00,-6.250000e-03,
475,-1.250000e-01,-2.500000e-02,
476,0.000000e+00,-2.500000e-02,
477,-1.875000e-01,-6.250000e-03,
478,-1.250000e-01,-1.250000e-02,
479,0.000000e+00,6.250000e-03,
480,-1.250000e-01,-6.250000e-03,
481,0.000000e+00,1.250000e-02,
482,-1.250000e-01,1.875000e-02,
483,0.000000e+00,-1.875000e-02,
484,-1.250000e-01,-6.250000e-03,
485,0.000000e+00,-2.500000e-02,
486,-1.250000e-01,-2.500000e-02,
487,0.000000e+00,-6.250000e-03,
488,-1.250000e-01,-1.875000e-02,
489,0.000000e+00,6.250000e-03,
490,0.000000e+00,-6.250000e-03,
491,-1.875000e-01,1.250000e-02,
492,0.000000e+00,6.250000e-03,
493,-1.875000e-01,-1.875000e-02,
494,-1.250000e-01,-6.250000e-03,
495,0.000000e+00,-3.125000e-02,
496,-1.250000e-01,-3.125000e-02,
497,0.000000e+00,-6.250000e-03,
498,-1.250000e-01,-1.875000e-02,
499,0.000000e+00,6.250000e-03,
500,-1.250000e-01,-6.250000e-03,
501,0.000000e+00,1.250000e-02,
502,-1.250000e-01,1.250000e-02,
503,0.000000e+00,-1.250000e-02,
504,0.000000e+00,0.000000e+00,
505,-1.875000e-01,-2.500000e-02,
506,0.000000e+00,-2.500000e-02,
507,-1.875000e-01,-6.250000e-03,
508,0.000000e+00,-2.500000e-02,
509,-1.875000e-01,6.250000e-03,
510,-1.250000e-01,-6.250000e-03,
511,0.000000e+00,1.250000e-02,
512,0.000000e+00,1.250000e-02,
513,-1.875000e-01,-1.250000e-02,
514,-1.250000e-01,0.000000e+00,
515,0.000000e+00,-3.750000e-02,
516,-1.875000e-01,-3.125000e-02,
517,0.000000e+00,-6.250000e-03,
518,0.000000e+00,-1.875000e-02,
519,-1.875000e-01,6.250000e-03,
520,-1.250000e-01,-6.250000e-03,
521,0.000000e+00,1.250000e-02,
522,-1.250000e-01,1.250000e-02,
523,0.000000e+00,-1.250000e-02,
524,-1.250000e-01,0.000000e+00,
525,0.000000e+00,-2.500000e-02,
526,-1.250000e-01,-3.125000e-02,
527,0.000000e+00,-6.250000e-03,
528,-1.250000e-01,-2.500000e-02,
529,0.000000e+00,6.250000e-03,
530,-1.250000e-01,-6.250000e-03,
531,0.000000e+00,1.250000e-02,
532,-1.250000e-01,1.250000e-02,
533,0.000000e+00,-1.250000e-02,
534,-1.250000e-01,0.000000e+00,
535,0.000000e+00,-1.875000e-02,
536,-1.250000e-01,-2.500000e-02,
537,0.000000e+00,-6.250000e-03,
538,0.000000e+00,-2.500000e-02,
539,-1.875000e-01,0.000000e+00,
540,-1.250000e-01,-1.250000e-02,
541,0.000000e+00,6.250000e-03,
542,-1.250000e-01,6.250000e-03,
543,0.000000e+00,-1.250000e-02,
544,-1.250000e-01,0.000000e+00,
545,0.000000e+00,-1.875000e-02,
546,-1.250000e-01,-2.500000e-02,
547,0.000000e+00,0.000000e+00,
548,-1.250000e-01,-1.875000e-02,
549,0.000000e+00,6.250000e-03,
550,-1.250000e-01,0.000000e+00,
551,0.000000e+00,-1.875000e-02,
552,-1.250000e-01,-1.250000e-02,
553,0.000000e+00,6.250000e-03,
554,0.000000e+00,-1.250000e-02,
555,-1.250000e-01,6.250000e-03,
556,-1.250000e-01,-1.875000e-02,
557,0.000000e+00,0.000000e+00,
558,0.000000e+00,0.000000e+00,
559,-1.875000e-01,-1.875000e-02,
560,-1.250000e-01,0.000000e+00,
561,0.000000e+00,-1.875000e-02,
562,0.000000e+00,-1.250000e-02,
563,-1.875000e-01,6.250000e-03,
564,0.000000e+00,0.000000e+00,
565,-1.875000e-01,-1.250000e-02,
566,0.000000e+00,0.000000e+00,
567,-1.875000e-01,-1.875000e-02,
568,0.000000e+00,-1.875000e-02,
569,-1.875000e-01,0.000000e+00,
570,0.000000e+00,6.250000e-03,
571,-1.875000e-01,-1.250000e-02,
572,-1.250000e-01,0.000000e+00,
573,0.000000e+00,-1.875000e-02,
574,-1.250000e-01,-1.875000e-02,
575,0.000000e+00,0.000000e+00,
576,0.000000e+00,0.000000e+00,
577,-1.875000e-01,-1.875000e-02,
578,-1.250000e-01,0.000000e+00,
579,0.000000e+00,-1.875000e-02,
580,0.000000e+00,0.000000e+00,
581,-1.875000e-01,-1.250000e-02,
582,0.000000e+00,-1.875000e-02,
583,-1.875000e-01,6.250000e-03,
584,-1.250000e-01,0.000000e+00,
585,0.000000e+00,-1.875000e-02,
586,-1.250000e-01,-1.250000e-02,
587,0.000000e+00,0.000000e+00,
588,-1.250000e-01,0.000000e+00,
589,0.000000e+00,-1.875000e-02,
590,0.000000e+00,0.000000e+00,
591,-1.875000e-01,-1.875000e-02,
592,-1.250000e-01,0.000000e+00,
593,0.000000e+00,-1.875000e-02,
594,-1.250000e-01,-1.250000e-02,
595,0.000000e+00,0.000000e+00,
596,0.000000e+00,6.250000e-03,
597,-1.875000e-01,-1.250000e-02,
598,-1.250000e-01,0.000000e+00,
599,0.000000e+00,-1.875000e-02,
600,0.000000e+00,-1.250000e-02,
601,-1.875000e-01,0.000000e+00,
602,0.000000e+00,0.000000e+00,
603,-1.250000e-01,-1.875000e-02,
604,-1.250000e-01,-1.250000e-02,
605,0.000000e+00,6.250000e-03,
606,6.250000e-02,6.250000e-03,
607,-1.875000e-01,-1.250000e-02,
608,-1.250000e-01,-1.250000e-02,
609,0.000000e+00,0.000000e+00,
610,0.000000e+00,0.000000e+00,
611,-1.875000e-01,-2.500000e-02,
612,0.000000e+00,-1.875000e-02,
613,-1.875000e-01,0.000000e+00,
614,-1.250000e-01,6.250000e-03,
615,0.000000e+00,-2.500000e-02,
616,0.000000e+00,-1.250000e-02,
617,-1.875000e-01,0.000000e+00,
618,-1.250000e-01,0.000000e+00,
619,0.000000e+00,-1.875000e-02,
620,-1.250000e-01,0.000000e+00,
621,0.000000e+00,-1.875000e-02,
622,0.000000e+00,0.000000e+00,
623,-1.250000e-01,-1.875000e-02,
