lab/data/171128/plate2/100Vpp10p50mm20mm0mmX/13.csv

X,CH1,CH2,Start,Increment,
Sequence,Volt,Volt,-1.014000e-04,5.000000e-07,
0,-6.250000e-02,-2.500000e-02,
1,3.125000e-02,0.000000e+00,
2,-6.250000e-02,-1.875000e-02,
3,3.125000e-02,6.250000e-03,
4,-6.250000e-02,6.250000e-03,
5,3.125000e-02,-1.250000e-02,
6,-6.250000e-02,-1.250000e-02,
7,3.125000e-02,1.875000e-02,
8,0.000000e+00,0.000000e+00,
9,-6.250000e-02,-1.875000e-02,
10,0.000000e+00,-6.250000e-03,
11,-6.250000e-02,-2.500000e-02,
12,-6.250000e-02,-1.875000e-02,
13,3.125000e-02,1.250000e-02,
14,-6.250000e-02,1.250000e-02,
15,3.125000e-02,-1.250000e-02,
16,-6.250000e-02,0.000000e+00,
17,3.125000e-02,-1.875000e-02,
18,-6.250000e-02,-1.250000e-02,
19,3.125000e-02,6.250000e-03,
20,-6.250000e-02,0.000000e+00,
21,3.125000e-02,-1.875000e-02,
22,-6.250000e-02,-1.875000e-02,
23,3.125000e-02,0.000000e+00,
24,-6.250000e-02,-1.250000e-02,
25,3.125000e-02,1.250000e-02,
26,-6.250000e-02,1.250000e-02,
27,3.125000e-02,-1.250000e-02,
28,-6.250000e-02,-1.875000e-02,
29,3.125000e-02,0.000000e+00,
30,-6.250000e-02,0.000000e+00,
31,3.125000e-02,-1.875000e-02,
32,-6.250000e-02,-1.875000e-02,
33,3.125000e-02,0.000000e+00,
34,-6.250000e-02,-1.250000e-02,
35,3.125000e-02,6.250000e-03,
36,-6.250000e-02,6.250000e-03,
37,3.125000e-02,-1.250000e-02,
38,-6.250000e-02,6.250000e-03,
39,3.125000e-02,-1.250000e-02,
40,3.125000e-02,-1.875000e-02,
41,-6.250000e-02,6.250000e-03,
42,-6.250000e-02,0.000000e+00,
43,3.125000e-02,-1.875000e-02,
44,-6.250000e-02,-1.875000e-02,
45,3.125000e-02,6.250000e-03,
46,-6.250000e-02,-6.250000e-03,
47,3.125000e-02,1.250000e-02,
48,3.125000e-02,6.250000e-03,
49,-6.250000e-02,-1.250000e-02,
50,-6.250000e-02,-1.250000e-02,
51,3.125000e-02,6.250000e-03,
52,-6.250000e-02,0.000000e+00,
53,3.125000e-02,-1.875000e-02,
54,0.000000e+00,-1.875000e-02,
55,-6.250000e-02,6.250000e-03,
56,-6.250000e-02,-1.250000e-02,
57,3.125000e-02,6.250000e-03,
58,-6.250000e-02,6.250000e-03,
59,3.125000e-02,-1.250000e-02,
60,3.125000e-02,6.250000e-03,
61,-6.250000e-02,-1.875000e-02,
62,3.125000e-02,-6.250000e-03,
63,-9.375000e-02,-2.500000e-02,
64,-6.250000e-02,-1.875000e-02,
65,3.125000e-02,0.000000e+00,
66,-6.250000e-02,-1.250000e-02,
67,3.125000e-02,6.250000e-03,
68,-6.250000e-02,6.250000e-03,
69,3.125000e-02,-1.250000e-02,
70,-6.250000e-02,-1.250000e-02,
71,3.125000e-02,6.250000e-03,
72,-6.250000e-02,-1.875000e-02,
73,3.125000e-02,6.250000e-03,
74,-6.250000e-02,-1.875000e-02,
75,3.125000e-02,6.250000e-03,
76,0.000000e+00,-1.250000e-02,
77,-6.250000e-02,6.250000e-03,
78,-6.250000e-02,-1.250000e-02,
79,3.125000e-02,6.250000e-03,
80,-6.250000e-02,6.250000e-03,
81,3.125000e-02,-6.250000e-03,
82,0.000000e+00,6.250000e-03,
83,-6.250000e-02,-1.250000e-02,
84,-6.250000e-02,-1.250000e-02,
85,3.125000e-02,6.250000e-03,
86,-6.250000e-02,-1.250000e-02,
87,3.125000e-02,6.250000e-03,
88,-6.250000e-02,-1.250000e-02,
89,3.125000e-02,6.250000e-03,
90,-6.250000e-02,-1.250000e-02,
91,3.125000e-02,6.250000e-03,
92,-6.250000e-02,6.250000e-03,
93,3.125000e-02,-1.250000e-02,
94,-6.250000e-02,0.000000e+00,
95,3.125000e-02,-1.875000e-02,
96,-6.250000e-02,-1.250000e-02,
97,3.125000e-02,6.250000e-03,
98,-6.250000e-02,-1.250000e-02,
99,3.125000e-02,6.250000e-03,
100,-6.250000e-02,6.250000e-03,
101,3.125000e-02,-1.250000e-02,
102,-6.250000e-02,-1.250000e-02,
103,3.125000e-02,6.250000e-03,
104,-6.250000e-02,6.250000e-03,
105,3.125000e-02,-1.875000e-02,
106,-6.250000e-02,6.250000e-03,
107,3.125000e-02,-1.875000e-02,
108,-6.250000e-02,6.250000e-03,
109,3.125000e-02,-1.250000e-02,
110,-6.250000e-02,-1.250000e-02,
111,3.125000e-02,0.000000e+00,
112,-6.250000e-02,-1.250000e-02,
113,3.125000e-02,6.250000e-03,
114,-6.250000e-02,6.250000e-03,
115,3.125000e-02,-1.250000e-02,
116,-6.250000e-02,0.000000e+00,
117,3.125000e-02,-1.875000e-02,
118,-6.250000e-02,6.250000e-03,
119,3.125000e-02,-1.875000e-02,
120,-6.250000e-02,-1.250000e-02,
121,3.125000e-02,6.250000e-03,
122,-6.250000e-02,0.000000e+00,
123,3.125000e-02,-1.875000e-02,
124,-6.250000e-02,-1.250000e-02,
125,3.125000e-02,6.250000e-03,
126,3.125000e-02,6.250000e-03,
127,-6.250000e-02,-1.250000e-02,
128,-6.250000e-02,-1.250000e-02,
129,3.125000e-02,6.250000e-03,
130,-6.250000e-02,6.250000e-03,
131,3.125000e-02,-1.250000e-02,
132,-6.250000e-02,-1.250000e-02,
133,3.125000e-02,6.250000e-03,
134,-6.250000e-02,6.250000e-03,
135,3.125000e-02,-1.250000e-02,
136,-6.250000e-02,-1.250000e-02,
137,3.125000e-02,0.000000e+00,
138,-6.250000e-02,-1.250000e-02,
139,3.125000e-02,6.250000e-03,
140,-6.250000e-02,6.250000e-03,
141,3.125000e-02,-2.500000e-02,
142,3.125000e-02,-1.250000e-02,
143,-6.250000e-02,6.250000e-03,
144,-6.250000e-02,6.250000e-03,
145,3.125000e-02,-1.250000e-02,
146,-6.250000e-02,-1.250000e-02,
147,3.125000e-02,0.000000e+00,
148,-6.250000e-02,-1.250000e-02,
149,3.125000e-02,0.000000e+00,
150,-6.250000e-02,-1.250000e-02,
151,3.125000e-02,6.250000e-03,
152,-6.250000e-02,-1.250000e-02,
153,3.125000e-02,6.250000e-03,
154,-6.250000e-02,0.000000e+00,
155,3.125000e-02,-1.875000e-02,
156,-6.250000e-02,-1.250000e-02,
157,3.125000e-02,6.250000e-03,
158,-6.250000e-02,6.250000e-03,
159,3.125000e-02,-1.875000e-02,
160,0.000000e+00,-1.875000e-02,
161,-6.250000e-02,6.250000e-03,
162,-6.250000e-02,0.000000e+00,
163,3.125000e-02,-1.875000e-02,
164,3.125000e-02,-1.250000e-02,
165,-6.250000e-02,0.000000e+00,
166,-6.250000e-02,-1.250000e-02,
167,3.125000e-02,6.250000e-03,
168,-6.250000e-02,6.250000e-03,
169,3.125000e-02,-1.250000e-02,
170,-6.250000e-02,-1.250000e-02,
171,3.125000e-02,6.250000e-03,
172,-6.250000e-02,-2.500000e-02,
173,3.125000e-02,6.250000e-03,
174,-6.250000e-02,-1.875000e-02,
175,3.125000e-02,6.250000e-03,
176,-6.250000e-02,-1.250000e-02,
177,3.125000e-02,1.250000e-02,
178,-6.250000e-02,-6.250000e-03,
179,3.125000e-02,1.250000e-02,
180,-6.250000e-02,6.250000e-03,
181,3.125000e-02,-1.250000e-02,
182,-6.250000e-02,-1.250000e-02,
183,3.125000e-02,0.000000e+00,
184,-6.250000e-02,0.000000e+00,
185,3.125000e-02,-1.875000e-02,
186,0.000000e+00,-1.250000e-02,
187,-6.250000e-02,1.250000e-02,
188,-6.250000e-02,1.250000e-02,
189,3.125000e-02,-1.250000e-02,
190,-6.250000e-02,6.250000e-03,
191,3.125000e-02,-1.250000e-02,
192,-6.250000e-02,0.000000e+00,
193,3.125000e-02,-1.875000e-02,
194,-6.250000e-02,-6.250000e-03,
195,7.812500e-01,-1.875000e-02,
196,7.187500e-01,-1.875000e-02,
197,1.031250e+00,6.250000e-03,
198,8.750000e-01,-6.250000e-03,
199,-2.500000e-01,1.250000e-02,
200,-2.187500e-01,1.250000e-02,
201,-1.062500e+00,-1.875000e-02,
202,-1.093750e+00,-1.875000e-02,
203,-4.062500e-01,-6.250000e-03,
204,-4.687500e-01,-6.250000e-03,
205,7.812500e-01,-2.500000e-02,
206,7.187500e-01,-1.875000e-02,
207,1.031250e+00,6.250000e-03,
208,8.750000e-01,-1.250000e-02,
209,-2.500000e-01,1.250000e-02,
210,-2.187500e-01,-6.250000e-03,
211,-1.062500e+00,6.250000e-03,
212,-1.093750e+00,6.250000e-03,
213,-4.062500e-01,-1.875000e-02,
214,-4.375000e-01,-6.250000e-03,
215,7.500000e-01,-2.500000e-02,
216,7.187500e-01,-1.875000e-02,
217,1.031250e+00,0.000000e+00,
218,8.750000e-01,-1.250000e-02,
219,-2.500000e-01,1.250000e-02,
220,-2.187500e-01,1.250000e-02,
221,-1.062500e+00,-1.250000e-02,
222,-1.093750e+00,6.250000e-03,
223,-4.062500e-01,-1.250000e-02,
224,-4.375000e-01,0.000000e+00,
225,7.500000e-01,-2.500000e-02,
226,7.187500e-01,-2.500000e-02,
227,1.031250e+00,-6.250000e-03,
228,8.750000e-01,-1.875000e-02,
229,-2.812500e-01,1.250000e-02,
230,-2.187500e-01,0.000000e+00,
231,-1.062500e+00,1.875000e-02,
232,-1.093750e+00,1.250000e-02,
233,-4.062500e-01,-1.875000e-02,
234,-4.375000e-01,-2.500000e-02,
235,7.812500e-01,-6.250000e-03,
236,7.187500e-01,-1.875000e-02,
237,1.031250e+00,0.000000e+00,
238,8.750000e-01,-1.875000e-02,
239,-2.500000e-01,1.250000e-02,
240,-2.187500e-01,0.000000e+00,
241,-1.093750e+00,2.500000e-02,
242,-1.062500e+00,1.250000e-02,
243,-4.062500e-01,-1.875000e-02,
244,-4.375000e-01,-6.250000e-03,
245,7.812500e-01,-2.500000e-02,
246,7.187500e-01,-2.500000e-02,
247,1.031250e+00,6.250000e-03,
248,8.750000e-01,-1.250000e-02,
249,-2.500000e-01,6.250000e-03,
250,-2.500000e-01,-6.250000e-03,
251,-1.062500e+00,1.250000e-02,
252,-1.093750e+00,6.250000e-03,
253,-4.062500e-01,-1.875000e-02,
254,-4.375000e-01,-6.250000e-03,
255,7.500000e-01,-2.500000e-02,
256,7.187500e-01,-2.500000e-02,
257,1.031250e+00,0.000000e+00,
258,8.750000e-01,-1.250000e-02,
259,-2.812500e-01,6.250000e-03,
260,-2.187500e-01,1.250000e-02,
261,-1.062500e+00,-1.250000e-02,
262,-1.093750e+00,0.000000e+00,
263,-4.062500e-01,-1.875000e-02,
264,-4.375000e-01,-1.875000e-02,
265,7.500000e-01,0.000000e+00,
266,7.187500e-01,-6.250000e-03,
267,1.031250e+00,-2.500000e-02,
268,8.750000e-01,-1.875000e-02,
269,-2.500000e-01,6.250000e-03,
270,-2.187500e-01,6.250000e-03,
271,-1.062500e+00,-1.250000e-02,
272,-1.093750e+00,6.250000e-03,
273,-4.062500e-01,-2.500000e-02,
274,-4.375000e-01,-1.875000e-02,
275,7.812500e-01,6.250000e-03,
276,7.187500e-01,-6.250000e-03,
277,1.031250e+00,-3.125000e-02,
278,8.750000e-01,-1.875000e-02,
279,-2.500000e-01,1.250000e-02,
280,-2.187500e-01,0.000000e+00,
281,-1.093750e+00,1.875000e-02,
282,-1.093750e+00,1.250000e-02,
283,-4.062500e-01,-1.250000e-02,
284,-4.375000e-01,0.000000e+00,
285,7.500000e-01,-2.500000e-02,
286,7.187500e-01,-2.500000e-02,
287,1.031250e+00,-6.250000e-03,
288,8.750000e-01,-1.250000e-02,
289,-2.500000e-01,6.250000e-03,
290,-2.187500e-01,-6.250000e-03,
291,-1.062500e+00,1.250000e-02,
292,-1.093750e+00,1.250000e-02,
293,-4.062500e-01,-1.250000e-02,
294,-4.375000e-01,0.000000e+00,
295,3.125000e-02,-2.500000e-02,
296,-6.250000e-02,-2.500000e-02,
297,3.125000e-02,0.000000e+00,
298,-6.250000e-02,-1.250000e-02,
299,3.125000e-02,6.250000e-03,
300,-6.250000e-02,-6.250000e-03,
301,3.125000e-02,1.250000e-02,
302,3.125000e-02,6.250000e-03,
303,-6.250000e-02,-1.250000e-02,
304,-6.250000e-02,0.000000e+00,
305,3.125000e-02,-1.875000e-02,
306,-6.250000e-02,-2.500000e-02,
307,3.125000e-02,6.250000e-03,
308,-6.250000e-02,-1.875000e-02,
309,3.125000e-02,0.000000e+00,
310,-6.250000e-02,-1.250000e-02,
311,3.125000e-02,6.250000e-03,
312,-6.250000e-02,-6.250000e-03,
313,3.125000e-02,1.250000e-02,
314,-6.250000e-02,6.250000e-03,
315,3.125000e-02,-1.250000e-02,
316,-6.250000e-02,0.000000e+00,
317,3.125000e-02,-2.500000e-02,
318,-6.250000e-02,-1.875000e-02,
319,3.125000e-02,0.000000e+00,
320,-6.250000e-02,-1.250000e-02,
321,3.125000e-02,6.250000e-03,
322,-6.250000e-02,6.250000e-03,
323,3.125000e-02,-1.250000e-02,
324,-6.250000e-02,0.000000e+00,
325,3.125000e-02,-1.875000e-02,
326,-6.250000e-02,0.000000e+00,
327,3.125000e-02,-1.875000e-02,
328,-6.250000e-02,-1.250000e-02,
329,3.125000e-02,0.000000e+00,
330,-6.250000e-02,-1.250000e-02,
331,3.125000e-02,6.250000e-03,
332,0.000000e+00,0.000000e+00,
333,-6.250000e-02,-1.875000e-02,
334,0.000000e+00,-1.250000e-02,
335,-6.250000e-02,6.250000e-03,
336,-6.250000e-02,-1.250000e-02,
337,3.125000e-02,0.000000e+00,
338,-6.250000e-02,-1.250000e-02,
339,3.125000e-02,0.000000e+00,
340,0.000000e+00,6.250000e-03,
341,-6.250000e-02,-2.500000e-02,
342,-6.250000e-02,-1.875000e-02,
343,3.125000e-02,6.250000e-03,
344,-6.250000e-02,6.250000e-03,
345,3.125000e-02,-1.250000e-02,
346,-6.250000e-02,0.000000e+00,
347,3.125000e-02,-1.875000e-02,
348,-6.250000e-02,-1.875000e-02,
349,3.125000e-02,0.000000e+00,
350,-6.250000e-02,-1.875000e-02,
351,3.125000e-02,0.000000e+00,
352,-6.250000e-02,-1.250000e-02,
353,3.125000e-02,0.000000e+00,
354,-6.250000e-02,-1.250000e-02,
355,3.125000e-02,6.250000e-03,
356,3.125000e-02,-1.250000e-02,
357,-6.250000e-02,6.250000e-03,
358,-6.250000e-02,0.000000e+00,
359,3.125000e-02,-1.875000e-02,
360,-6.250000e-02,-1.250000e-02,
361,3.125000e-02,0.000000e+00,
362,-6.250000e-02,-1.250000e-02,
363,3.125000e-02,6.250000e-03,
364,-6.250000e-02,6.250000e-03,
365,3.125000e-02,-1.875000e-02,
366,-6.250000e-02,-1.875000e-02,
367,3.125000e-02,0.000000e+00,
368,-6.250000e-02,-1.250000e-02,
369,0.000000e+00,0.000000e+00,
370,-6.250000e-02,-1.250000e-02,
371,3.125000e-02,0.000000e+00,
372,-6.250000e-02,-1.250000e-02,
373,3.125000e-02,0.000000e+00,
374,-6.250000e-02,6.250000e-03,
375,3.125000e-02,-1.875000e-02,
376,-6.250000e-02,-1.875000e-02,
377,3.125000e-02,0.000000e+00,
378,3.125000e-02,-1.250000e-02,
379,-6.250000e-02,6.250000e-03,
380,-6.250000e-02,6.250000e-03,
381,3.125000e-02,-1.250000e-02,
382,-6.250000e-02,0.000000e+00,
383,3.125000e-02,-1.875000e-02,
384,3.125000e-02,-1.875000e-02,
385,-6.250000e-02,0.000000e+00,
386,0.000000e+00,-1.875000e-02,
387,-6.250000e-02,6.250000e-03,
388,-6.250000e-02,6.250000e-03,
389,3.125000e-02,-1.250000e-02,
390,-6.250000e-02,6.250000e-03,
391,3.125000e-02,-1.875000e-02,
392,-6.250000e-02,0.000000e+00,
393,3.125000e-02,-1.875000e-02,
394,-6.250000e-02,-6.250000e-03,
395,3.125000e-02,-2.500000e-02,
396,-6.250000e-02,-1.875000e-02,
397,3.125000e-02,6.250000e-03,
398,-6.250000e-02,6.250000e-03,
399,3.125000e-02,-1.250000e-02,
400,0.000000e+00,-1.250000e-02,
401,-6.250000e-02,6.250000e-03,
402,-6.250000e-02,6.250000e-03,
403,3.125000e-02,-1.875000e-02,
404,-6.250000e-02,-1.250000e-02,
405,3.125000e-02,-3.125000e-02,
406,-6.250000e-02,-1.875000e-02,
407,3.125000e-02,1.250000e-02,
408,-6.250000e-02,-1.250000e-02,
409,3.125000e-02,1.250000e-02,
410,-6.250000e-02,6.250000e-03,
411,3.125000e-02,-1.250000e-02,
412,-6.250000e-02,0.000000e+00,
413,3.125000e-02,-2.500000e-02,
414,-6.250000e-02,-6.250000e-03,
415,3.125000e-02,-2.500000e-02,
416,-6.250000e-02,-1.875000e-02,
417,3.125000e-02,0.000000e+00,
418,-6.250000e-02,-6.250000e-03,
419,0.000000e+00,1.250000e-02,
420,-6.250000e-02,6.250000e-03,
421,3.125000e-02,-1.250000e-02,
422,0.000000e+00,6.250000e-03,
423,-6.250000e-02,-2.500000e-02,
424,0.000000e+00,-1.250000e-02,
425,-6.250000e-02,-2.500000e-02,
426,-6.250000e-02,-1.875000e-02,
427,3.125000e-02,0.000000e+00,
428,-6.250000e-02,-1.250000e-02,
429,3.125000e-02,6.250000e-03,
430,-6.250000e-02,-6.250000e-03,
431,3.125000e-02,1.250000e-02,
432,-6.250000e-02,6.250000e-03,
433,3.125000e-02,-2.500000e-02,
434,-6.250000e-02,-1.250000e-02,
435,3.125000e-02,-3.125000e-02,
436,-6.250000e-02,-2.500000e-02,
437,3.125000e-02,6.250000e-03,
438,-6.250000e-02,-1.250000e-02,
439,3.125000e-02,1.250000e-02,
440,-6.250000e-02,1.250000e-02,
441,3.125000e-02,-1.250000e-02,
442,-6.250000e-02,0.000000e+00,
443,3.125000e-02,-2.500000e-02,
444,-6.250000e-02,-1.875000e-02,
445,3.125000e-02,0.000000e+00,
446,3.125000e-02,-6.250000e-03,
447,-6.250000e-02,-2.500000e-02,
448,-6.250000e-02,-1.250000e-02,
449,3.125000e-02,1.250000e-02,
450,3.125000e-02,1.875000e-02,
451,-6.250000e-02,-1.250000e-02,
452,-6.250000e-02,0.000000e+00,
453,3.125000e-02,-1.875000e-02,
454,-6.250000e-02,-6.250000e-03,
455,3.125000e-02,-1.875000e-02,
456,-6.250000e-02,-2.500000e-02,
457,3.125000e-02,-6.250000e-03,
458,-6.250000e-02,-1.250000e-02,
459,3.125000e-02,1.250000e-02,
460,0.000000e+00,6.250000e-03,
461,-6.250000e-02,-1.250000e-02,
462,-6.250000e-02,6.250000e-03,
463,3.125000e-02,-1.875000e-02,
464,-6.250000e-02,-6.250000e-03,
465,3.125000e-02,-2.500000e-02,
466,0.000000e+00,-1.875000e-02,
467,-6.250000e-02,-6.250000e-03,
468,-6.250000e-02,-1.875000e-02,
469,3.125000e-02,6.250000e-03,
470,-6.250000e-02,6.250000e-03,
471,3.125000e-02,-1.250000e-02,
472,0.000000e+00,6.250000e-03,
473,-6.250000e-02,-1.875000e-02,
474,-6.250000e-02,0.000000e+00,
475,3.125000e-02,-2.500000e-02,
476,-6.250000e-02,-2.500000e-02,
477,3.125000e-02,0.000000e+00,
478,-6.250000e-02,-1.250000e-02,
479,3.125000e-02,6.250000e-03,
480,-6.250000e-02,6.250000e-03,
481,3.125000e-02,-1.250000e-02,
482,-6.250000e-02,-1.250000e-02,
483,0.000000e+00,6.250000e-03,
484,-6.250000e-02,6.250000e-03,
485,3.125000e-02,-1.875000e-02,
486,-6.250000e-02,-1.875000e-02,
487,3.125000e-02,-6.250000e-03,
488,-6.250000e-02,-1.875000e-02,
489,3.125000e-02,6.250000e-03,
490,-6.250000e-02,-6.250000e-03,
491,3.125000e-02,1.250000e-02,
492,-6.250000e-02,-6.250000e-03,
493,3.125000e-02,1.250000e-02,
494,0.000000e+00,0.000000e+00,
495,-9.375000e-02,-2.500000e-02,
496,-6.250000e-02,-2.500000e-02,
497,3.125000e-02,0.000000e+00,
498,-6.250000e-02,-1.250000e-02,
499,3.125000e-02,6.250000e-03,
500,-6.250000e-02,1.250000e-02,
501,3.125000e-02,-1.250000e-02,
502,-6.250000e-02,6.250000e-03,
503,3.125000e-02,-1.250000e-02,
504,0.000000e+00,0.000000e+00,
505,-6.250000e-02,-1.875000e-02,
506,-6.250000e-02,-2.500000e-02,
507,0.000000e+00,6.250000e-03,
508,-6.250000e-02,-1.875000e-02,
509,3.125000e-02,-6.250000e-03,
510,-6.250000e-02,-1.875000e-02,
511,0.000000e+00,6.250000e-03,
512,-6.250000e-02,-6.250000e-03,
513,3.125000e-02,6.250000e-03,
514,-6.250000e-02,6.250000e-03,
515,3.125000e-02,-1.875000e-02,
516,-6.250000e-02,-6.250000e-03,
517,3.125000e-02,-2.500000e-02,
518,-6.250000e-02,-1.875000e-02,
519,3.125000e-02,-6.250000e-03,
520,-6.250000e-02,-1.250000e-02,
521,3.125000e-02,6.250000e-03,
522,-6.250000e-02,6.250000e-03,
523,3.125000e-02,-1.250000e-02,
524,-6.250000e-02,-1.250000e-02,
525,3.125000e-02,6.250000e-03,
526,-6.250000e-02,0.000000e+00,
527,3.125000e-02,-1.875000e-02,
528,-6.250000e-02,-6.250000e-03,
529,3.125000e-02,-1.875000e-02,
530,-6.250000e-02,-1.250000e-02,
531,3.125000e-02,6.250000e-03,
532,-6.250000e-02,-6.250000e-03,
533,3.125000e-02,1.250000e-02,
534,0.000000e+00,6.250000e-03,
535,-6.250000e-02,-1.250000e-02,
536,-6.250000e-02,-6.250000e-03,
537,3.125000e-02,-1.875000e-02,
538,3.125000e-02,-1.875000e-02,
539,-6.250000e-02,0.000000e+00,
540,-6.250000e-02,-1.875000e-02,
541,3.125000e-02,1.250000e-02,
542,-6.250000e-02,-1.250000e-02,
543,3.125000e-02,6.250000e-03,
544,0.000000e+00,6.250000e-03,
545,-6.250000e-02,-1.250000e-02,
546,-6.250000e-02,0.000000e+00,
547,3.125000e-02,-2.500000e-02,
548,-6.250000e-02,-2.500000e-02,
549,3.125000e-02,0.000000e+00,
550,-6.250000e-02,-1.250000e-02,
551,3.125000e-02,6.250000e-03,
552,-6.250000e-02,-1.250000e-02,
553,0.000000e+00,6.250000e-03,
554,-6.250000e-02,6.250000e-03,
555,0.000000e+00,-1.250000e-02,
556,-6.250000e-02,0.000000e+00,
557,3.125000e-02,-1.875000e-02,
558,-6.250000e-02,-1.875000e-02,
559,3.125000e-02,0.000000e+00,
560,-6.250000e-02,-1.250000e-02,
561,3.125000e-02,6.250000e-03,
562,-6.250000e-02,6.250000e-03,
563,3.125000e-02,-1.250000e-02,
564,0.000000e+00,0.000000e+00,
565,-6.250000e-02,-1.875000e-02,
566,-6.250000e-02,-6.250000e-03,
567,0.000000e+00,-1.875000e-02,
568,0.000000e+00,-1.875000e-02,
569,-6.250000e-02,0.000000e+00,
570,-6.250000e-02,-1.250000e-02,
571,3.125000e-02,6.250000e-03,
572,-6.250000e-02,6.250000e-03,
573,3.125000e-02,-1.250000e-02,
574,-6.250000e-02,6.250000e-03,
575,0.000000e+00,-1.875000e-02,
576,-6.250000e-02,0.000000e+00,
577,3.125000e-02,-1.875000e-02,
578,-6.250000e-02,-1.875000e-02,
579,3.125000e-02,0.000000e+00,
580,0.000000e+00,-1.250000e-02,
581,-6.250000e-02,6.250000e-03,
582,-6.250000e-02,-6.250000e-03,
583,3.125000e-02,6.250000e-03,
584,-6.250000e-02,1.250000e-02,
585,3.125000e-02,-1.250000e-02,
586,-6.250000e-02,0.000000e+00,
587,3.125000e-02,-1.875000e-02,
588,-6.250000e-02,-1.875000e-02,
589,0.000000e+00,6.250000e-03,
590,-6.250000e-02,-1.250000e-02,
591,3.125000e-02,6.250000e-03,
592,0.000000e+00,-6.250000e-03,
593,-6.250000e-02,1.250000e-02,
594,-6.250000e-02,1.250000e-02,
595,3.125000e-02,-1.250000e-02,
596,-6.250000e-02,0.000000e+00,
597,3.125000e-02,-2.500000e-02,
598,-6.250000e-02,-2.500000e-02,
599,3.125000e-02,0.000000e+00,
600,-6.250000e-02,-1.250000e-02,
601,3.125000e-02,6.250000e-03,
602,-6.250000e-02,6.250000e-03,
603,3.125000e-02,-1.250000e-02,
604,-6.250000e-02,6.250000e-03,
605,3.125000e-02,-1.250000e-02,
606,-6.250000e-02,6.250000e-03,
607,0.000000e+00,-2.500000e-02,
608,-6.250000e-02,-6.250000e-03,
609,3.125000e-02,-2.500000e-02,
610,-6.250000e-02,-1.250000e-02,
611,3.125000e-02,6.250000e-03,
612,0.000000e+00,-1.250000e-02,
613,-6.250000e-02,6.250000e-03,
614,-6.250000e-02,6.250000e-03,
615,3.125000e-02,-1.250000e-02,
616,-6.250000e-02,6.250000e-03,
617,3.125000e-02,-1.875000e-02,
618,-6.250000e-02,-1.875000e-02,
619,3.125000e-02,0.000000e+00,
620,3.125000e-02,0.000000e+00,
621,-6.250000e-02,-1.875000e-02,
622,-6.250000e-02,-1.250000e-02,
623,3.125000e-02,1.250000e-02,
