lab/data/171128/plate2/100Vpp10p50mm20mm0mmX/17.csv

X,CH1,CH2,Start,Increment,
Sequence,Volt,Volt,-1.014000e-04,5.000000e-07,
0,-6.250000e-02,-6.250000e-03,
1,3.125000e-02,6.250000e-03,
2,-6.250000e-02,-6.250000e-03,
3,3.125000e-02,6.250000e-03,
4,-6.250000e-02,6.250000e-03,
5,3.125000e-02,-1.875000e-02,
6,0.000000e+00,0.000000e+00,
7,-6.250000e-02,-2.500000e-02,
8,-6.250000e-02,-1.875000e-02,
9,3.125000e-02,0.000000e+00,
10,-6.250000e-02,-1.250000e-02,
11,0.000000e+00,1.250000e-02,
12,-6.250000e-02,6.250000e-03,
13,3.125000e-02,-1.250000e-02,
14,-6.250000e-02,-1.250000e-02,
15,3.125000e-02,6.250000e-03,
16,-6.250000e-02,6.250000e-03,
17,0.000000e+00,-1.875000e-02,
18,-6.250000e-02,-1.875000e-02,
19,3.125000e-02,0.000000e+00,
20,-6.250000e-02,-1.250000e-02,
21,3.125000e-02,6.250000e-03,
22,-6.250000e-02,-6.250000e-03,
23,3.125000e-02,1.875000e-02,
24,-6.250000e-02,1.250000e-02,
25,3.125000e-02,-1.875000e-02,
26,-9.375000e-02,-1.875000e-02,
27,3.125000e-02,-6.250000e-03,
28,-6.250000e-02,-1.875000e-02,
29,3.125000e-02,0.000000e+00,
30,-6.250000e-02,-1.875000e-02,
31,3.125000e-02,6.250000e-03,
32,-6.250000e-02,-6.250000e-03,
33,0.000000e+00,1.875000e-02,
34,-6.250000e-02,1.250000e-02,
35,3.125000e-02,-1.875000e-02,
36,-6.250000e-02,-6.250000e-03,
37,3.125000e-02,-2.500000e-02,
38,-6.250000e-02,-2.500000e-02,
39,3.125000e-02,0.000000e+00,
40,-6.250000e-02,-1.250000e-02,
41,3.125000e-02,6.250000e-03,
42,-6.250000e-02,-6.250000e-03,
43,3.125000e-02,1.250000e-02,
44,-6.250000e-02,1.250000e-02,
45,3.125000e-02,-1.875000e-02,
46,-6.250000e-02,-6.250000e-03,
47,3.125000e-02,-2.500000e-02,
48,0.000000e+00,-2.500000e-02,
49,-6.250000e-02,0.000000e+00,
50,-6.250000e-02,-1.250000e-02,
51,3.125000e-02,1.250000e-02,
52,-6.250000e-02,-6.250000e-03,
53,3.125000e-02,1.250000e-02,
54,-6.250000e-02,-6.250000e-03,
55,3.125000e-02,1.250000e-02,
56,0.000000e+00,6.250000e-03,
57,-6.250000e-02,-1.875000e-02,
58,-6.250000e-02,-6.250000e-03,
59,3.125000e-02,-2.500000e-02,
60,-6.250000e-02,-1.875000e-02,
61,3.125000e-02,6.250000e-03,
62,-6.250000e-02,6.250000e-03,
63,3.125000e-02,-6.250000e-03,
64,-6.250000e-02,-6.250000e-03,
65,0.000000e+00,6.250000e-03,
66,-6.250000e-02,6.250000e-03,
67,3.125000e-02,-1.875000e-02,
68,-6.250000e-02,-6.250000e-03,
69,3.125000e-02,-3.125000e-02,
70,-6.250000e-02,-3.125000e-02,
71,3.125000e-02,1.250000e-02,
72,-6.250000e-02,1.250000e-02,
73,3.125000e-02,-6.250000e-03,
74,0.000000e+00,6.250000e-03,
75,-6.250000e-02,-1.250000e-02,
76,-6.250000e-02,0.000000e+00,
77,3.125000e-02,-1.875000e-02,
78,-6.250000e-02,-6.250000e-03,
79,3.125000e-02,-1.875000e-02,
80,-6.250000e-02,-1.875000e-02,
81,3.125000e-02,6.250000e-03,
82,3.125000e-02,6.250000e-03,
83,-6.250000e-02,-6.250000e-03,
84,3.125000e-02,6.250000e-03,
85,-6.250000e-02,-1.250000e-02,
86,-6.250000e-02,-1.250000e-02,
87,3.125000e-02,6.250000e-03,
88,0.000000e+00,0.000000e+00,
89,-6.250000e-02,-1.875000e-02,
90,-6.250000e-02,-1.875000e-02,
91,3.125000e-02,0.000000e+00,
92,0.000000e+00,-1.250000e-02,
93,-6.250000e-02,6.250000e-03,
94,-6.250000e-02,-1.250000e-02,
95,3.125000e-02,6.250000e-03,
96,-6.250000e-02,6.250000e-03,
97,3.125000e-02,-1.250000e-02,
98,-6.250000e-02,0.000000e+00,
99,3.125000e-02,-1.875000e-02,
100,0.000000e+00,-1.875000e-02,
101,-6.250000e-02,-6.250000e-03,
102,-6.250000e-02,-1.875000e-02,
103,3.125000e-02,6.250000e-03,
104,-6.250000e-02,-6.250000e-03,
105,3.125000e-02,1.250000e-02,
106,-6.250000e-02,6.250000e-03,
107,3.125000e-02,-1.875000e-02,
108,-6.250000e-02,-1.875000e-02,
109,3.125000e-02,0.000000e+00,
110,0.000000e+00,0.000000e+00,
111,-6.250000e-02,-1.875000e-02,
112,-6.250000e-02,-1.875000e-02,
113,3.125000e-02,6.250000e-03,
114,-6.250000e-02,-6.250000e-03,
115,3.125000e-02,1.250000e-02,
116,-6.250000e-02,6.250000e-03,
117,3.125000e-02,-1.250000e-02,
118,0.000000e+00,-1.250000e-02,
119,-6.250000e-02,0.000000e+00,
120,-6.250000e-02,0.000000e+00,
121,3.125000e-02,-1.875000e-02,
122,-6.250000e-02,-1.875000e-02,
123,3.125000e-02,6.250000e-03,
124,0.000000e+00,-1.250000e-02,
125,-6.250000e-02,6.250000e-03,
126,-6.250000e-02,-1.250000e-02,
127,3.125000e-02,1.250000e-02,
128,-6.250000e-02,6.250000e-03,
129,3.125000e-02,-1.250000e-02,
130,-6.250000e-02,0.000000e+00,
131,3.125000e-02,-1.875000e-02,
132,-6.250000e-02,0.000000e+00,
133,3.125000e-02,-1.875000e-02,
134,-6.250000e-02,-1.875000e-02,
135,3.125000e-02,6.250000e-03,
136,-6.250000e-02,-1.250000e-02,
137,3.125000e-02,1.250000e-02,
138,3.125000e-02,1.875000e-02,
139,-6.250000e-02,-1.250000e-02,
140,-6.250000e-02,0.000000e+00,
141,0.000000e+00,-3.125000e-02,
142,0.000000e+00,-3.125000e-02,
143,-6.250000e-02,6.250000e-03,
144,-6.250000e-02,-6.250000e-03,
145,3.125000e-02,6.250000e-03,
146,-6.250000e-02,-6.250000e-03,
147,3.125000e-02,1.250000e-02,
148,-6.250000e-02,6.250000e-03,
149,3.125000e-02,-1.250000e-02,
150,0.000000e+00,-1.875000e-02,
151,-6.250000e-02,-6.250000e-03,
152,-6.250000e-02,-1.875000e-02,
153,3.125000e-02,-6.250000e-03,
154,-6.250000e-02,-1.875000e-02,
155,0.000000e+00,6.250000e-03,
156,-6.250000e-02,6.250000e-03,
157,3.125000e-02,-1.250000e-02,
158,-6.250000e-02,6.250000e-03,
159,3.125000e-02,-1.250000e-02,
160,-6.250000e-02,6.250000e-03,
161,3.125000e-02,-1.875000e-02,
162,0.000000e+00,-6.250000e-03,
163,-6.250000e-02,-2.500000e-02,
164,-6.250000e-02,-1.875000e-02,
165,3.125000e-02,6.250000e-03,
166,-6.250000e-02,6.250000e-03,
167,3.125000e-02,-1.250000e-02,
168,-6.250000e-02,6.250000e-03,
169,3.125000e-02,-1.250000e-02,
170,-6.250000e-02,0.000000e+00,
171,3.125000e-02,-1.875000e-02,
172,-6.250000e-02,6.250000e-03,
173,3.125000e-02,-1.875000e-02,
174,-6.250000e-02,-6.250000e-03,
175,3.125000e-02,-2.500000e-02,
176,-6.250000e-02,-1.875000e-02,
177,3.125000e-02,1.250000e-02,
178,-6.250000e-02,1.250000e-02,
179,3.125000e-02,-6.250000e-03,
180,-6.250000e-02,-6.250000e-03,
181,3.125000e-02,6.250000e-03,
182,0.000000e+00,6.250000e-03,
183,-6.250000e-02,-1.875000e-02,
184,-6.250000e-02,-6.250000e-03,
185,3.125000e-02,-2.500000e-02,
186,-6.250000e-02,-1.875000e-02,
187,3.125000e-02,6.250000e-03,
188,0.000000e+00,-6.250000e-03,
189,-6.250000e-02,1.875000e-02,
190,-6.250000e-02,1.250000e-02,
191,3.125000e-02,-1.875000e-02,
192,-6.250000e-02,-2.500000e-02,
193,3.125000e-02,0.000000e+00,
194,-6.250000e-02,-1.250000e-02,
195,7.812500e-01,6.250000e-03,
196,7.187500e-01,0.000000e+00,
197,1.031250e+00,-1.875000e-02,
198,8.750000e-01,-1.250000e-02,
199,-2.812500e-01,6.250000e-03,
200,-2.500000e-01,1.250000e-02,
201,-1.062500e+00,-1.250000e-02,
202,-1.093750e+00,-1.250000e-02,
203,-3.750000e-01,0.000000e+00,
204,-4.375000e-01,-1.250000e-02,
205,7.812500e-01,6.250000e-03,
206,7.500000e-01,0.000000e+00,
207,1.031250e+00,-2.500000e-02,
208,8.750000e-01,-1.875000e-02,
209,-2.812500e-01,6.250000e-03,
210,-2.500000e-01,6.250000e-03,
211,-1.062500e+00,-1.250000e-02,
212,-1.093750e+00,6.250000e-03,
213,-3.750000e-01,-1.250000e-02,
214,-4.375000e-01,0.000000e+00,
215,7.812500e-01,-1.875000e-02,
216,7.500000e-01,-1.875000e-02,
217,1.031250e+00,0.000000e+00,
218,8.750000e-01,-1.250000e-02,
219,-2.812500e-01,6.250000e-03,
220,-2.500000e-01,-6.250000e-03,
221,-1.062500e+00,6.250000e-03,
222,-1.093750e+00,6.250000e-03,
223,-4.062500e-01,-1.875000e-02,
224,-4.062500e-01,-1.875000e-02,
225,7.812500e-01,0.000000e+00,
226,7.500000e-01,-1.875000e-02,
227,1.031250e+00,6.250000e-03,
228,8.750000e-01,-1.250000e-02,
229,-2.812500e-01,6.250000e-03,
230,-2.500000e-01,6.250000e-03,
231,-1.093750e+00,-1.250000e-02,
232,-1.093750e+00,-1.250000e-02,
233,-3.750000e-01,6.250000e-03,
234,-4.375000e-01,6.250000e-03,
235,7.500000e-01,-1.250000e-02,
236,7.187500e-01,0.000000e+00,
237,1.031250e+00,-1.875000e-02,
238,8.750000e-01,-1.250000e-02,
239,-2.812500e-01,6.250000e-03,
240,-2.500000e-01,0.000000e+00,
241,-1.062500e+00,-1.875000e-02,
242,-1.062500e+00,-1.875000e-02,
243,-3.750000e-01,6.250000e-03,
244,-4.375000e-01,-1.250000e-02,
245,7.812500e-01,6.250000e-03,
246,7.187500e-01,-1.875000e-02,
247,1.031250e+00,0.000000e+00,
248,8.750000e-01,-1.250000e-02,
249,-2.812500e-01,6.250000e-03,
250,-2.187500e-01,6.250000e-03,
251,-1.093750e+00,-1.250000e-02,
252,-1.093750e+00,6.250000e-03,
253,-3.750000e-01,-1.250000e-02,
254,-4.375000e-01,-1.875000e-02,
255,7.812500e-01,6.250000e-03,
256,7.500000e-01,6.250000e-03,
257,1.031250e+00,-1.250000e-02,
258,8.750000e-01,0.000000e+00,
259,-2.812500e-01,-1.875000e-02,
260,-2.500000e-01,-1.250000e-02,
261,-1.062500e+00,6.250000e-03,
262,-1.093750e+00,6.250000e-03,
263,-4.062500e-01,-1.250000e-02,
264,-4.375000e-01,0.000000e+00,
265,7.812500e-01,-1.875000e-02,
266,7.500000e-01,-1.875000e-02,
267,1.031250e+00,0.000000e+00,
268,8.750000e-01,-1.875000e-02,
269,-2.812500e-01,6.250000e-03,
270,-2.500000e-01,0.000000e+00,
271,-1.062500e+00,-1.250000e-02,
272,-1.093750e+00,6.250000e-03,
273,-4.062500e-01,-1.875000e-02,
274,-4.375000e-01,-6.250000e-03,
275,7.812500e-01,-1.875000e-02,
276,7.187500e-01,-1.875000e-02,
277,1.031250e+00,0.000000e+00,
278,8.750000e-01,-1.250000e-02,
279,-2.812500e-01,6.250000e-03,
280,-2.500000e-01,0.000000e+00,
281,-1.062500e+00,-1.250000e-02,
282,-1.093750e+00,0.000000e+00,
283,-3.750000e-01,-1.875000e-02,
284,-4.375000e-01,0.000000e+00,
285,7.812500e-01,-1.250000e-02,
286,7.187500e-01,6.250000e-03,
287,1.031250e+00,-1.875000e-02,
288,8.750000e-01,-1.875000e-02,
289,-2.812500e-01,6.250000e-03,
290,-2.500000e-01,0.000000e+00,
291,-1.093750e+00,-1.875000e-02,
292,-1.093750e+00,0.000000e+00,
293,-3.750000e-01,-1.875000e-02,
294,-4.062500e-01,-1.875000e-02,
295,3.125000e-02,6.250000e-03,
296,-6.250000e-02,6.250000e-03,
297,3.125000e-02,-1.250000e-02,
298,-6.250000e-02,-1.875000e-02,
299,3.125000e-02,6.250000e-03,
300,-6.250000e-02,6.250000e-03,
301,3.125000e-02,-2.500000e-02,
302,-6.250000e-02,-3.125000e-02,
303,3.125000e-02,0.000000e+00,
304,-6.250000e-02,-1.250000e-02,
305,3.125000e-02,1.250000e-02,
306,-6.250000e-02,1.250000e-02,
307,3.125000e-02,-1.875000e-02,
308,-6.250000e-02,-1.250000e-02,
309,3.125000e-02,1.250000e-02,
310,-6.250000e-02,6.250000e-03,
311,3.125000e-02,-1.875000e-02,
312,3.125000e-02,-2.500000e-02,
313,-6.250000e-02,0.000000e+00,
314,-6.250000e-02,-1.250000e-02,
315,3.125000e-02,6.250000e-03,
316,-6.250000e-02,-1.250000e-02,
317,3.125000e-02,1.250000e-02,
318,-6.250000e-02,1.250000e-02,
319,3.125000e-02,-1.250000e-02,
320,-6.250000e-02,-1.875000e-02,
321,3.125000e-02,0.000000e+00,
322,-6.250000e-02,0.000000e+00,
323,3.125000e-02,-1.875000e-02,
324,-6.250000e-02,-2.500000e-02,
325,3.125000e-02,6.250000e-03,
326,-6.250000e-02,-6.250000e-03,
327,3.125000e-02,1.250000e-02,
328,-6.250000e-02,6.250000e-03,
329,3.125000e-02,-1.250000e-02,
330,-6.250000e-02,0.000000e+00,
331,3.125000e-02,-1.250000e-02,
332,-6.250000e-02,0.000000e+00,
333,3.125000e-02,-1.875000e-02,
334,0.000000e+00,-1.875000e-02,
335,-6.250000e-02,0.000000e+00,
336,-6.250000e-02,-1.250000e-02,
337,3.125000e-02,6.250000e-03,
338,-6.250000e-02,1.250000e-02,
339,3.125000e-02,-1.250000e-02,
340,-6.250000e-02,6.250000e-03,
341,3.125000e-02,-1.250000e-02,
342,0.000000e+00,6.250000e-03,
343,-6.250000e-02,-1.875000e-02,
344,-6.250000e-02,-6.250000e-03,
345,3.125000e-02,-2.500000e-02,
346,-6.250000e-02,-1.875000e-02,
347,3.125000e-02,1.250000e-02,
348,-6.250000e-02,1.250000e-02,
349,3.125000e-02,-1.250000e-02,
350,0.000000e+00,0.000000e+00,
351,-6.250000e-02,-1.250000e-02,
352,-6.250000e-02,0.000000e+00,
353,3.125000e-02,-1.875000e-02,
354,-6.250000e-02,-2.500000e-02,
355,3.125000e-02,0.000000e+00,
356,-6.250000e-02,-1.875000e-02,
357,3.125000e-02,6.250000e-03,
358,-6.250000e-02,-1.250000e-02,
359,3.125000e-02,6.250000e-03,
360,-6.250000e-02,6.250000e-03,
361,3.125000e-02,-1.250000e-02,
362,-6.250000e-02,6.250000e-03,
363,3.125000e-02,-1.875000e-02,
364,-6.250000e-02,-1.875000e-02,
365,3.125000e-02,-6.250000e-03,
366,-6.250000e-02,-1.875000e-02,
367,3.125000e-02,6.250000e-03,
368,-6.250000e-02,-6.250000e-03,
369,3.125000e-02,1.250000e-02,
370,-6.250000e-02,6.250000e-03,
371,3.125000e-02,-1.250000e-02,
372,-6.250000e-02,0.000000e+00,
373,3.125000e-02,-1.875000e-02,
374,-6.250000e-02,0.000000e+00,
375,3.125000e-02,-1.875000e-02,
376,-6.250000e-02,-1.250000e-02,
377,3.125000e-02,6.250000e-03,
378,-6.250000e-02,-6.250000e-03,
379,3.125000e-02,6.250000e-03,
380,-6.250000e-02,6.250000e-03,
381,3.125000e-02,-1.250000e-02,
382,-6.250000e-02,-1.875000e-02,
383,3.125000e-02,0.000000e+00,
384,-6.250000e-02,0.000000e+00,
385,3.125000e-02,-1.875000e-02,
386,3.125000e-02,-1.250000e-02,
387,-6.250000e-02,0.000000e+00,
388,-6.250000e-02,-1.250000e-02,
389,3.125000e-02,6.250000e-03,
390,-6.250000e-02,-1.250000e-02,
391,3.125000e-02,6.250000e-03,
392,-6.250000e-02,0.000000e+00,
393,3.125000e-02,-1.875000e-02,
394,0.000000e+00,-1.875000e-02,
395,-6.250000e-02,6.250000e-03,
396,-6.250000e-02,0.000000e+00,
397,3.125000e-02,-1.875000e-02,
398,-6.250000e-02,-1.250000e-02,
399,3.125000e-02,6.250000e-03,
400,-6.250000e-02,6.250000e-03,
401,0.000000e+00,-1.250000e-02,
402,-6.250000e-02,0.000000e+00,
403,3.125000e-02,-1.875000e-02,
404,-6.250000e-02,0.000000e+00,
405,3.125000e-02,-1.875000e-02,
406,0.000000e+00,-1.250000e-02,
407,-6.250000e-02,6.250000e-03,
408,-6.250000e-02,6.250000e-03,
409,3.125000e-02,-1.250000e-02,
410,-6.250000e-02,6.250000e-03,
411,3.125000e-02,-1.875000e-02,
412,-6.250000e-02,-1.875000e-02,
413,3.125000e-02,0.000000e+00,
414,-6.250000e-02,-1.875000e-02,
415,3.125000e-02,0.000000e+00,
416,-6.250000e-02,-1.250000e-02,
417,3.125000e-02,1.250000e-02,
418,-6.250000e-02,6.250000e-03,
419,3.125000e-02,-1.250000e-02,
420,-6.250000e-02,0.000000e+00,
421,3.125000e-02,-1.875000e-02,
422,-6.250000e-02,-1.875000e-02,
423,3.125000e-02,0.000000e+00,
424,-6.250000e-02,-1.250000e-02,
425,0.000000e+00,6.250000e-03,
426,-6.250000e-02,-6.250000e-03,
427,0.000000e+00,6.250000e-03,
428,3.125000e-02,6.250000e-03,
429,-6.250000e-02,-1.250000e-02,
430,-6.250000e-02,6.250000e-03,
431,3.125000e-02,-1.875000e-02,
432,-6.250000e-02,0.000000e+00,
433,3.125000e-02,-1.875000e-02,
434,-6.250000e-02,-1.250000e-02,
435,3.125000e-02,6.250000e-03,
436,-6.250000e-02,-1.250000e-02,
437,3.125000e-02,6.250000e-03,
438,-6.250000e-02,6.250000e-03,
439,3.125000e-02,-1.875000e-02,
440,-6.250000e-02,0.000000e+00,
441,3.125000e-02,-1.875000e-02,
442,-6.250000e-02,0.000000e+00,
443,3.125000e-02,-1.875000e-02,
444,-6.250000e-02,0.000000e+00,
445,3.125000e-02,-1.250000e-02,
446,3.125000e-02,-1.250000e-02,
447,-6.250000e-02,6.250000e-03,
448,-6.250000e-02,-1.250000e-02,
449,3.125000e-02,6.250000e-03,
450,-6.250000e-02,-1.250000e-02,
451,3.125000e-02,0.000000e+00,
452,-6.250000e-02,-6.250000e-03,
453,3.125000e-02,-1.875000e-02,
454,-6.250000e-02,-1.875000e-02,
455,3.125000e-02,0.000000e+00,
456,-6.250000e-02,-1.250000e-02,
457,3.125000e-02,0.000000e+00,
458,-6.250000e-02,-1.250000e-02,
459,3.125000e-02,6.250000e-03,
460,-6.250000e-02,-1.250000e-02,
461,3.125000e-02,6.250000e-03,
462,0.000000e+00,0.000000e+00,
463,-6.250000e-02,-1.875000e-02,
464,-6.250000e-02,-1.875000e-02,
465,3.125000e-02,0.000000e+00,
466,-6.250000e-02,-1.875000e-02,
467,3.125000e-02,6.250000e-03,
468,-6.250000e-02,6.250000e-03,
469,3.125000e-02,-6.250000e-03,
470,0.000000e+00,6.250000e-03,
471,-6.250000e-02,-1.250000e-02,
472,0.000000e+00,0.000000e+00,
473,-6.250000e-02,-2.500000e-02,
474,0.000000e+00,-2.500000e-02,
475,-6.250000e-02,0.000000e+00,
476,-6.250000e-02,-1.250000e-02,
477,3.125000e-02,6.250000e-03,
478,-6.250000e-02,-6.250000e-03,
479,3.125000e-02,6.250000e-03,
480,0.000000e+00,6.250000e-03,
481,-6.250000e-02,-1.875000e-02,
482,0.000000e+00,-1.875000e-02,
483,-6.250000e-02,0.000000e+00,
484,-6.250000e-02,-1.250000e-02,
485,3.125000e-02,0.000000e+00,
486,-6.250000e-02,-1.250000e-02,
487,3.125000e-02,6.250000e-03,
488,-6.250000e-02,6.250000e-03,
489,3.125000e-02,-1.250000e-02,
490,-6.250000e-02,6.250000e-03,
491,3.125000e-02,-1.250000e-02,
492,-6.250000e-02,6.250000e-03,
493,3.125000e-02,-1.875000e-02,
494,-6.250000e-02,0.000000e+00,
495,3.125000e-02,-1.875000e-02,
496,-6.250000e-02,-1.875000e-02,
497,3.125000e-02,0.000000e+00,
498,-6.250000e-02,-1.250000e-02,
499,3.125000e-02,1.250000e-02,
500,-6.250000e-02,6.250000e-03,
501,3.125000e-02,-1.250000e-02,
502,0.000000e+00,0.000000e+00,
503,-6.250000e-02,-1.875000e-02,
504,-6.250000e-02,-1.875000e-02,
505,3.125000e-02,0.000000e+00,
506,-6.250000e-02,-1.875000e-02,
507,3.125000e-02,6.250000e-03,
508,-6.250000e-02,-1.250000e-02,
509,3.125000e-02,1.250000e-02,
510,-6.250000e-02,-6.250000e-03,
511,3.125000e-02,6.250000e-03,
512,-6.250000e-02,6.250000e-03,
513,3.125000e-02,-1.875000e-02,
514,-6.250000e-02,-6.250000e-03,
515,3.125000e-02,-1.875000e-02,
516,-6.250000e-02,-1.875000e-02,
517,3.125000e-02,0.000000e+00,
518,-6.250000e-02,-1.250000e-02,
519,3.125000e-02,6.250000e-03,
520,0.000000e+00,6.250000e-03,
521,-6.250000e-02,-1.875000e-02,
522,-6.250000e-02,0.000000e+00,
523,3.125000e-02,-1.875000e-02,
524,-6.250000e-02,-1.875000e-02,
525,3.125000e-02,0.000000e+00,
526,-6.250000e-02,-1.250000e-02,
527,3.125000e-02,6.250000e-03,
528,-6.250000e-02,0.000000e+00,
529,3.125000e-02,-1.875000e-02,
530,-6.250000e-02,-1.250000e-02,
531,3.125000e-02,6.250000e-03,
532,0.000000e+00,6.250000e-03,
533,-6.250000e-02,-1.875000e-02,
534,0.000000e+00,-1.875000e-02,
535,-6.250000e-02,0.000000e+00,
536,-6.250000e-02,-1.250000e-02,
537,3.125000e-02,6.250000e-03,
538,-6.250000e-02,6.250000e-03,
539,3.125000e-02,-1.250000e-02,
540,0.000000e+00,6.250000e-03,
541,-6.250000e-02,-1.250000e-02,
542,-6.250000e-02,6.250000e-03,
543,3.125000e-02,-1.250000e-02,
544,0.000000e+00,0.000000e+00,
545,-6.250000e-02,-1.875000e-02,
546,-6.250000e-02,-1.875000e-02,
547,0.000000e+00,6.250000e-03,
548,0.000000e+00,-1.250000e-02,
549,-6.250000e-02,6.250000e-03,
550,0.000000e+00,-1.250000e-02,
551,-6.250000e-02,0.000000e+00,
552,-6.250000e-02,0.000000e+00,
553,3.125000e-02,-1.875000e-02,
554,-6.250000e-02,0.000000e+00,
555,3.125000e-02,-1.875000e-02,
556,-6.250000e-02,0.000000e+00,
557,3.125000e-02,-1.875000e-02,
558,0.000000e+00,-1.875000e-02,
559,-6.250000e-02,6.250000e-03,
560,-6.250000e-02,6.250000e-03,
561,3.125000e-02,-1.875000e-02,
562,0.000000e+00,0.000000e+00,
563,-6.250000e-02,-1.875000e-02,
564,-6.250000e-02,-1.875000e-02,
565,3.125000e-02,0.000000e+00,
566,-6.250000e-02,0.000000e+00,
567,3.125000e-02,-1.250000e-02,
568,-6.250000e-02,-1.250000e-02,
569,3.125000e-02,6.250000e-03,
570,0.000000e+00,6.250000e-03,
571,-6.250000e-02,-1.250000e-02,
572,-6.250000e-02,6.250000e-03,
573,3.125000e-02,-1.875000e-02,
574,-6.250000e-02,-6.250000e-03,
575,3.125000e-02,-2.500000e-02,
576,-6.250000e-02,-1.875000e-02,
577,3.125000e-02,6.250000e-03,
578,-6.250000e-02,6.250000e-03,
579,3.125000e-02,-1.250000e-02,
580,-6.250000e-02,0.000000e+00,
581,3.125000e-02,-1.875000e-02,
582,-6.250000e-02,-1.875000e-02,
583,3.125000e-02,0.000000e+00,
584,-6.250000e-02,-1.875000e-02,
585,3.125000e-02,-6.250000e-03,
586,-6.250000e-02,-1.875000e-02,
587,3.125000e-02,6.250000e-03,
588,-6.250000e-02,6.250000e-03,
589,0.000000e+00,-1.250000e-02,
590,3.125000e-02,0.000000e+00,
591,-9.375000e-02,-1.250000e-02,
592,-6.250000e-02,6.250000e-03,
593,3.125000e-02,-1.250000e-02,
594,-6.250000e-02,6.250000e-03,
595,0.000000e+00,-1.875000e-02,
596,-6.250000e-02,-1.875000e-02,
597,3.125000e-02,6.250000e-03,
598,-6.250000e-02,-1.250000e-02,
599,3.125000e-02,6.250000e-03,
600,-6.250000e-02,-1.250000e-02,
601,3.125000e-02,6.250000e-03,
602,-6.250000e-02,0.000000e+00,
603,0.000000e+00,-1.250000e-02,
604,0.000000e+00,0.000000e+00,
605,-6.250000e-02,-1.875000e-02,
606,0.000000e+00,0.000000e+00,
607,-6.250000e-02,-1.875000e-02,
608,-6.250000e-02,-1.875000e-02,
609,3.125000e-02,6.250000e-03,
610,-6.250000e-02,6.250000e-03,
611,3.125000e-02,-1.250000e-02,
612,0.000000e+00,6.250000e-03,
613,-6.250000e-02,-1.875000e-02,
614,-6.250000e-02,-1.875000e-02,
615,3.125000e-02,0.000000e+00,
616,-6.250000e-02,-1.250000e-02,
617,3.125000e-02,6.250000e-03,
618,0.000000e+00,0.000000e+00,
619,-6.250000e-02,-1.875000e-02,
620,0.000000e+00,-1.250000e-02,
621,-6.250000e-02,0.000000e+00,
622,0.000000e+00,0.000000e+00,
623,-6.250000e-02,-1.875000e-02,
624,3.125000e-02,-1.875000e-02,
