lab/data/171205/200vXp150mm2cm45mm14/03.csv

X,CH1,CH2,Start,Increment,
Sequence,Volt,Volt,-1.096000e-04,5.000000e-07,
0,0.000000e+00,6.250000e-03,
1,-1.250000e-01,-1.250000e-02,
2,-1.250000e-01,0.000000e+00,
3,0.000000e+00,-1.875000e-02,
4,-1.250000e-01,-6.250000e-03,
5,0.000000e+00,-1.875000e-02,
6,-1.250000e-01,-1.875000e-02,
7,0.000000e+00,0.000000e+00,
8,-1.250000e-01,-1.250000e-02,
9,0.000000e+00,1.250000e-02,
10,0.000000e+00,6.250000e-03,
11,-1.875000e-01,-1.250000e-02,
12,-1.250000e-01,-1.250000e-02,
13,0.000000e+00,6.250000e-03,
14,0.000000e+00,-2.500000e-02,
15,-1.875000e-01,6.250000e-03,
16,-1.250000e-01,-6.250000e-03,
17,0.000000e+00,-1.875000e-02,
18,0.000000e+00,-1.875000e-02,
19,-1.875000e-01,0.000000e+00,
20,0.000000e+00,-1.250000e-02,
21,-1.250000e-01,6.250000e-03,
22,-1.250000e-01,-1.250000e-02,
23,0.000000e+00,6.250000e-03,
24,0.000000e+00,0.000000e+00,
25,-1.875000e-01,-1.875000e-02,
26,-1.250000e-01,-1.875000e-02,
27,0.000000e+00,-6.250000e-03,
28,-1.250000e-01,-1.875000e-02,
29,0.000000e+00,0.000000e+00,
30,-1.250000e-01,-1.250000e-02,
31,0.000000e+00,6.250000e-03,
32,-1.250000e-01,6.250000e-03,
33,0.000000e+00,-1.250000e-02,
34,-1.250000e-01,6.250000e-03,
35,0.000000e+00,-1.875000e-02,
36,-1.250000e-01,-6.250000e-03,
37,0.000000e+00,-2.500000e-02,
38,-1.250000e-01,-1.875000e-02,
39,0.000000e+00,0.000000e+00,
40,-1.250000e-01,-1.250000e-02,
41,0.000000e+00,6.250000e-03,
42,-1.250000e-01,-1.250000e-02,
43,0.000000e+00,6.250000e-03,
44,-1.250000e-01,6.250000e-03,
45,0.000000e+00,-1.250000e-02,
46,-1.250000e-01,0.000000e+00,
47,0.000000e+00,-2.500000e-02,
48,-1.250000e-01,-2.500000e-02,
49,0.000000e+00,0.000000e+00,
50,-1.250000e-01,-1.250000e-02,
51,0.000000e+00,0.000000e+00,
52,-1.250000e-01,-1.250000e-02,
53,0.000000e+00,6.250000e-03,
54,0.000000e+00,0.000000e+00,
55,-1.875000e-01,-1.250000e-02,
56,0.000000e+00,0.000000e+00,
57,-1.875000e-01,-1.875000e-02,
58,-1.250000e-01,-6.250000e-03,
59,0.000000e+00,-1.875000e-02,
60,0.000000e+00,-1.875000e-02,
61,-1.875000e-01,0.000000e+00,
62,-1.250000e-01,-1.875000e-02,
63,0.000000e+00,6.250000e-03,
64,-1.250000e-01,-1.250000e-02,
65,0.000000e+00,6.250000e-03,
66,0.000000e+00,0.000000e+00,
67,-1.875000e-01,-1.250000e-02,
68,-1.250000e-01,0.000000e+00,
69,0.000000e+00,-1.875000e-02,
70,-1.250000e-01,-1.875000e-02,
71,0.000000e+00,0.000000e+00,
72,-1.250000e-01,-1.875000e-02,
73,0.000000e+00,0.000000e+00,
74,-1.250000e-01,-1.250000e-02,
75,0.000000e+00,6.250000e-03,
76,0.000000e+00,6.250000e-03,
77,-1.250000e-01,-1.250000e-02,
78,0.000000e+00,0.000000e+00,
79,-1.875000e-01,-1.875000e-02,
80,-1.250000e-01,0.000000e+00,
81,0.000000e+00,-2.500000e-02,
82,-1.250000e-01,-1.875000e-02,
83,0.000000e+00,0.000000e+00,
84,-1.250000e-01,-1.875000e-02,
85,0.000000e+00,0.000000e+00,
86,-1.250000e-01,6.250000e-03,
87,0.000000e+00,-1.250000e-02,
88,-1.250000e-01,6.250000e-03,
89,0.000000e+00,-1.250000e-02,
90,-1.250000e-01,0.000000e+00,
91,0.000000e+00,-1.875000e-02,
92,0.000000e+00,-1.875000e-02,
93,-1.875000e-01,-6.250000e-03,
94,-1.250000e-01,-6.250000e-03,
95,0.000000e+00,-1.875000e-02,
96,-1.250000e-01,-1.250000e-02,
97,0.000000e+00,0.000000e+00,
98,-1.250000e-01,-1.250000e-02,
99,0.000000e+00,6.250000e-03,
100,-1.250000e-01,6.250000e-03,
101,0.000000e+00,-1.875000e-02,
102,-1.250000e-01,-6.250000e-03,
103,0.000000e+00,-2.500000e-02,
104,0.000000e+00,-6.250000e-03,
105,-1.875000e-01,-2.500000e-02,
106,0.000000e+00,-1.875000e-02,
107,-1.875000e-01,0.000000e+00,
108,-1.250000e-01,-1.250000e-02,
109,0.000000e+00,6.250000e-03,
110,-1.250000e-01,6.250000e-03,
111,0.000000e+00,-1.250000e-02,
112,-1.250000e-01,0.000000e+00,
113,0.000000e+00,-2.500000e-02,
114,-1.250000e-01,-3.125000e-02,
115,0.000000e+00,0.000000e+00,
116,0.000000e+00,-1.875000e-02,
117,-1.250000e-01,0.000000e+00,
118,-1.250000e-01,-1.250000e-02,
119,0.000000e+00,6.250000e-03,
120,0.000000e+00,6.250000e-03,
121,-1.875000e-01,-1.250000e-02,
122,0.000000e+00,6.250000e-03,
123,-1.250000e-01,-1.875000e-02,
124,-1.250000e-01,-6.250000e-03,
125,0.000000e+00,-2.500000e-02,
126,-1.250000e-01,-6.250000e-03,
127,0.000000e+00,-2.500000e-02,
128,-1.250000e-01,-1.875000e-02,
129,0.000000e+00,6.250000e-03,
130,-1.250000e-01,-6.250000e-03,
131,0.000000e+00,1.250000e-02,
132,-1.250000e-01,6.250000e-03,
133,0.000000e+00,-1.875000e-02,
134,-1.250000e-01,-6.250000e-03,
135,0.000000e+00,-3.125000e-02,
136,0.000000e+00,-2.500000e-02,
137,-1.875000e-01,-6.250000e-03,
138,-1.250000e-01,-1.875000e-02,
139,0.000000e+00,6.250000e-03,
140,0.000000e+00,-6.250000e-03,
141,-1.875000e-01,1.250000e-02,
142,-1.250000e-01,1.250000e-02,
143,0.000000e+00,-1.250000e-02,
144,-1.250000e-01,0.000000e+00,
145,0.000000e+00,-2.500000e-02,
146,-1.250000e-01,-3.750000e-02,
147,0.000000e+00,-6.250000e-03,
148,-1.250000e-01,-1.875000e-02,
149,0.000000e+00,6.250000e-03,
150,-1.250000e-01,-6.250000e-03,
151,0.000000e+00,1.250000e-02,
152,-1.250000e-01,1.250000e-02,
153,0.000000e+00,-1.250000e-02,
154,-1.250000e-01,0.000000e+00,
155,0.000000e+00,-2.500000e-02,
156,-1.250000e-01,-3.125000e-02,
157,0.000000e+00,-6.250000e-03,
158,-1.250000e-01,-2.500000e-02,
159,0.000000e+00,0.000000e+00,
160,-1.250000e-01,-1.250000e-02,
161,0.000000e+00,1.250000e-02,
162,0.000000e+00,1.250000e-02,
163,-1.875000e-01,-1.250000e-02,
164,0.000000e+00,6.250000e-03,
165,-1.250000e-01,-1.875000e-02,
166,0.000000e+00,-1.250000e-02,
167,-1.875000e-01,-3.125000e-02,
168,-1.250000e-01,-3.125000e-02,
169,0.000000e+00,0.000000e+00,
170,-1.250000e-01,-1.250000e-02,
171,0.000000e+00,1.875000e-02,
172,-1.250000e-01,0.000000e+00,
173,0.000000e+00,1.875000e-02,
174,-1.250000e-01,1.250000e-02,
175,0.000000e+00,-2.500000e-02,
176,-1.250000e-01,-1.250000e-02,
177,0.000000e+00,-3.125000e-02,
178,0.000000e+00,-3.125000e-02,
179,-1.875000e-01,-6.250000e-03,
180,0.000000e+00,-1.875000e-02,
181,-1.875000e-01,1.250000e-02,
182,-1.250000e-01,0.000000e+00,
183,0.000000e+00,1.875000e-02,
184,-1.250000e-01,1.250000e-02,
185,0.000000e+00,-2.500000e-02,
186,-1.250000e-01,-1.250000e-02,
187,0.000000e+00,-3.125000e-02,
188,0.000000e+00,-2.500000e-02,
189,-1.875000e-01,-6.250000e-03,
190,-1.250000e-01,-1.875000e-02,
191,0.000000e+00,1.250000e-02,
192,0.000000e+00,1.250000e-02,
193,-1.875000e-01,-6.250000e-03,
194,-1.250000e-01,1.250000e-02,
195,0.000000e+00,-1.875000e-02,
196,0.000000e+00,-6.250000e-03,
197,-1.250000e-01,-3.125000e-02,
198,0.000000e+00,-3.125000e-02,
199,-1.875000e-01,-6.250000e-03,
200,-1.250000e-01,-1.875000e-02,
201,0.000000e+00,6.250000e-03,
202,-1.250000e-01,-6.250000e-03,
203,0.000000e+00,1.250000e-02,
204,-1.250000e-01,6.250000e-03,
205,0.000000e+00,-1.250000e-02,
206,-1.250000e-01,-6.250000e-03,
207,0.000000e+00,-2.500000e-02,
208,-1.250000e-01,-2.500000e-02,
209,0.000000e+00,-6.250000e-03,
210,0.000000e+00,-1.875000e-02,
211,-1.875000e-01,6.250000e-03,
212,-1.250000e-01,-1.250000e-02,
213,0.000000e+00,1.875000e-02,
214,-1.250000e-01,6.250000e-03,
215,0.000000e+00,-1.250000e-02,
216,-1.875000e-01,-6.250000e-03,
217,0.000000e+00,-1.875000e-02,
218,-1.250000e-01,-6.250000e-03,
219,0.000000e+00,-1.875000e-02,
220,-1.250000e-01,-1.875000e-02,
221,1.812500e+00,0.000000e+00,
222,2.000000e+00,-1.250000e-02,
223,1.250000e+00,6.250000e-03,
224,1.312500e+00,6.250000e-03,
225,-1.187500e+00,-1.875000e-02,
226,-1.062500e+00,-1.875000e-02,
227,-2.187500e+00,0.000000e+00,
228,-2.125000e+00,-1.875000e-02,
229,-2.500000e-01,0.000000e+00,
230,-3.125000e-01,0.000000e+00,
231,1.875000e+00,-1.875000e-02,
232,2.062500e+00,0.000000e+00,
233,1.250000e+00,-1.250000e-02,
234,1.312500e+00,-1.250000e-02,
235,-1.187500e+00,0.000000e+00,
236,-1.062500e+00,0.000000e+00,
237,-2.187500e+00,-1.875000e-02,
238,-2.187500e+00,0.000000e+00,
239,-2.500000e-01,-1.875000e-02,
240,-3.125000e-01,0.000000e+00,
241,1.812500e+00,-1.875000e-02,
242,2.000000e+00,0.000000e+00,
243,1.250000e+00,-1.250000e-02,
244,1.312500e+00,-1.250000e-02,
245,-1.125000e+00,0.000000e+00,
246,-1.062500e+00,-2.500000e-02,
247,-2.187500e+00,6.250000e-03,
248,-2.125000e+00,-1.250000e-02,
249,-2.500000e-01,0.000000e+00,
250,-3.125000e-01,-1.250000e-02,
251,1.875000e+00,0.000000e+00,
252,2.000000e+00,0.000000e+00,
253,1.250000e+00,-1.875000e-02,
254,1.312500e+00,-1.250000e-02,
255,-1.125000e+00,0.000000e+00,
256,-1.062500e+00,-1.250000e-02,
257,-2.187500e+00,0.000000e+00,
258,-2.125000e+00,-1.250000e-02,
259,-2.500000e-01,0.000000e+00,
260,-3.125000e-01,0.000000e+00,
261,1.812500e+00,-1.875000e-02,
262,2.000000e+00,-1.250000e-02,
263,1.250000e+00,0.000000e+00,
264,1.312500e+00,0.000000e+00,
265,-1.187500e+00,-1.875000e-02,
266,-1.062500e+00,-1.875000e-02,
267,-2.187500e+00,0.000000e+00,
268,-2.125000e+00,0.000000e+00,
269,-2.500000e-01,-1.250000e-02,
270,-3.125000e-01,-1.875000e-02,
271,1.812500e+00,0.000000e+00,
272,2.000000e+00,0.000000e+00,
273,1.250000e+00,-1.875000e-02,
274,1.312500e+00,-1.250000e-02,
275,-1.125000e+00,0.000000e+00,
276,-1.062500e+00,0.000000e+00,
277,-2.187500e+00,-1.875000e-02,
278,-2.125000e+00,0.000000e+00,
279,-2.500000e-01,-2.500000e-02,
280,-3.125000e-01,0.000000e+00,
281,1.812500e+00,-1.875000e-02,
282,2.062500e+00,-1.875000e-02,
283,1.250000e+00,0.000000e+00,
284,1.312500e+00,-1.250000e-02,
285,-1.125000e+00,0.000000e+00,
286,-1.062500e+00,0.000000e+00,
287,-2.187500e+00,-1.250000e-02,
288,-2.125000e+00,0.000000e+00,
289,-2.500000e-01,-1.875000e-02,
290,-3.125000e-01,-1.875000e-02,
291,1.875000e+00,-6.250000e-03,
292,2.000000e+00,0.000000e+00,
293,1.250000e+00,-1.875000e-02,
294,1.312500e+00,-1.250000e-02,
295,-1.187500e+00,6.250000e-03,
296,-1.062500e+00,0.000000e+00,
297,-2.250000e+00,-1.875000e-02,
298,-2.125000e+00,-6.250000e-03,
299,-2.500000e-01,-2.500000e-02,
300,-3.125000e-01,-1.875000e-02,
301,0.000000e+00,0.000000e+00,
302,-1.250000e-01,-1.250000e-02,
303,0.000000e+00,6.250000e-03,
304,-1.250000e-01,-1.250000e-02,
305,0.000000e+00,6.250000e-03,
306,0.000000e+00,-1.250000e-02,
307,-1.250000e-01,6.250000e-03,
308,-1.250000e-01,-1.875000e-02,
309,0.000000e+00,0.000000e+00,
310,-1.250000e-01,-1.875000e-02,
311,0.000000e+00,0.000000e+00,
312,-1.250000e-01,6.250000e-03,
313,0.000000e+00,-1.875000e-02,
314,0.000000e+00,6.250000e-03,
315,-1.875000e-01,-1.250000e-02,
316,0.000000e+00,6.250000e-03,
317,-1.875000e-01,-1.250000e-02,
318,-1.250000e-01,0.000000e+00,
319,0.000000e+00,-1.875000e-02,
320,-1.250000e-01,-1.875000e-02,
321,0.000000e+00,0.000000e+00,
322,-1.250000e-01,-1.250000e-02,
323,0.000000e+00,0.000000e+00,
324,-1.250000e-01,-1.250000e-02,
325,0.000000e+00,6.250000e-03,
326,0.000000e+00,0.000000e+00,
327,-1.875000e-01,-1.250000e-02,
328,-1.250000e-01,-6.250000e-03,
329,0.000000e+00,-1.875000e-02,
330,0.000000e+00,-1.875000e-02,
331,-1.875000e-01,0.000000e+00,
332,-1.250000e-01,-1.250000e-02,
333,0.000000e+00,0.000000e+00,
334,-1.250000e-01,-1.250000e-02,
335,0.000000e+00,0.000000e+00,
336,-1.250000e-01,-1.250000e-02,
337,0.000000e+00,0.000000e+00,
338,0.000000e+00,-1.875000e-02,
339,-1.875000e-01,0.000000e+00,
340,0.000000e+00,-6.250000e-03,
341,-1.875000e-01,-1.875000e-02,
342,0.000000e+00,-1.875000e-02,
343,-1.875000e-01,0.000000e+00,
344,-1.250000e-01,-1.250000e-02,
345,0.000000e+00,0.000000e+00,
346,0.000000e+00,-1.875000e-02,
347,-1.875000e-01,1.250000e-02,
348,-1.250000e-01,6.250000e-03,
349,0.000000e+00,-1.875000e-02,
350,-1.250000e-01,0.000000e+00,
351,0.000000e+00,-1.875000e-02,
352,0.000000e+00,0.000000e+00,
353,-1.875000e-01,-1.875000e-02,
354,0.000000e+00,-1.250000e-02,
355,-1.875000e-01,6.250000e-03,
356,-1.250000e-01,0.000000e+00,
357,0.000000e+00,-1.250000e-02,
358,0.000000e+00,6.250000e-03,
359,-1.875000e-01,-1.875000e-02,
360,-1.250000e-01,-1.875000e-02,
361,0.000000e+00,0.000000e+00,
362,-1.250000e-01,-1.250000e-02,
363,0.000000e+00,0.000000e+00,
364,0.000000e+00,-1.875000e-02,
365,-1.875000e-01,6.250000e-03,
366,-1.250000e-01,0.000000e+00,
367,0.000000e+00,-1.250000e-02,
368,0.000000e+00,0.000000e+00,
369,-1.875000e-01,-1.875000e-02,
370,0.000000e+00,-1.875000e-02,
371,-1.875000e-01,0.000000e+00,
372,-1.250000e-01,-1.250000e-02,
373,0.000000e+00,0.000000e+00,
374,0.000000e+00,6.250000e-03,
375,-1.875000e-01,-1.250000e-02,
376,-1.250000e-01,6.250000e-03,
377,0.000000e+00,-1.875000e-02,
378,-1.250000e-01,0.000000e+00,
379,0.000000e+00,-2.500000e-02,
380,0.000000e+00,-1.875000e-02,
381,-1.875000e-01,0.000000e+00,
382,-1.250000e-01,-1.875000e-02,
383,0.000000e+00,0.000000e+00,
384,-1.250000e-01,-1.250000e-02,
385,0.000000e+00,6.250000e-03,
386,-1.250000e-01,-1.250000e-02,
387,0.000000e+00,6.250000e-03,
388,0.000000e+00,0.000000e+00,
389,-1.875000e-01,-1.875000e-02,
390,-1.875000e-01,-1.875000e-02,
391,0.000000e+00,0.000000e+00,
392,0.000000e+00,0.000000e+00,
393,-1.875000e-01,-1.875000e-02,
394,0.000000e+00,-1.250000e-02,
395,-1.875000e-01,0.000000e+00,
396,0.000000e+00,0.000000e+00,
397,-1.875000e-01,-1.875000e-02,
398,0.000000e+00,0.000000e+00,
399,-1.875000e-01,-1.875000e-02,
400,0.000000e+00,-1.875000e-02,
401,-1.250000e-01,-6.250000e-03,
402,0.000000e+00,0.000000e+00,
403,-1.875000e-01,-1.875000e-02,
404,0.000000e+00,-1.250000e-02,
405,-1.875000e-01,6.250000e-03,
406,0.000000e+00,6.250000e-03,
407,-1.875000e-01,-1.875000e-02,
408,-1.250000e-01,-1.875000e-02,
409,0.000000e+00,0.000000e+00,
410,-1.250000e-01,0.000000e+00,
411,0.000000e+00,-1.875000e-02,
412,-1.250000e-01,-2.500000e-02,
413,0.000000e+00,0.000000e+00,
414,0.000000e+00,-1.875000e-02,
415,-1.875000e-01,0.000000e+00,
416,-1.250000e-01,6.250000e-03,
417,0.000000e+00,-1.250000e-02,
418,0.000000e+00,0.000000e+00,
419,-1.875000e-01,-1.875000e-02,
420,0.000000e+00,-1.875000e-02,
421,-1.875000e-01,0.000000e+00,
422,-1.250000e-01,-6.250000e-03,
423,0.000000e+00,-2.500000e-02,
424,-1.250000e-01,-1.875000e-02,
425,0.000000e+00,0.000000e+00,
426,-1.250000e-01,-1.250000e-02,
427,0.000000e+00,6.250000e-03,
428,-1.250000e-01,6.250000e-03,
429,0.000000e+00,-1.875000e-02,
430,0.000000e+00,0.000000e+00,
431,-1.875000e-01,-1.875000e-02,
432,0.000000e+00,-1.875000e-02,
433,-1.875000e-01,-6.250000e-03,
434,0.000000e+00,-1.875000e-02,
435,-1.875000e-01,0.000000e+00,
436,-1.250000e-01,-1.250000e-02,
437,0.000000e+00,6.250000e-03,
438,-1.250000e-01,6.250000e-03,
439,0.000000e+00,-1.250000e-02,
440,0.000000e+00,0.000000e+00,
441,-1.875000e-01,-1.875000e-02,
442,0.000000e+00,-6.250000e-03,
443,-1.875000e-01,-1.875000e-02,
444,-1.250000e-01,-2.500000e-02,
445,0.000000e+00,6.250000e-03,
446,-1.250000e-01,0.000000e+00,
447,0.000000e+00,-1.875000e-02,
448,-1.250000e-01,-1.250000e-02,
449,0.000000e+00,6.250000e-03,
450,-1.250000e-01,1.250000e-02,
451,0.000000e+00,-1.250000e-02,
452,0.000000e+00,0.000000e+00,
453,-1.875000e-01,-2.500000e-02,
454,-1.250000e-01,-6.250000e-03,
455,0.000000e+00,-2.500000e-02,
456,0.000000e+00,-2.500000e-02,
457,-1.875000e-01,0.000000e+00,
458,0.000000e+00,-1.250000e-02,
459,-1.875000e-01,6.250000e-03,
460,-1.250000e-01,6.250000e-03,
461,0.000000e+00,-6.250000e-03,
462,-1.250000e-01,6.250000e-03,
463,0.000000e+00,-1.875000e-02,
464,0.000000e+00,-6.250000e-03,
465,-1.875000e-01,-2.500000e-02,
466,-1.250000e-01,-2.500000e-02,
467,0.000000e+00,0.000000e+00,
468,-1.250000e-01,-1.250000e-02,
469,0.000000e+00,6.250000e-03,
470,0.000000e+00,1.250000e-02,
471,-1.875000e-01,-6.250000e-03,
472,-1.250000e-01,6.250000e-03,
473,0.000000e+00,-1.875000e-02,
474,0.000000e+00,-6.250000e-03,
475,-1.875000e-01,-2.500000e-02,
476,-1.250000e-01,-2.500000e-02,
477,0.000000e+00,-6.250000e-03,
478,0.000000e+00,-1.250000e-02,
479,-1.875000e-01,1.250000e-02,
480,0.000000e+00,-6.250000e-03,
481,-1.875000e-01,1.250000e-02,
482,-1.250000e-01,6.250000e-03,
483,0.000000e+00,-1.250000e-02,
484,0.000000e+00,0.000000e+00,
485,-1.250000e-01,-1.875000e-02,
486,-1.250000e-01,-6.250000e-03,
487,0.000000e+00,-2.500000e-02,
488,0.000000e+00,-1.875000e-02,
489,-1.875000e-01,0.000000e+00,
490,-1.250000e-01,-1.250000e-02,
491,0.000000e+00,1.250000e-02,
492,0.000000e+00,1.250000e-02,
493,-1.875000e-01,-1.250000e-02,
494,-1.250000e-01,0.000000e+00,
495,0.000000e+00,-1.875000e-02,
496,-1.250000e-01,-6.250000e-03,
497,0.000000e+00,-2.500000e-02,
498,0.000000e+00,-1.875000e-02,
499,-1.875000e-01,0.000000e+00,
500,-1.250000e-01,-1.250000e-02,
501,0.000000e+00,6.250000e-03,
502,0.000000e+00,-6.250000e-03,
503,-1.875000e-01,1.250000e-02,
504,0.000000e+00,0.000000e+00,
505,-1.875000e-01,-2.500000e-02,
506,0.000000e+00,-2.500000e-02,
507,-1.875000e-01,-6.250000e-03,
508,-1.250000e-01,-1.875000e-02,
509,0.000000e+00,0.000000e+00,
510,-1.250000e-01,-1.875000e-02,
511,0.000000e+00,1.250000e-02,
512,0.000000e+00,1.875000e-02,
513,-1.875000e-01,-1.250000e-02,
514,0.000000e+00,0.000000e+00,
515,-1.875000e-01,-1.250000e-02,
516,0.000000e+00,0.000000e+00,
517,-1.875000e-01,-1.875000e-02,
518,-1.250000e-01,-1.875000e-02,
519,0.000000e+00,0.000000e+00,
520,-1.250000e-01,-1.875000e-02,
521,0.000000e+00,6.250000e-03,
522,0.000000e+00,-6.250000e-03,
523,-1.875000e-01,1.250000e-02,
524,-1.250000e-01,6.250000e-03,
525,0.000000e+00,-1.250000e-02,
526,-1.250000e-01,-6.250000e-03,
527,0.000000e+00,-1.875000e-02,
528,-1.250000e-01,-6.250000e-03,
529,0.000000e+00,-2.500000e-02,
530,-1.250000e-01,-1.875000e-02,
531,0.000000e+00,0.000000e+00,
532,-1.250000e-01,-1.250000e-02,
533,0.000000e+00,6.250000e-03,
534,0.000000e+00,6.250000e-03,
535,-1.875000e-01,-1.250000e-02,
536,-1.250000e-01,0.000000e+00,
537,0.000000e+00,-1.875000e-02,
538,0.000000e+00,-6.250000e-03,
539,-1.875000e-01,-1.875000e-02,
540,-1.250000e-01,-1.875000e-02,
541,0.000000e+00,0.000000e+00,
542,0.000000e+00,-1.250000e-02,
543,-1.875000e-01,6.250000e-03,
544,-1.250000e-01,6.250000e-03,
545,0.000000e+00,-1.875000e-02,
546,0.000000e+00,0.000000e+00,
547,-1.875000e-01,-1.875000e-02,
548,-1.250000e-01,-1.875000e-02,
549,0.000000e+00,0.000000e+00,
550,0.000000e+00,0.000000e+00,
551,-1.875000e-01,-1.875000e-02,
552,0.000000e+00,-1.250000e-02,
553,-1.875000e-01,0.000000e+00,
554,-1.250000e-01,-1.250000e-02,
555,0.000000e+00,6.250000e-03,
556,0.000000e+00,-1.250000e-02,
557,-1.875000e-01,0.000000e+00,
558,0.000000e+00,0.000000e+00,
559,-1.875000e-01,-1.875000e-02,
560,0.000000e+00,0.000000e+00,
561,-1.875000e-01,-1.875000e-02,
562,-1.250000e-01,0.000000e+00,
563,0.000000e+00,-1.875000e-02,
564,-1.875000e-01,-1.875000e-02,
565,0.000000e+00,0.000000e+00,
566,-1.250000e-01,0.000000e+00,
567,0.000000e+00,-1.250000e-02,
568,-1.250000e-01,-1.250000e-02,
569,0.000000e+00,6.250000e-03,
570,-1.250000e-01,0.000000e+00,
571,0.000000e+00,-1.875000e-02,
572,-1.250000e-01,-6.250000e-03,
573,0.000000e+00,-1.875000e-02,
574,-1.250000e-01,-1.875000e-02,
575,0.000000e+00,0.000000e+00,
576,0.000000e+00,-1.250000e-02,
577,-1.875000e-01,6.250000e-03,
578,0.000000e+00,-1.875000e-02,
579,-1.875000e-01,1.250000e-02,
580,-1.250000e-01,-1.250000e-02,
581,0.000000e+00,0.000000e+00,
582,-1.250000e-01,-6.250000e-03,
583,0.000000e+00,-2.500000e-02,
584,-1.250000e-01,-1.875000e-02,
585,0.000000e+00,0.000000e+00,
586,-1.250000e-01,-1.250000e-02,
587,0.000000e+00,6.250000e-03,
588,-1.250000e-01,-1.250000e-02,
589,0.000000e+00,6.250000e-03,
590,0.000000e+00,-1.250000e-02,
591,-1.875000e-01,0.000000e+00,
592,0.000000e+00,0.000000e+00,
593,-1.875000e-01,-1.875000e-02,
594,-1.250000e-01,-6.250000e-03,
595,0.000000e+00,-1.875000e-02,
596,0.000000e+00,-1.875000e-02,
597,-1.875000e-01,0.000000e+00,
598,0.000000e+00,-1.250000e-02,
599,-1.875000e-01,6.250000e-03,
600,-1.250000e-01,-1.250000e-02,
601,0.000000e+00,6.250000e-03,
602,0.000000e+00,0.000000e+00,
603,-1.875000e-01,-1.875000e-02,
604,-1.250000e-01,-1.875000e-02,
605,0.000000e+00,0.000000e+00,
606,0.000000e+00,-1.875000e-02,
607,-1.875000e-01,0.000000e+00,
608,-1.250000e-01,-1.250000e-02,
609,0.000000e+00,6.250000e-03,
610,-1.250000e-01,6.250000e-03,
611,0.000000e+00,-1.875000e-02,
612,-1.250000e-01,0.000000e+00,
613,0.000000e+00,-1.875000e-02,
614,-1.250000e-01,-6.250000e-03,
615,0.000000e+00,-2.500000e-02,
616,-1.250000e-01,-1.875000e-02,
617,0.000000e+00,0.000000e+00,
618,-1.250000e-01,6.250000e-03,
619,0.000000e+00,-1.250000e-02,
620,-1.250000e-01,6.250000e-03,
621,0.000000e+00,-1.250000e-02,
622,0.000000e+00,0.000000e+00,
623,-1.875000e-01,-1.875000e-02,
