lab/data/171128/plate2/100Vpp10p50mm30mm40mmX/11.csv

X,CH1,CH2,Start,Increment,
Sequence,Volt,Volt,-1.014000e-04,5.000000e-07,
0,-6.250000e-02,1.875000e-02,
1,3.125000e-02,-1.250000e-02,
2,-6.250000e-02,0.000000e+00,
3,3.125000e-02,-2.500000e-02,
4,-6.250000e-02,-3.125000e-02,
5,3.125000e-02,-6.250000e-03,
6,-6.250000e-02,-1.875000e-02,
7,3.125000e-02,6.250000e-03,
8,-6.250000e-02,0.000000e+00,
9,3.125000e-02,1.250000e-02,
10,-6.250000e-02,1.250000e-02,
11,3.125000e-02,-1.250000e-02,
12,-6.250000e-02,-6.250000e-03,
13,3.125000e-02,-1.875000e-02,
14,-6.250000e-02,-2.500000e-02,
15,3.125000e-02,-1.250000e-02,
16,-6.250000e-02,-1.875000e-02,
17,3.125000e-02,6.250000e-03,
18,-6.250000e-02,0.000000e+00,
19,3.125000e-02,1.875000e-02,
20,-6.250000e-02,1.250000e-02,
21,3.125000e-02,-1.875000e-02,
22,-6.250000e-02,0.000000e+00,
23,3.125000e-02,-1.875000e-02,
24,-6.250000e-02,0.000000e+00,
25,3.125000e-02,-1.875000e-02,
26,-6.250000e-02,6.250000e-03,
27,3.125000e-02,-1.875000e-02,
28,-6.250000e-02,6.250000e-03,
29,3.125000e-02,-1.250000e-02,
30,-6.250000e-02,6.250000e-03,
31,3.125000e-02,-1.250000e-02,
32,-6.250000e-02,6.250000e-03,
33,3.125000e-02,-2.500000e-02,
34,3.125000e-02,-2.500000e-02,
35,-6.250000e-02,-6.250000e-03,
36,-6.250000e-02,-1.875000e-02,
37,3.125000e-02,6.250000e-03,
38,-6.250000e-02,-6.250000e-03,
39,3.125000e-02,6.250000e-03,
40,-6.250000e-02,6.250000e-03,
41,3.125000e-02,-1.250000e-02,
42,-6.250000e-02,0.000000e+00,
43,3.125000e-02,-1.875000e-02,
44,-6.250000e-02,-1.875000e-02,
45,3.125000e-02,-6.250000e-03,
46,-6.250000e-02,-1.875000e-02,
47,3.125000e-02,6.250000e-03,
48,-6.250000e-02,-6.250000e-03,
49,3.125000e-02,1.250000e-02,
50,-6.250000e-02,1.250000e-02,
51,3.125000e-02,-1.250000e-02,
52,-6.250000e-02,0.000000e+00,
53,3.125000e-02,-1.875000e-02,
54,-6.250000e-02,-1.875000e-02,
55,3.125000e-02,0.000000e+00,
56,-6.250000e-02,-1.250000e-02,
57,3.125000e-02,6.250000e-03,
58,-6.250000e-02,6.250000e-03,
59,3.125000e-02,-1.250000e-02,
60,-6.250000e-02,1.250000e-02,
61,3.125000e-02,-1.875000e-02,
62,3.125000e-02,0.000000e+00,
63,-6.250000e-02,-1.875000e-02,
64,-6.250000e-02,-1.875000e-02,
65,3.125000e-02,0.000000e+00,
66,-6.250000e-02,-1.875000e-02,
67,3.125000e-02,0.000000e+00,
68,-6.250000e-02,6.250000e-03,
69,3.125000e-02,-1.250000e-02,
70,-6.250000e-02,-1.250000e-02,
71,3.125000e-02,6.250000e-03,
72,-6.250000e-02,-1.250000e-02,
73,3.125000e-02,0.000000e+00,
74,-6.250000e-02,0.000000e+00,
75,3.125000e-02,-1.875000e-02,
76,-6.250000e-02,-1.250000e-02,
77,3.125000e-02,6.250000e-03,
78,-6.250000e-02,-1.250000e-02,
79,3.125000e-02,6.250000e-03,
80,-6.250000e-02,0.000000e+00,
81,3.125000e-02,-1.875000e-02,
82,-6.250000e-02,-1.875000e-02,
83,3.125000e-02,0.000000e+00,
84,-6.250000e-02,-1.250000e-02,
85,3.125000e-02,6.250000e-03,
86,-6.250000e-02,-6.250000e-03,
87,3.125000e-02,1.250000e-02,
88,3.125000e-02,6.250000e-03,
89,-6.250000e-02,-1.875000e-02,
90,-6.250000e-02,-6.250000e-03,
91,3.125000e-02,-2.500000e-02,
92,0.000000e+00,-1.875000e-02,
93,-6.250000e-02,0.000000e+00,
94,-6.250000e-02,-2.500000e-02,
95,3.125000e-02,6.250000e-03,
96,-6.250000e-02,-6.250000e-03,
97,3.125000e-02,1.250000e-02,
98,-6.250000e-02,6.250000e-03,
99,3.125000e-02,-1.250000e-02,
100,-6.250000e-02,0.000000e+00,
101,3.125000e-02,-2.500000e-02,
102,-6.250000e-02,-2.500000e-02,
103,3.125000e-02,-6.250000e-03,
104,-6.250000e-02,-1.250000e-02,
105,3.125000e-02,6.250000e-03,
106,-6.250000e-02,-6.250000e-03,
107,3.125000e-02,1.250000e-02,
108,3.125000e-02,1.250000e-02,
109,-6.250000e-02,-1.250000e-02,
110,-6.250000e-02,0.000000e+00,
111,3.125000e-02,-2.500000e-02,
112,3.125000e-02,-2.500000e-02,
113,-6.250000e-02,0.000000e+00,
114,-6.250000e-02,-1.250000e-02,
115,3.125000e-02,0.000000e+00,
116,-6.250000e-02,-1.875000e-02,
117,3.125000e-02,6.250000e-03,
118,-6.250000e-02,-6.250000e-03,
119,3.125000e-02,6.250000e-03,
120,3.125000e-02,1.250000e-02,
121,-6.250000e-02,-1.250000e-02,
122,-6.250000e-02,0.000000e+00,
123,3.125000e-02,-2.500000e-02,
124,-6.250000e-02,-1.875000e-02,
125,3.125000e-02,-6.250000e-03,
126,-6.250000e-02,6.250000e-03,
127,3.125000e-02,-2.500000e-02,
128,-6.250000e-02,6.250000e-03,
129,3.125000e-02,-1.250000e-02,
130,-6.250000e-02,1.250000e-02,
131,3.125000e-02,-1.250000e-02,
132,-6.250000e-02,0.000000e+00,
133,3.125000e-02,-1.875000e-02,
134,-6.250000e-02,0.000000e+00,
135,3.125000e-02,-1.875000e-02,
136,-6.250000e-02,-1.250000e-02,
137,3.125000e-02,6.250000e-03,
138,3.125000e-02,6.250000e-03,
139,-6.250000e-02,-1.250000e-02,
140,3.125000e-02,-1.250000e-02,
141,-6.250000e-02,1.250000e-02,
142,-6.250000e-02,6.250000e-03,
143,3.125000e-02,-1.250000e-02,
144,-6.250000e-02,-1.875000e-02,
145,3.125000e-02,-6.250000e-03,
146,-6.250000e-02,-1.875000e-02,
147,3.125000e-02,0.000000e+00,
148,-6.250000e-02,-1.250000e-02,
149,3.125000e-02,6.250000e-03,
150,-6.250000e-02,-1.250000e-02,
151,3.125000e-02,0.000000e+00,
152,-6.250000e-02,-1.250000e-02,
153,3.125000e-02,1.250000e-02,
154,-6.250000e-02,6.250000e-03,
155,3.125000e-02,-1.875000e-02,
156,-6.250000e-02,-6.250000e-03,
157,3.125000e-02,-2.500000e-02,
158,-6.250000e-02,-1.875000e-02,
159,3.125000e-02,0.000000e+00,
160,-6.250000e-02,1.250000e-02,
161,3.125000e-02,-1.875000e-02,
162,-6.250000e-02,-1.250000e-02,
163,3.125000e-02,1.250000e-02,
164,-6.250000e-02,6.250000e-03,
165,3.125000e-02,-1.875000e-02,
166,-6.250000e-02,0.000000e+00,
167,3.125000e-02,-1.875000e-02,
168,-6.250000e-02,-1.875000e-02,
169,3.125000e-02,6.250000e-03,
170,-6.250000e-02,6.250000e-03,
171,3.125000e-02,-1.250000e-02,
172,-6.250000e-02,6.250000e-03,
173,3.125000e-02,-1.250000e-02,
174,-6.250000e-02,-1.250000e-02,
175,3.125000e-02,6.250000e-03,
176,3.125000e-02,6.250000e-03,
177,-6.250000e-02,-1.875000e-02,
178,-6.250000e-02,-1.875000e-02,
179,3.125000e-02,0.000000e+00,
180,-6.250000e-02,-1.250000e-02,
181,3.125000e-02,6.250000e-03,
182,3.125000e-02,-1.250000e-02,
183,-6.250000e-02,6.250000e-03,
184,3.125000e-02,-1.875000e-02,
185,-6.250000e-02,6.250000e-03,
186,-6.250000e-02,0.000000e+00,
187,3.125000e-02,-2.500000e-02,
188,-6.250000e-02,-2.500000e-02,
189,3.125000e-02,0.000000e+00,
190,-6.250000e-02,-1.250000e-02,
191,3.125000e-02,1.250000e-02,
192,-6.250000e-02,1.250000e-02,
193,3.125000e-02,-1.250000e-02,
194,-6.250000e-02,-1.875000e-02,
195,7.500000e-01,1.250000e-02,
196,7.187500e-01,-2.500000e-02,
197,1.031250e+00,-6.250000e-03,
198,8.750000e-01,-1.875000e-02,
199,-2.500000e-01,6.250000e-03,
200,-2.187500e-01,-6.250000e-03,
201,-1.062500e+00,1.250000e-02,
202,-1.093750e+00,1.250000e-02,
203,-3.750000e-01,-1.250000e-02,
204,-4.375000e-01,0.000000e+00,
205,7.500000e-01,-1.875000e-02,
206,7.500000e-01,-1.875000e-02,
207,1.031250e+00,-6.250000e-03,
208,8.750000e-01,-1.875000e-02,
209,-2.500000e-01,6.250000e-03,
210,-2.187500e-01,-6.250000e-03,
211,-1.093750e+00,1.250000e-02,
212,-1.093750e+00,1.250000e-02,
213,-3.750000e-01,-1.250000e-02,
214,-4.375000e-01,0.000000e+00,
215,7.812500e-01,-1.875000e-02,
216,7.187500e-01,-6.250000e-03,
217,1.031250e+00,-2.500000e-02,
218,8.750000e-01,-2.500000e-02,
219,-2.500000e-01,6.250000e-03,
220,-2.187500e-01,-1.250000e-02,
221,-1.062500e+00,1.250000e-02,
222,-1.093750e+00,-6.250000e-03,
223,-4.062500e-01,1.250000e-02,
224,-4.687500e-01,1.250000e-02,
225,7.812500e-01,-1.250000e-02,
226,7.187500e-01,-6.250000e-03,
227,1.031250e+00,-3.125000e-02,
228,8.750000e-01,-3.125000e-02,
229,-2.500000e-01,0.000000e+00,
230,-2.187500e-01,-1.250000e-02,
231,-1.062500e+00,1.250000e-02,
232,-1.093750e+00,1.250000e-02,
233,-4.062500e-01,0.000000e+00,
234,-4.375000e-01,1.250000e-02,
235,7.812500e-01,-1.875000e-02,
236,7.187500e-01,-6.250000e-03,
237,1.031250e+00,-2.500000e-02,
238,8.750000e-01,-2.500000e-02,
239,-2.500000e-01,0.000000e+00,
240,-2.187500e-01,-1.250000e-02,
241,-1.062500e+00,1.250000e-02,
242,-1.062500e+00,1.250000e-02,
243,-4.062500e-01,-6.250000e-03,
244,-4.375000e-01,6.250000e-03,
245,7.812500e-01,-1.875000e-02,
246,7.187500e-01,-6.250000e-03,
247,1.031250e+00,-2.500000e-02,
248,8.750000e-01,-2.500000e-02,
249,-2.812500e-01,0.000000e+00,
250,-2.187500e-01,-1.250000e-02,
251,-1.062500e+00,6.250000e-03,
252,-1.093750e+00,-1.250000e-02,
253,-4.062500e-01,1.875000e-02,
254,-4.375000e-01,1.250000e-02,
255,7.500000e-01,-1.250000e-02,
256,7.187500e-01,0.000000e+00,
257,1.031250e+00,-3.125000e-02,
258,8.750000e-01,-3.125000e-02,
259,-2.812500e-01,-6.250000e-03,
260,-2.187500e-01,-1.875000e-02,
261,-1.062500e+00,1.250000e-02,
262,-1.093750e+00,1.875000e-02,
263,-4.062500e-01,0.000000e+00,
264,-4.375000e-01,1.875000e-02,
265,7.500000e-01,-1.875000e-02,
266,7.500000e-01,-6.250000e-03,
267,1.031250e+00,-3.750000e-02,
268,8.750000e-01,-3.750000e-02,
269,-2.500000e-01,-1.250000e-02,
270,-2.187500e-01,-1.875000e-02,
271,-1.062500e+00,1.875000e-02,
272,-1.093750e+00,2.500000e-02,
273,-4.062500e-01,0.000000e+00,
274,-4.375000e-01,1.250000e-02,
275,7.500000e-01,-1.875000e-02,
276,7.187500e-01,-6.250000e-03,
277,1.031250e+00,-2.500000e-02,
278,8.750000e-01,-1.250000e-02,
279,-2.500000e-01,-3.750000e-02,
280,-2.187500e-01,-2.500000e-02,
281,-1.062500e+00,2.500000e-02,
282,-1.062500e+00,2.500000e-02,
283,-4.062500e-01,-6.250000e-03,
284,-4.375000e-01,6.250000e-03,
285,7.500000e-01,-1.250000e-02,
286,7.187500e-01,6.250000e-03,
287,1.031250e+00,-2.500000e-02,
288,8.750000e-01,-1.875000e-02,
289,-2.500000e-01,-3.750000e-02,
290,-2.187500e-01,-3.125000e-02,
291,-1.062500e+00,1.250000e-02,
292,-1.093750e+00,0.000000e+00,
293,-4.062500e-01,2.500000e-02,
294,-4.375000e-01,2.500000e-02,
295,3.125000e-02,-1.250000e-02,
296,-6.250000e-02,-6.250000e-03,
297,3.125000e-02,-3.125000e-02,
298,-6.250000e-02,-3.125000e-02,
299,3.125000e-02,-1.250000e-02,
300,-6.250000e-02,-2.500000e-02,
301,3.125000e-02,1.250000e-02,
302,-6.250000e-02,6.250000e-03,
303,3.125000e-02,2.500000e-02,
304,-6.250000e-02,1.875000e-02,
305,3.125000e-02,-1.250000e-02,
306,3.125000e-02,-6.250000e-03,
307,-6.250000e-02,-3.125000e-02,
308,-6.250000e-02,-3.125000e-02,
309,3.125000e-02,-1.250000e-02,
310,3.125000e-02,-2.500000e-02,
311,-6.250000e-02,1.250000e-02,
312,-6.250000e-02,0.000000e+00,
313,3.125000e-02,1.875000e-02,
314,-6.250000e-02,1.250000e-02,
315,3.125000e-02,-6.250000e-03,
316,-6.250000e-02,0.000000e+00,
317,3.125000e-02,-2.500000e-02,
318,-6.250000e-02,-3.125000e-02,
319,3.125000e-02,-6.250000e-03,
320,-6.250000e-02,-1.875000e-02,
321,3.125000e-02,1.250000e-02,
322,-6.250000e-02,0.000000e+00,
323,3.125000e-02,1.250000e-02,
324,3.125000e-02,1.250000e-02,
325,-6.250000e-02,-1.250000e-02,
326,-6.250000e-02,0.000000e+00,
327,3.125000e-02,-2.500000e-02,
328,-6.250000e-02,-1.250000e-02,
329,3.125000e-02,-3.125000e-02,
330,-6.250000e-02,-2.500000e-02,
331,3.125000e-02,6.250000e-03,
332,-6.250000e-02,-1.250000e-02,
333,3.125000e-02,1.875000e-02,
334,-6.250000e-02,1.875000e-02,
335,3.125000e-02,-1.250000e-02,
336,-6.250000e-02,0.000000e+00,
337,3.125000e-02,-2.500000e-02,
338,-6.250000e-02,-1.250000e-02,
339,3.125000e-02,-3.125000e-02,
340,-6.250000e-02,-2.500000e-02,
341,3.125000e-02,0.000000e+00,
342,-6.250000e-02,-1.250000e-02,
343,3.125000e-02,1.875000e-02,
344,-6.250000e-02,2.500000e-02,
345,3.125000e-02,-6.250000e-03,
346,-6.250000e-02,6.250000e-03,
347,3.125000e-02,-3.750000e-02,
348,-6.250000e-02,-3.750000e-02,
349,3.125000e-02,-6.250000e-03,
350,-6.250000e-02,-1.250000e-02,
351,3.125000e-02,6.250000e-03,
352,3.125000e-02,-1.250000e-02,
353,-6.250000e-02,6.250000e-03,
354,-6.250000e-02,6.250000e-03,
355,3.125000e-02,-1.250000e-02,
356,-6.250000e-02,0.000000e+00,
357,3.125000e-02,-1.875000e-02,
358,-6.250000e-02,-1.875000e-02,
359,3.125000e-02,0.000000e+00,
360,-6.250000e-02,-1.875000e-02,
361,3.125000e-02,6.250000e-03,
362,-6.250000e-02,-1.250000e-02,
363,3.125000e-02,0.000000e+00,
364,-6.250000e-02,-1.875000e-02,
365,3.125000e-02,6.250000e-03,
366,-6.250000e-02,-1.250000e-02,
367,3.125000e-02,6.250000e-03,
368,-6.250000e-02,6.250000e-03,
369,3.125000e-02,-1.250000e-02,
370,-6.250000e-02,-1.875000e-02,
371,3.125000e-02,0.000000e+00,
372,-6.250000e-02,-1.875000e-02,
373,3.125000e-02,0.000000e+00,
374,-6.250000e-02,-1.250000e-02,
375,3.125000e-02,6.250000e-03,
376,-6.250000e-02,6.250000e-03,
377,3.125000e-02,-1.250000e-02,
378,-6.250000e-02,6.250000e-03,
379,3.125000e-02,-1.250000e-02,
380,3.125000e-02,6.250000e-03,
381,-6.250000e-02,-2.500000e-02,
382,-6.250000e-02,-2.500000e-02,
383,3.125000e-02,-6.250000e-03,
384,-6.250000e-02,0.000000e+00,
385,3.125000e-02,-1.875000e-02,
386,3.125000e-02,-1.250000e-02,
387,-6.250000e-02,6.250000e-03,
388,-6.250000e-02,6.250000e-03,
389,3.125000e-02,-1.250000e-02,
390,-6.250000e-02,6.250000e-03,
391,3.125000e-02,-1.875000e-02,
392,-6.250000e-02,-1.875000e-02,
393,3.125000e-02,-6.250000e-03,
394,-6.250000e-02,0.000000e+00,
395,3.125000e-02,-2.500000e-02,
396,-6.250000e-02,-1.875000e-02,
397,3.125000e-02,6.250000e-03,
398,-6.250000e-02,-6.250000e-03,
399,3.125000e-02,1.250000e-02,
400,-6.250000e-02,6.250000e-03,
401,3.125000e-02,-1.875000e-02,
402,-6.250000e-02,-6.250000e-03,
403,3.125000e-02,-2.500000e-02,
404,-6.250000e-02,-2.500000e-02,
405,3.125000e-02,0.000000e+00,
406,-6.250000e-02,-1.250000e-02,
407,3.125000e-02,6.250000e-03,
408,-6.250000e-02,-6.250000e-03,
409,3.125000e-02,1.250000e-02,
410,-6.250000e-02,6.250000e-03,
411,3.125000e-02,-1.875000e-02,
412,-6.250000e-02,-1.875000e-02,
413,3.125000e-02,-6.250000e-03,
414,-6.250000e-02,-1.875000e-02,
415,3.125000e-02,-6.250000e-03,
416,3.125000e-02,-1.875000e-02,
417,-6.250000e-02,6.250000e-03,
418,-6.250000e-02,-6.250000e-03,
419,3.125000e-02,1.250000e-02,
420,-6.250000e-02,1.250000e-02,
421,3.125000e-02,-1.875000e-02,
422,-6.250000e-02,-6.250000e-03,
423,3.125000e-02,-2.500000e-02,
424,-6.250000e-02,-2.500000e-02,
425,3.125000e-02,0.000000e+00,
426,-6.250000e-02,-1.250000e-02,
427,3.125000e-02,1.250000e-02,
428,3.125000e-02,-6.250000e-03,
429,-6.250000e-02,1.250000e-02,
430,-6.250000e-02,6.250000e-03,
431,3.125000e-02,-1.250000e-02,
432,-6.250000e-02,0.000000e+00,
433,3.125000e-02,-3.125000e-02,
434,-6.250000e-02,-2.500000e-02,
435,3.125000e-02,0.000000e+00,
436,-6.250000e-02,-1.250000e-02,
437,3.125000e-02,6.250000e-03,
438,-6.250000e-02,-6.250000e-03,
439,3.125000e-02,1.250000e-02,
440,-6.250000e-02,6.250000e-03,
441,3.125000e-02,-1.250000e-02,
442,-6.250000e-02,0.000000e+00,
443,3.125000e-02,-2.500000e-02,
444,-6.250000e-02,-1.250000e-02,
445,3.125000e-02,-2.500000e-02,
446,-6.250000e-02,-1.875000e-02,
447,3.125000e-02,1.250000e-02,
448,-6.250000e-02,-6.250000e-03,
449,3.125000e-02,1.250000e-02,
450,-6.250000e-02,6.250000e-03,
451,3.125000e-02,-1.250000e-02,
452,-6.250000e-02,6.250000e-03,
453,3.125000e-02,-1.875000e-02,
454,3.125000e-02,-6.250000e-03,
455,-6.250000e-02,-2.500000e-02,
456,-6.250000e-02,-2.500000e-02,
457,3.125000e-02,0.000000e+00,
458,-6.250000e-02,-1.250000e-02,
459,3.125000e-02,1.250000e-02,
460,3.125000e-02,1.250000e-02,
461,-6.250000e-02,-1.250000e-02,
462,-6.250000e-02,0.000000e+00,
463,3.125000e-02,-2.500000e-02,
464,-6.250000e-02,-2.500000e-02,
465,3.125000e-02,-6.250000e-03,
466,3.125000e-02,-1.875000e-02,
467,-6.250000e-02,0.000000e+00,
468,-6.250000e-02,-1.250000e-02,
469,3.125000e-02,6.250000e-03,
470,-6.250000e-02,1.250000e-02,
471,3.125000e-02,-6.250000e-03,
472,-6.250000e-02,6.250000e-03,
473,3.125000e-02,-1.875000e-02,
474,-6.250000e-02,-1.875000e-02,
475,3.125000e-02,-6.250000e-03,
476,-6.250000e-02,-1.875000e-02,
477,3.125000e-02,0.000000e+00,
478,-6.250000e-02,-1.250000e-02,
479,3.125000e-02,6.250000e-03,
480,-6.250000e-02,6.250000e-03,
481,3.125000e-02,-1.250000e-02,
482,-6.250000e-02,6.250000e-03,
483,3.125000e-02,-1.250000e-02,
484,-6.250000e-02,0.000000e+00,
485,3.125000e-02,-1.875000e-02,
486,3.125000e-02,-1.250000e-02,
487,-6.250000e-02,6.250000e-03,
488,-6.250000e-02,0.000000e+00,
489,3.125000e-02,-1.875000e-02,
490,-6.250000e-02,-1.250000e-02,
491,3.125000e-02,6.250000e-03,
492,-6.250000e-02,6.250000e-03,
493,3.125000e-02,-1.250000e-02,
494,-6.250000e-02,-1.250000e-02,
495,3.125000e-02,1.250000e-02,
496,3.125000e-02,6.250000e-03,
497,-6.250000e-02,-1.875000e-02,
498,-6.250000e-02,-1.875000e-02,
499,3.125000e-02,6.250000e-03,
500,3.125000e-02,0.000000e+00,
501,-6.250000e-02,-1.250000e-02,
502,-6.250000e-02,-1.250000e-02,
503,3.125000e-02,6.250000e-03,
504,-6.250000e-02,-1.250000e-02,
505,3.125000e-02,1.250000e-02,
506,-6.250000e-02,6.250000e-03,
507,3.125000e-02,-1.250000e-02,
508,-6.250000e-02,0.000000e+00,
509,3.125000e-02,-1.875000e-02,
510,-6.250000e-02,-1.875000e-02,
511,3.125000e-02,-6.250000e-03,
512,-6.250000e-02,-1.875000e-02,
513,3.125000e-02,6.250000e-03,
514,-6.250000e-02,-6.250000e-03,
515,3.125000e-02,1.250000e-02,
516,-6.250000e-02,1.250000e-02,
517,3.125000e-02,-6.250000e-03,
518,-6.250000e-02,6.250000e-03,
519,3.125000e-02,-2.500000e-02,
520,3.125000e-02,-2.500000e-02,
521,-6.250000e-02,-6.250000e-03,
522,3.125000e-02,0.000000e+00,
523,-6.250000e-02,-1.875000e-02,
524,3.125000e-02,-1.875000e-02,
525,-6.250000e-02,1.875000e-02,
526,-6.250000e-02,1.875000e-02,
527,3.125000e-02,-1.250000e-02,
528,-6.250000e-02,6.250000e-03,
529,3.125000e-02,-3.125000e-02,
530,-6.250000e-02,-1.875000e-02,
531,3.125000e-02,0.000000e+00,
532,-6.250000e-02,-1.875000e-02,
533,3.125000e-02,0.000000e+00,
534,-6.250000e-02,-1.250000e-02,
535,3.125000e-02,1.250000e-02,
536,-6.250000e-02,1.250000e-02,
537,3.125000e-02,-6.250000e-03,
538,-6.250000e-02,6.250000e-03,
539,3.125000e-02,-1.875000e-02,
540,-6.250000e-02,-6.250000e-03,
541,3.125000e-02,-3.125000e-02,
542,-6.250000e-02,-2.500000e-02,
543,3.125000e-02,6.250000e-03,
544,3.125000e-02,-1.250000e-02,
545,-6.250000e-02,6.250000e-03,
546,-6.250000e-02,0.000000e+00,
547,3.125000e-02,1.250000e-02,
548,-6.250000e-02,1.250000e-02,
549,3.125000e-02,-2.500000e-02,
550,3.125000e-02,-2.500000e-02,
551,-6.250000e-02,-6.250000e-03,
552,0.000000e+00,-1.875000e-02,
553,-6.250000e-02,0.000000e+00,
554,-6.250000e-02,-1.875000e-02,
555,3.125000e-02,6.250000e-03,
556,-6.250000e-02,-6.250000e-03,
557,3.125000e-02,1.250000e-02,
558,-6.250000e-02,1.250000e-02,
559,3.125000e-02,-1.250000e-02,
560,-6.250000e-02,0.000000e+00,
561,3.125000e-02,-3.125000e-02,
562,-6.250000e-02,-3.125000e-02,
563,3.125000e-02,0.000000e+00,
564,-6.250000e-02,6.250000e-03,
565,3.125000e-02,-1.250000e-02,
566,3.125000e-02,6.250000e-03,
567,-6.250000e-02,-1.250000e-02,
568,-6.250000e-02,6.250000e-03,
569,3.125000e-02,-1.250000e-02,
570,-6.250000e-02,0.000000e+00,
571,3.125000e-02,-1.875000e-02,
572,-6.250000e-02,-6.250000e-03,
573,3.125000e-02,-2.500000e-02,
574,-6.250000e-02,-1.875000e-02,
575,3.125000e-02,6.250000e-03,
576,0.000000e+00,6.250000e-03,
577,-6.250000e-02,-6.250000e-03,
578,3.125000e-02,1.250000e-02,
579,-6.250000e-02,-1.250000e-02,
580,-6.250000e-02,6.250000e-03,
581,3.125000e-02,-1.875000e-02,
582,-6.250000e-02,-6.250000e-03,
583,3.125000e-02,-2.500000e-02,
584,-6.250000e-02,-1.875000e-02,
585,3.125000e-02,0.000000e+00,
586,-6.250000e-02,-1.250000e-02,
587,3.125000e-02,6.250000e-03,
588,3.125000e-02,-6.250000e-03,
589,-6.250000e-02,6.250000e-03,
590,-6.250000e-02,6.250000e-03,
591,3.125000e-02,-2.500000e-02,
592,-6.250000e-02,-2.500000e-02,
593,3.125000e-02,-6.250000e-03,
594,0.000000e+00,-1.875000e-02,
595,-9.375000e-02,6.250000e-03,
596,-6.250000e-02,-1.875000e-02,
597,3.125000e-02,6.250000e-03,
598,-6.250000e-02,6.250000e-03,
599,3.125000e-02,-1.250000e-02,
600,-6.250000e-02,6.250000e-03,
601,3.125000e-02,-1.875000e-02,
602,-6.250000e-02,-1.875000e-02,
603,3.125000e-02,0.000000e+00,
604,-6.250000e-02,-1.875000e-02,
605,3.125000e-02,6.250000e-03,
606,-6.250000e-02,-1.250000e-02,
607,3.125000e-02,6.250000e-03,
608,-6.250000e-02,1.250000e-02,
609,3.125000e-02,-1.250000e-02,
610,-6.250000e-02,-1.250000e-02,
611,3.125000e-02,6.250000e-03,
612,3.125000e-02,-1.875000e-02,
613,-6.250000e-02,0.000000e+00,
614,-6.250000e-02,0.000000e+00,
615,3.125000e-02,-2.500000e-02,
616,3.125000e-02,-1.875000e-02,
617,-6.250000e-02,6.250000e-03,
618,-6.250000e-02,-6.250000e-03,
619,3.125000e-02,1.875000e-02,
620,-6.250000e-02,6.250000e-03,
621,3.125000e-02,-1.875000e-02,
622,-6.250000e-02,0.000000e+00,
623,3.125000e-02,-1.875000e-02,
