lab/data/171128/plate2/10p50mm20mm45mmX/14.csv

X,CH1,CH2,Start,Increment,
Sequence,Volt,Volt,-1.014000e-04,5.000000e-07,
0,-6.250000e-02,-1.250000e-02,
1,3.125000e-02,1.250000e-02,
2,-6.250000e-02,6.250000e-03,
3,3.125000e-02,-1.250000e-02,
4,-6.250000e-02,-1.875000e-02,
5,3.125000e-02,0.000000e+00,
6,-6.250000e-02,-1.875000e-02,
7,3.125000e-02,1.250000e-02,
8,-6.250000e-02,1.250000e-02,
9,3.125000e-02,-1.250000e-02,
10,3.125000e-02,-1.250000e-02,
11,-6.250000e-02,1.250000e-02,
12,-6.250000e-02,6.250000e-03,
13,3.125000e-02,-2.500000e-02,
14,-6.250000e-02,-2.500000e-02,
15,3.125000e-02,1.250000e-02,
16,3.125000e-02,1.250000e-02,
17,-6.250000e-02,-1.250000e-02,
18,-6.250000e-02,-1.250000e-02,
19,3.125000e-02,0.000000e+00,
20,-6.250000e-02,-1.250000e-02,
21,0.000000e+00,6.250000e-03,
22,-6.250000e-02,6.250000e-03,
23,3.125000e-02,-1.875000e-02,
24,-6.250000e-02,-1.250000e-02,
25,3.125000e-02,6.250000e-03,
26,-6.250000e-02,6.250000e-03,
27,3.125000e-02,-1.250000e-02,
28,0.000000e+00,-1.250000e-02,
29,-6.250000e-02,0.000000e+00,
30,-6.250000e-02,-1.250000e-02,
31,3.125000e-02,6.250000e-03,
32,0.000000e+00,-1.250000e-02,
33,-6.250000e-02,6.250000e-03,
34,-6.250000e-02,0.000000e+00,
35,3.125000e-02,-1.875000e-02,
36,-6.250000e-02,-1.875000e-02,
37,3.125000e-02,0.000000e+00,
38,-6.250000e-02,-6.250000e-03,
39,3.125000e-02,6.250000e-03,
40,0.000000e+00,6.250000e-03,
41,-6.250000e-02,-1.875000e-02,
42,-6.250000e-02,-1.250000e-02,
43,3.125000e-02,1.250000e-02,
44,-6.250000e-02,0.000000e+00,
45,3.125000e-02,-2.500000e-02,
46,-6.250000e-02,-1.875000e-02,
47,3.125000e-02,1.250000e-02,
48,-6.250000e-02,1.250000e-02,
49,3.125000e-02,-1.250000e-02,
50,-6.250000e-02,0.000000e+00,
51,3.125000e-02,-1.250000e-02,
52,3.125000e-02,6.250000e-03,
53,-6.250000e-02,-1.875000e-02,
54,-6.250000e-02,-1.875000e-02,
55,3.125000e-02,6.250000e-03,
56,-6.250000e-02,-6.250000e-03,
57,3.125000e-02,1.250000e-02,
58,-6.250000e-02,6.250000e-03,
59,3.125000e-02,-1.250000e-02,
60,-6.250000e-02,0.000000e+00,
61,3.125000e-02,-1.875000e-02,
62,-6.250000e-02,-1.875000e-02,
63,3.125000e-02,0.000000e+00,
64,-6.250000e-02,6.250000e-03,
65,3.125000e-02,-1.250000e-02,
66,0.000000e+00,-1.250000e-02,
67,-6.250000e-02,6.250000e-03,
68,-6.250000e-02,-1.875000e-02,
69,3.125000e-02,6.250000e-03,
70,-6.250000e-02,6.250000e-03,
71,3.125000e-02,-1.875000e-02,
72,-6.250000e-02,-1.875000e-02,
73,3.125000e-02,0.000000e+00,
74,-6.250000e-02,-1.250000e-02,
75,3.125000e-02,1.250000e-02,
76,-6.250000e-02,6.250000e-03,
77,3.125000e-02,-1.875000e-02,
78,-6.250000e-02,-1.875000e-02,
79,3.125000e-02,1.250000e-02,
80,-6.250000e-02,1.250000e-02,
81,3.125000e-02,-6.250000e-03,
82,-6.250000e-02,0.000000e+00,
83,3.125000e-02,-1.875000e-02,
84,-6.250000e-02,-1.875000e-02,
85,3.125000e-02,6.250000e-03,
86,-6.250000e-02,-1.250000e-02,
87,3.125000e-02,6.250000e-03,
88,-6.250000e-02,-6.250000e-03,
89,3.125000e-02,6.250000e-03,
90,-6.250000e-02,6.250000e-03,
91,3.125000e-02,-1.250000e-02,
92,-6.250000e-02,0.000000e+00,
93,3.125000e-02,-2.500000e-02,
94,-6.250000e-02,-2.500000e-02,
95,3.125000e-02,6.250000e-03,
96,-6.250000e-02,-6.250000e-03,
97,3.125000e-02,1.250000e-02,
98,-6.250000e-02,6.250000e-03,
99,3.125000e-02,-1.250000e-02,
100,-6.250000e-02,-1.250000e-02,
101,3.125000e-02,6.250000e-03,
102,-6.250000e-02,6.250000e-03,
103,3.125000e-02,-1.250000e-02,
104,-6.250000e-02,6.250000e-03,
105,3.125000e-02,-1.875000e-02,
106,-6.250000e-02,-1.875000e-02,
107,3.125000e-02,1.250000e-02,
108,-6.250000e-02,1.250000e-02,
109,3.125000e-02,-1.875000e-02,
110,3.125000e-02,-1.875000e-02,
111,-6.250000e-02,0.000000e+00,
112,-6.250000e-02,-1.250000e-02,
113,3.125000e-02,1.250000e-02,
114,-6.250000e-02,1.250000e-02,
115,3.125000e-02,-1.250000e-02,
116,-6.250000e-02,-1.875000e-02,
117,3.125000e-02,0.000000e+00,
118,-6.250000e-02,-1.250000e-02,
119,3.125000e-02,6.250000e-03,
120,-6.250000e-02,-1.875000e-02,
121,3.125000e-02,6.250000e-03,
122,-6.250000e-02,6.250000e-03,
123,3.125000e-02,-1.250000e-02,
124,-6.250000e-02,6.250000e-03,
125,3.125000e-02,-1.875000e-02,
126,-6.250000e-02,-2.500000e-02,
127,3.125000e-02,0.000000e+00,
128,-6.250000e-02,-1.250000e-02,
129,3.125000e-02,6.250000e-03,
130,-6.250000e-02,1.250000e-02,
131,0.000000e+00,-6.250000e-03,
132,3.125000e-02,6.250000e-03,
133,-6.250000e-02,-1.875000e-02,
134,-6.250000e-02,-1.875000e-02,
135,3.125000e-02,6.250000e-03,
136,-6.250000e-02,-1.250000e-02,
137,3.125000e-02,6.250000e-03,
138,-6.250000e-02,-1.250000e-02,
139,3.125000e-02,6.250000e-03,
140,-6.250000e-02,-1.875000e-02,
141,3.125000e-02,6.250000e-03,
142,-6.250000e-02,-1.250000e-02,
143,3.125000e-02,1.250000e-02,
144,-6.250000e-02,1.250000e-02,
145,3.125000e-02,-6.250000e-03,
146,-6.250000e-02,6.250000e-03,
147,3.125000e-02,-1.250000e-02,
148,-6.250000e-02,-1.250000e-02,
149,3.125000e-02,0.000000e+00,
150,3.125000e-02,-1.250000e-02,
151,-6.250000e-02,0.000000e+00,
152,-6.250000e-02,6.250000e-03,
153,3.125000e-02,-1.250000e-02,
154,3.125000e-02,6.250000e-03,
155,-6.250000e-02,-1.250000e-02,
156,-6.250000e-02,0.000000e+00,
157,3.125000e-02,-1.250000e-02,
158,3.125000e-02,-1.250000e-02,
159,-6.250000e-02,6.250000e-03,
160,-6.250000e-02,-6.250000e-03,
161,3.125000e-02,1.875000e-02,
162,-6.250000e-02,6.250000e-03,
163,3.125000e-02,-1.875000e-02,
164,0.000000e+00,-1.875000e-02,
165,-6.250000e-02,6.250000e-03,
166,-6.250000e-02,1.250000e-02,
167,3.125000e-02,-1.250000e-02,
168,0.000000e+00,0.000000e+00,
169,-6.250000e-02,-1.875000e-02,
170,-6.250000e-02,-1.250000e-02,
171,3.125000e-02,6.250000e-03,
172,-6.250000e-02,-1.250000e-02,
173,3.125000e-02,6.250000e-03,
174,-6.250000e-02,-1.250000e-02,
175,3.125000e-02,1.250000e-02,
176,-6.250000e-02,6.250000e-03,
177,3.125000e-02,-1.875000e-02,
178,-6.250000e-02,0.000000e+00,
179,3.125000e-02,-1.875000e-02,
180,-6.250000e-02,-1.875000e-02,
181,3.125000e-02,6.250000e-03,
182,-6.250000e-02,-6.250000e-03,
183,3.125000e-02,6.250000e-03,
184,-6.250000e-02,6.250000e-03,
185,3.125000e-02,-1.250000e-02,
186,-6.250000e-02,6.250000e-03,
187,3.125000e-02,-1.250000e-02,
188,-6.250000e-02,-6.250000e-03,
189,3.125000e-02,-2.500000e-02,
190,0.000000e+00,-1.875000e-02,
191,-6.250000e-02,6.250000e-03,
192,-6.250000e-02,-6.250000e-03,
193,3.125000e-02,1.875000e-02,
194,-6.250000e-02,1.250000e-02,
195,7.500000e-01,-1.250000e-02,
196,7.187500e-01,-1.875000e-02,
197,1.031250e+00,0.000000e+00,
198,9.062500e-01,-1.875000e-02,
199,-2.187500e-01,0.000000e+00,
200,-1.875000e-01,-1.250000e-02,
201,-1.062500e+00,6.250000e-03,
202,-1.093750e+00,-6.250000e-03,
203,-4.375000e-01,1.250000e-02,
204,-4.687500e-01,6.250000e-03,
205,7.500000e-01,-1.250000e-02,
206,6.875000e-01,-1.875000e-02,
207,1.031250e+00,6.250000e-03,
208,9.062500e-01,0.000000e+00,
209,-2.187500e-01,-1.875000e-02,
210,-1.875000e-01,-1.250000e-02,
211,-1.062500e+00,0.000000e+00,
212,-1.093750e+00,-1.250000e-02,
213,-4.062500e-01,6.250000e-03,
214,-4.687500e-01,-6.250000e-03,
215,7.500000e-01,6.250000e-03,
216,6.875000e-01,6.250000e-03,
217,1.031250e+00,-1.250000e-02,
218,8.750000e-01,6.250000e-03,
219,-2.187500e-01,-1.875000e-02,
220,-1.875000e-01,-2.500000e-02,
221,-1.062500e+00,6.250000e-03,
222,-1.093750e+00,6.250000e-03,
223,-4.375000e-01,-1.875000e-02,
224,-4.687500e-01,-1.875000e-02,
225,7.500000e-01,1.250000e-02,
226,7.187500e-01,1.875000e-02,
227,1.031250e+00,-1.250000e-02,
228,9.062500e-01,0.000000e+00,
229,-2.187500e-01,-2.500000e-02,
230,-1.875000e-01,-2.500000e-02,
231,-1.062500e+00,6.250000e-03,
232,-1.062500e+00,6.250000e-03,
233,-4.375000e-01,-1.250000e-02,
234,-4.687500e-01,-1.250000e-02,
235,7.500000e-01,6.250000e-03,
236,7.187500e-01,6.250000e-03,
237,1.031250e+00,-1.250000e-02,
238,9.062500e-01,0.000000e+00,
239,-2.187500e-01,-1.875000e-02,
240,-1.875000e-01,-1.875000e-02,
241,-1.062500e+00,6.250000e-03,
242,-1.093750e+00,-1.250000e-02,
243,-4.062500e-01,6.250000e-03,
244,-4.687500e-01,6.250000e-03,
245,7.500000e-01,-1.875000e-02,
246,7.187500e-01,-1.875000e-02,
247,1.031250e+00,0.000000e+00,
248,9.062500e-01,-1.250000e-02,
249,-2.500000e-01,6.250000e-03,
250,-1.875000e-01,0.000000e+00,
251,-1.062500e+00,-1.875000e-02,
252,-1.093750e+00,-1.250000e-02,
253,-4.375000e-01,1.250000e-02,
254,-4.687500e-01,6.250000e-03,
255,7.500000e-01,-2.500000e-02,
256,7.187500e-01,-2.500000e-02,
257,1.031250e+00,2.500000e-02,
258,8.750000e-01,1.875000e-02,
259,-2.187500e-01,-2.500000e-02,
260,-1.875000e-01,-2.500000e-02,
261,-1.062500e+00,0.000000e+00,
262,-1.093750e+00,-1.250000e-02,
263,-4.375000e-01,1.250000e-02,
264,-4.687500e-01,6.250000e-03,
265,7.500000e-01,-1.250000e-02,
266,6.875000e-01,-1.250000e-02,
267,1.031250e+00,6.250000e-03,
268,8.750000e-01,6.250000e-03,
269,-2.187500e-01,-1.875000e-02,
270,-1.875000e-01,-1.875000e-02,
271,-1.062500e+00,0.000000e+00,
272,-1.093750e+00,-1.250000e-02,
273,-4.375000e-01,1.250000e-02,
274,-4.687500e-01,1.250000e-02,
275,7.500000e-01,-1.250000e-02,
276,7.187500e-01,0.000000e+00,
277,1.031250e+00,-1.875000e-02,
278,9.062500e-01,-1.875000e-02,
279,-2.187500e-01,0.000000e+00,
280,-1.875000e-01,0.000000e+00,
281,-1.062500e+00,-1.875000e-02,
282,-1.062500e+00,0.000000e+00,
283,-4.375000e-01,-1.875000e-02,
284,-4.687500e-01,-1.250000e-02,
285,7.500000e-01,2.500000e-02,
286,7.187500e-01,1.250000e-02,
287,1.031250e+00,-3.750000e-02,
288,9.062500e-01,-3.125000e-02,
289,-2.187500e-01,2.500000e-02,
290,-1.875000e-01,2.500000e-02,
291,-1.062500e+00,-2.500000e-02,
292,-1.093750e+00,-2.500000e-02,
293,-4.062500e-01,0.000000e+00,
294,-4.687500e-01,-1.250000e-02,
295,3.125000e-02,1.250000e-02,
296,3.125000e-02,6.250000e-03,
297,-6.250000e-02,-1.250000e-02,
298,-6.250000e-02,-1.250000e-02,
299,3.125000e-02,6.250000e-03,
300,-6.250000e-02,0.000000e+00,
301,3.125000e-02,-1.875000e-02,
302,-6.250000e-02,0.000000e+00,
303,3.125000e-02,-2.500000e-02,
304,-6.250000e-02,-1.875000e-02,
305,3.125000e-02,6.250000e-03,
306,0.000000e+00,6.250000e-03,
307,-6.250000e-02,-1.250000e-02,
308,-6.250000e-02,-2.500000e-02,
309,3.125000e-02,6.250000e-03,
310,-6.250000e-02,-1.250000e-02,
311,3.125000e-02,6.250000e-03,
312,0.000000e+00,0.000000e+00,
313,-6.250000e-02,-1.875000e-02,
314,-6.250000e-02,-1.250000e-02,
315,3.125000e-02,6.250000e-03,
316,-6.250000e-02,-1.250000e-02,
317,3.125000e-02,1.250000e-02,
318,-6.250000e-02,6.250000e-03,
319,3.125000e-02,-1.875000e-02,
320,-6.250000e-02,-1.875000e-02,
321,3.125000e-02,1.875000e-02,
322,-6.250000e-02,1.250000e-02,
323,3.125000e-02,-2.500000e-02,
324,-6.250000e-02,-2.500000e-02,
325,3.125000e-02,0.000000e+00,
326,-6.250000e-02,-1.250000e-02,
327,3.125000e-02,1.250000e-02,
328,-6.250000e-02,6.250000e-03,
329,3.125000e-02,-1.250000e-02,
330,-6.250000e-02,-1.250000e-02,
331,3.125000e-02,0.000000e+00,
332,-6.250000e-02,0.000000e+00,
333,3.125000e-02,-1.875000e-02,
334,-6.250000e-02,-1.875000e-02,
335,3.125000e-02,0.000000e+00,
336,-6.250000e-02,-1.250000e-02,
337,3.125000e-02,6.250000e-03,
338,-6.250000e-02,1.250000e-02,
339,3.125000e-02,-1.250000e-02,
340,-6.250000e-02,0.000000e+00,
341,3.125000e-02,-2.500000e-02,
342,-6.250000e-02,-2.500000e-02,
343,3.125000e-02,-6.250000e-03,
344,-6.250000e-02,-1.875000e-02,
345,3.125000e-02,6.250000e-03,
346,-6.250000e-02,-6.250000e-03,
347,3.125000e-02,1.250000e-02,
348,-6.250000e-02,1.250000e-02,
349,3.125000e-02,-6.250000e-03,
350,-6.250000e-02,0.000000e+00,
351,3.125000e-02,-2.500000e-02,
352,0.000000e+00,-2.500000e-02,
353,-6.250000e-02,6.250000e-03,
354,-6.250000e-02,6.250000e-03,
355,3.125000e-02,-1.875000e-02,
356,-6.250000e-02,-1.875000e-02,
357,3.125000e-02,6.250000e-03,
358,-6.250000e-02,6.250000e-03,
359,3.125000e-02,-6.250000e-03,
360,-6.250000e-02,-1.250000e-02,
361,3.125000e-02,6.250000e-03,
362,-6.250000e-02,6.250000e-03,
363,3.125000e-02,-1.875000e-02,
364,-6.250000e-02,-1.250000e-02,
365,3.125000e-02,-3.125000e-02,
366,-6.250000e-02,-1.875000e-02,
367,3.125000e-02,6.250000e-03,
368,-6.250000e-02,-6.250000e-03,
369,3.125000e-02,1.250000e-02,
370,-6.250000e-02,6.250000e-03,
371,3.125000e-02,-1.250000e-02,
372,-6.250000e-02,0.000000e+00,
373,3.125000e-02,-2.500000e-02,
374,-6.250000e-02,-3.750000e-02,
375,3.125000e-02,-6.250000e-03,
376,-6.250000e-02,-1.875000e-02,
377,3.125000e-02,1.250000e-02,
378,-6.250000e-02,1.250000e-02,
379,3.125000e-02,-6.250000e-03,
380,0.000000e+00,6.250000e-03,
381,-6.250000e-02,-1.875000e-02,
382,-6.250000e-02,-1.875000e-02,
383,3.125000e-02,0.000000e+00,
384,-6.250000e-02,-1.875000e-02,
385,3.125000e-02,0.000000e+00,
386,0.000000e+00,-1.875000e-02,
387,-6.250000e-02,6.250000e-03,
388,0.000000e+00,-6.250000e-03,
389,-6.250000e-02,1.250000e-02,
390,-6.250000e-02,6.250000e-03,
391,3.125000e-02,-1.875000e-02,
392,-6.250000e-02,-1.875000e-02,
393,3.125000e-02,0.000000e+00,
394,-6.250000e-02,-6.250000e-03,
395,3.125000e-02,-2.500000e-02,
396,3.125000e-02,-2.500000e-02,
397,-6.250000e-02,0.000000e+00,
398,-6.250000e-02,-6.250000e-03,
399,3.125000e-02,1.250000e-02,
400,-6.250000e-02,1.250000e-02,
401,3.125000e-02,-1.875000e-02,
402,-6.250000e-02,-1.875000e-02,
403,3.125000e-02,0.000000e+00,
404,-6.250000e-02,-1.875000e-02,
405,3.125000e-02,0.000000e+00,
406,-6.250000e-02,-1.875000e-02,
407,3.125000e-02,6.250000e-03,
408,-6.250000e-02,-1.250000e-02,
409,3.125000e-02,6.250000e-03,
410,-6.250000e-02,6.250000e-03,
411,3.125000e-02,-1.250000e-02,
412,-6.250000e-02,-1.250000e-02,
413,3.125000e-02,6.250000e-03,
414,-6.250000e-02,6.250000e-03,
415,3.125000e-02,-1.875000e-02,
416,-6.250000e-02,-2.500000e-02,
417,3.125000e-02,6.250000e-03,
418,-6.250000e-02,-1.250000e-02,
419,3.125000e-02,1.250000e-02,
420,-6.250000e-02,1.250000e-02,
421,3.125000e-02,-6.250000e-03,
422,3.125000e-02,6.250000e-03,
423,-6.250000e-02,-1.250000e-02,
424,-6.250000e-02,6.250000e-03,
425,3.125000e-02,-1.875000e-02,
426,-6.250000e-02,-3.125000e-02,
427,3.125000e-02,-6.250000e-03,
428,-6.250000e-02,-1.250000e-02,
429,3.125000e-02,1.250000e-02,
430,3.125000e-02,1.250000e-02,
431,-6.250000e-02,-1.250000e-02,
432,-6.250000e-02,-1.250000e-02,
433,3.125000e-02,6.250000e-03,
434,3.125000e-02,6.250000e-03,
435,-6.250000e-02,-1.875000e-02,
436,-6.250000e-02,-2.500000e-02,
437,3.125000e-02,-6.250000e-03,
438,-6.250000e-02,-1.875000e-02,
439,3.125000e-02,1.250000e-02,
440,-6.250000e-02,1.250000e-02,
441,3.125000e-02,-1.250000e-02,
442,-6.250000e-02,6.250000e-03,
443,3.125000e-02,-1.875000e-02,
444,0.000000e+00,0.000000e+00,
445,-6.250000e-02,-1.875000e-02,
446,-6.250000e-02,-1.875000e-02,
447,3.125000e-02,0.000000e+00,
448,-6.250000e-02,-1.875000e-02,
449,3.125000e-02,6.250000e-03,
450,-6.250000e-02,-6.250000e-03,
451,3.125000e-02,1.250000e-02,
452,-6.250000e-02,1.250000e-02,
453,3.125000e-02,-1.250000e-02,
454,3.125000e-02,0.000000e+00,
455,-6.250000e-02,-1.875000e-02,
456,-6.250000e-02,-6.250000e-03,
457,3.125000e-02,-2.500000e-02,
458,-6.250000e-02,-2.500000e-02,
459,3.125000e-02,6.250000e-03,
460,-6.250000e-02,-6.250000e-03,
461,3.125000e-02,6.250000e-03,
462,-6.250000e-02,6.250000e-03,
463,3.125000e-02,-1.250000e-02,
464,-6.250000e-02,6.250000e-03,
465,3.125000e-02,-1.250000e-02,
466,-6.250000e-02,-6.250000e-03,
467,3.125000e-02,-2.500000e-02,
468,-6.250000e-02,-1.875000e-02,
469,3.125000e-02,6.250000e-03,
470,-6.250000e-02,1.250000e-02,
471,3.125000e-02,-1.250000e-02,
472,-6.250000e-02,-1.875000e-02,
473,3.125000e-02,1.250000e-02,
474,-6.250000e-02,1.875000e-02,
475,3.125000e-02,-1.250000e-02,
476,-6.250000e-02,6.250000e-03,
477,3.125000e-02,-3.125000e-02,
478,-6.250000e-02,-3.125000e-02,
479,3.125000e-02,0.000000e+00,
480,-6.250000e-02,-1.250000e-02,
481,3.125000e-02,6.250000e-03,
482,-6.250000e-02,-6.250000e-03,
483,3.125000e-02,1.250000e-02,
484,-6.250000e-02,1.250000e-02,
485,3.125000e-02,-1.875000e-02,
486,-6.250000e-02,-6.250000e-03,
487,3.125000e-02,-2.500000e-02,
488,-6.250000e-02,-1.875000e-02,
489,3.125000e-02,6.250000e-03,
490,-6.250000e-02,6.250000e-03,
491,3.125000e-02,-1.250000e-02,
492,-6.250000e-02,6.250000e-03,
493,3.125000e-02,-1.875000e-02,
494,-6.250000e-02,-1.875000e-02,
495,3.125000e-02,6.250000e-03,
496,0.000000e+00,6.250000e-03,
497,-6.250000e-02,-2.500000e-02,
498,-6.250000e-02,-2.500000e-02,
499,3.125000e-02,6.250000e-03,
500,-6.250000e-02,6.250000e-03,
501,3.125000e-02,-2.500000e-02,
502,-6.250000e-02,-2.500000e-02,
503,3.125000e-02,1.875000e-02,
504,-6.250000e-02,1.875000e-02,
505,3.125000e-02,-1.875000e-02,
506,-6.250000e-02,-6.250000e-03,
507,3.125000e-02,-2.500000e-02,
508,-6.250000e-02,-1.875000e-02,
509,3.125000e-02,6.250000e-03,
510,-6.250000e-02,6.250000e-03,
511,3.125000e-02,-1.250000e-02,
512,-6.250000e-02,-1.250000e-02,
513,3.125000e-02,1.250000e-02,
514,-6.250000e-02,6.250000e-03,
515,3.125000e-02,-1.875000e-02,
516,-6.250000e-02,0.000000e+00,
517,3.125000e-02,-1.875000e-02,
518,-6.250000e-02,-1.875000e-02,
519,3.125000e-02,6.250000e-03,
520,-6.250000e-02,-1.250000e-02,
521,3.125000e-02,6.250000e-03,
522,0.000000e+00,0.000000e+00,
523,-6.250000e-02,-1.875000e-02,
524,-6.250000e-02,0.000000e+00,
525,3.125000e-02,-1.875000e-02,
526,-6.250000e-02,0.000000e+00,
527,3.125000e-02,-1.875000e-02,
528,-6.250000e-02,0.000000e+00,
529,3.125000e-02,-1.875000e-02,
530,-6.250000e-02,-1.250000e-02,
531,3.125000e-02,1.875000e-02,
532,-6.250000e-02,6.250000e-03,
533,3.125000e-02,-3.125000e-02,
534,-6.250000e-02,-3.125000e-02,
535,3.125000e-02,2.500000e-02,
536,0.000000e+00,2.500000e-02,
537,-6.250000e-02,-1.875000e-02,
538,3.125000e-02,-2.500000e-02,
539,-6.250000e-02,0.000000e+00,
540,-6.250000e-02,-1.250000e-02,
541,3.125000e-02,6.250000e-03,
542,-6.250000e-02,6.250000e-03,
543,3.125000e-02,-2.500000e-02,
544,-6.250000e-02,-1.875000e-02,
545,3.125000e-02,6.250000e-03,
546,-6.250000e-02,6.250000e-03,
547,3.125000e-02,-6.250000e-03,
548,-6.250000e-02,6.250000e-03,
549,3.125000e-02,-1.875000e-02,
550,-6.250000e-02,-1.875000e-02,
551,3.125000e-02,6.250000e-03,
552,-6.250000e-02,6.250000e-03,
553,3.125000e-02,-1.250000e-02,
554,0.000000e+00,0.000000e+00,
555,-6.250000e-02,-2.500000e-02,
556,-6.250000e-02,-1.875000e-02,
557,3.125000e-02,6.250000e-03,
558,-6.250000e-02,6.250000e-03,
559,3.125000e-02,-1.875000e-02,
560,3.125000e-02,-1.875000e-02,
561,-6.250000e-02,0.000000e+00,
562,-6.250000e-02,0.000000e+00,
563,3.125000e-02,-1.875000e-02,
564,-6.250000e-02,-1.875000e-02,
565,3.125000e-02,6.250000e-03,
566,-6.250000e-02,6.250000e-03,
567,3.125000e-02,-6.250000e-03,
568,-6.250000e-02,0.000000e+00,
569,3.125000e-02,-2.500000e-02,
570,-6.250000e-02,-1.875000e-02,
571,3.125000e-02,6.250000e-03,
572,3.125000e-02,-1.250000e-02,
573,-6.250000e-02,6.250000e-03,
574,-6.250000e-02,-1.250000e-02,
575,3.125000e-02,1.250000e-02,
576,3.125000e-02,0.000000e+00,
577,-6.250000e-02,-1.875000e-02,
578,-6.250000e-02,-1.875000e-02,
579,3.125000e-02,0.000000e+00,
580,-6.250000e-02,-6.250000e-03,
581,3.125000e-02,6.250000e-03,
582,-6.250000e-02,6.250000e-03,
583,3.125000e-02,-1.875000e-02,
584,-6.250000e-02,-1.875000e-02,
585,3.125000e-02,0.000000e+00,
586,-6.250000e-02,0.000000e+00,
587,3.125000e-02,-1.875000e-02,
588,-6.250000e-02,-1.250000e-02,
589,3.125000e-02,6.250000e-03,
590,-6.250000e-02,6.250000e-03,
591,3.125000e-02,-1.250000e-02,
592,-6.250000e-02,6.250000e-03,
593,3.125000e-02,-1.250000e-02,
594,-6.250000e-02,6.250000e-03,
595,3.125000e-02,-2.500000e-02,
596,-6.250000e-02,-3.125000e-02,
597,3.125000e-02,0.000000e+00,
598,-6.250000e-02,-1.250000e-02,
599,3.125000e-02,2.500000e-02,
600,0.000000e+00,1.875000e-02,
601,-6.250000e-02,-2.500000e-02,
602,-6.250000e-02,-2.500000e-02,
603,3.125000e-02,0.000000e+00,
604,-6.250000e-02,0.000000e+00,
605,3.125000e-02,-2.500000e-02,
606,-6.250000e-02,-1.875000e-02,
607,3.125000e-02,1.250000e-02,
608,-6.250000e-02,1.250000e-02,
609,3.125000e-02,-1.250000e-02,
610,-6.250000e-02,0.000000e+00,
611,3.125000e-02,-2.500000e-02,
612,-6.250000e-02,-1.875000e-02,
613,3.125000e-02,0.000000e+00,
614,-6.250000e-02,-1.250000e-02,
615,3.125000e-02,6.250000e-03,
616,-6.250000e-02,6.250000e-03,
617,3.125000e-02,-1.875000e-02,
618,-6.250000e-02,-1.875000e-02,
619,3.125000e-02,0.000000e+00,
620,-6.250000e-02,-1.250000e-02,
621,3.125000e-02,6.250000e-03,
622,-6.250000e-02,-6.250000e-03,
623,3.125000e-02,6.250000e-03,
624,3.125000e-02,6.250000e-03,
