lab/data/171128/plate2/100Vpp10pXmm20mm40mm14/040.csv

X,CH1,CH2,Start,Increment,
Sequence,Volt,Volt,-1.014000e-04,5.000000e-07,
0,-6.250000e-02,-1.250000e-02,
1,3.125000e-02,1.250000e-02,
2,-6.250000e-02,-6.250000e-03,
3,3.125000e-02,1.250000e-02,
4,-6.250000e-02,-6.250000e-03,
5,3.125000e-02,1.875000e-02,
6,3.125000e-02,6.250000e-03,
7,-6.250000e-02,-1.875000e-02,
8,-6.250000e-02,0.000000e+00,
9,3.125000e-02,-1.875000e-02,
10,-6.250000e-02,6.250000e-03,
11,3.125000e-02,-1.875000e-02,
12,-6.250000e-02,-1.250000e-02,
13,3.125000e-02,6.250000e-03,
14,0.000000e+00,1.250000e-02,
15,-6.250000e-02,-1.875000e-02,
16,0.000000e+00,-6.250000e-03,
17,-6.250000e-02,-1.875000e-02,
18,-6.250000e-02,0.000000e+00,
19,3.125000e-02,-1.875000e-02,
20,0.000000e+00,-2.500000e-02,
21,-6.250000e-02,6.250000e-03,
22,-6.250000e-02,-1.250000e-02,
23,3.125000e-02,1.250000e-02,
24,-6.250000e-02,1.250000e-02,
25,3.125000e-02,-1.875000e-02,
26,-6.250000e-02,0.000000e+00,
27,3.125000e-02,-2.500000e-02,
28,3.125000e-02,-1.250000e-02,
29,-6.250000e-02,1.250000e-02,
30,-6.250000e-02,0.000000e+00,
31,3.125000e-02,-1.875000e-02,
32,-6.250000e-02,-1.875000e-02,
33,3.125000e-02,6.250000e-03,
34,-6.250000e-02,-6.250000e-03,
35,3.125000e-02,1.875000e-02,
36,-6.250000e-02,1.250000e-02,
37,3.125000e-02,-6.250000e-03,
38,-6.250000e-02,0.000000e+00,
39,3.125000e-02,-1.875000e-02,
40,3.125000e-02,1.250000e-02,
41,-6.250000e-02,-1.875000e-02,
42,-6.250000e-02,0.000000e+00,
43,3.125000e-02,-1.875000e-02,
44,-6.250000e-02,-1.250000e-02,
45,3.125000e-02,1.875000e-02,
46,-6.250000e-02,1.250000e-02,
47,3.125000e-02,-1.250000e-02,
48,-6.250000e-02,-6.250000e-03,
49,3.125000e-02,-2.500000e-02,
50,-6.250000e-02,-1.875000e-02,
51,3.125000e-02,0.000000e+00,
52,3.125000e-02,-1.875000e-02,
53,-6.250000e-02,6.250000e-03,
54,-6.250000e-02,6.250000e-03,
55,3.125000e-02,-1.250000e-02,
56,-6.250000e-02,1.250000e-02,
57,3.125000e-02,-1.250000e-02,
58,-6.250000e-02,6.250000e-03,
59,3.125000e-02,-1.875000e-02,
60,0.000000e+00,-1.875000e-02,
61,-6.250000e-02,0.000000e+00,
62,-6.250000e-02,-1.250000e-02,
63,3.125000e-02,6.250000e-03,
64,-6.250000e-02,6.250000e-03,
65,3.125000e-02,-1.250000e-02,
66,3.125000e-02,1.250000e-02,
67,-6.250000e-02,-1.250000e-02,
68,3.125000e-02,-1.250000e-02,
69,-6.250000e-02,6.250000e-03,
70,-6.250000e-02,6.250000e-03,
71,3.125000e-02,-1.875000e-02,
72,-6.250000e-02,-1.875000e-02,
73,3.125000e-02,6.250000e-03,
74,-6.250000e-02,-1.250000e-02,
75,3.125000e-02,1.250000e-02,
76,-6.250000e-02,-1.875000e-02,
77,3.125000e-02,0.000000e+00,
78,-6.250000e-02,-1.250000e-02,
79,3.125000e-02,1.250000e-02,
80,-6.250000e-02,6.250000e-03,
81,3.125000e-02,-3.125000e-02,
82,-6.250000e-02,-2.500000e-02,
83,3.125000e-02,-6.250000e-03,
84,-6.250000e-02,-1.250000e-02,
85,3.125000e-02,6.250000e-03,
86,-6.250000e-02,-6.250000e-03,
87,3.125000e-02,1.250000e-02,
88,-6.250000e-02,6.250000e-03,
89,3.125000e-02,-1.875000e-02,
90,-6.250000e-02,-2.500000e-02,
91,3.125000e-02,0.000000e+00,
92,-6.250000e-02,-1.250000e-02,
93,3.125000e-02,1.250000e-02,
94,-6.250000e-02,1.250000e-02,
95,3.125000e-02,-6.250000e-03,
96,-6.250000e-02,1.250000e-02,
97,3.125000e-02,-1.250000e-02,
98,3.125000e-02,-1.250000e-02,
99,-6.250000e-02,6.250000e-03,
100,-6.250000e-02,6.250000e-03,
101,3.125000e-02,-1.250000e-02,
102,3.125000e-02,-1.875000e-02,
103,-6.250000e-02,6.250000e-03,
104,-6.250000e-02,-1.250000e-02,
105,3.125000e-02,1.250000e-02,
106,-6.250000e-02,6.250000e-03,
107,3.125000e-02,-1.875000e-02,
108,3.125000e-02,-1.250000e-02,
109,-6.250000e-02,6.250000e-03,
110,-6.250000e-02,6.250000e-03,
111,3.125000e-02,-1.250000e-02,
112,-6.250000e-02,0.000000e+00,
113,3.125000e-02,-3.125000e-02,
114,-6.250000e-02,-2.500000e-02,
115,3.125000e-02,0.000000e+00,
116,3.125000e-02,-1.250000e-02,
117,-6.250000e-02,1.250000e-02,
118,-6.250000e-02,6.250000e-03,
119,3.125000e-02,-1.250000e-02,
120,-6.250000e-02,-1.250000e-02,
121,3.125000e-02,6.250000e-03,
122,-6.250000e-02,0.000000e+00,
123,3.125000e-02,-1.250000e-02,
124,-6.250000e-02,0.000000e+00,
125,3.125000e-02,-1.875000e-02,
126,3.125000e-02,-1.250000e-02,
127,-6.250000e-02,1.250000e-02,
128,-6.250000e-02,1.250000e-02,
129,3.125000e-02,-1.250000e-02,
130,-6.250000e-02,6.250000e-03,
131,3.125000e-02,-1.250000e-02,
132,-6.250000e-02,6.250000e-03,
133,3.125000e-02,-1.875000e-02,
134,-6.250000e-02,-1.875000e-02,
135,3.125000e-02,0.000000e+00,
136,-6.250000e-02,-1.875000e-02,
137,3.125000e-02,1.250000e-02,
138,-6.250000e-02,1.250000e-02,
139,3.125000e-02,-1.250000e-02,
140,-6.250000e-02,6.250000e-03,
141,3.125000e-02,-1.875000e-02,
142,-6.250000e-02,6.250000e-03,
143,3.125000e-02,-1.875000e-02,
144,-6.250000e-02,-1.875000e-02,
145,3.125000e-02,0.000000e+00,
146,-6.250000e-02,6.250000e-03,
147,3.125000e-02,-1.875000e-02,
148,-6.250000e-02,-1.875000e-02,
149,3.125000e-02,0.000000e+00,
150,-6.250000e-02,-1.250000e-02,
151,3.125000e-02,6.250000e-03,
152,-6.250000e-02,-1.250000e-02,
153,3.125000e-02,6.250000e-03,
154,-6.250000e-02,6.250000e-03,
155,3.125000e-02,-1.250000e-02,
156,-6.250000e-02,1.250000e-02,
157,3.125000e-02,-1.250000e-02,
158,-6.250000e-02,6.250000e-03,
159,3.125000e-02,-1.250000e-02,
160,3.125000e-02,-6.250000e-03,
161,-6.250000e-02,1.250000e-02,
162,-6.250000e-02,1.250000e-02,
163,3.125000e-02,-1.250000e-02,
164,-6.250000e-02,6.250000e-03,
165,3.125000e-02,-1.875000e-02,
166,-6.250000e-02,-1.875000e-02,
167,3.125000e-02,0.000000e+00,
168,-6.250000e-02,-1.250000e-02,
169,3.125000e-02,6.250000e-03,
170,-6.250000e-02,-6.250000e-03,
171,3.125000e-02,1.250000e-02,
172,0.000000e+00,1.250000e-02,
173,-6.250000e-02,-1.250000e-02,
174,-6.250000e-02,1.250000e-02,
175,3.125000e-02,-2.500000e-02,
176,-6.250000e-02,-1.875000e-02,
177,3.125000e-02,6.250000e-03,
178,-6.250000e-02,1.250000e-02,
179,3.125000e-02,-1.250000e-02,
180,-6.250000e-02,-1.250000e-02,
181,3.125000e-02,0.000000e+00,
182,-6.250000e-02,-1.250000e-02,
183,3.125000e-02,0.000000e+00,
184,3.125000e-02,-1.250000e-02,
185,-6.250000e-02,6.250000e-03,
186,-6.250000e-02,-1.250000e-02,
187,3.125000e-02,1.250000e-02,
188,-6.250000e-02,1.250000e-02,
189,3.125000e-02,-1.250000e-02,
190,-6.250000e-02,0.000000e+00,
191,3.125000e-02,-1.875000e-02,
192,-6.250000e-02,-1.250000e-02,
193,3.125000e-02,6.250000e-03,
194,-6.250000e-02,1.250000e-02,
195,7.500000e-01,-1.250000e-02,
196,7.187500e-01,-1.250000e-02,
197,1.031250e+00,6.250000e-03,
198,8.750000e-01,0.000000e+00,
199,-2.500000e-01,-1.875000e-02,
200,-2.187500e-01,-2.500000e-02,
201,-1.062500e+00,6.250000e-03,
202,-1.093750e+00,6.250000e-03,
203,-3.750000e-01,-1.250000e-02,
204,-4.687500e-01,-1.875000e-02,
205,7.500000e-01,0.000000e+00,
206,7.500000e-01,-1.250000e-02,
207,1.031250e+00,1.250000e-02,
208,8.750000e-01,6.250000e-03,
209,-2.500000e-01,-3.750000e-02,
210,-2.187500e-01,-3.125000e-02,
211,-1.062500e+00,6.250000e-03,
212,-1.062500e+00,0.000000e+00,
213,-4.062500e-01,2.500000e-02,
214,-4.375000e-01,1.250000e-02,
215,7.500000e-01,-2.500000e-02,
216,7.187500e-01,-3.125000e-02,
217,1.031250e+00,1.250000e-02,
218,8.750000e-01,1.250000e-02,
219,-2.500000e-01,-6.250000e-03,
220,-2.187500e-01,-1.250000e-02,
221,-1.062500e+00,1.250000e-02,
222,-1.062500e+00,1.250000e-02,
223,-3.750000e-01,-6.250000e-03,
224,-4.375000e-01,1.250000e-02,
225,7.812500e-01,-1.250000e-02,
226,7.187500e-01,-1.250000e-02,
227,1.031250e+00,0.000000e+00,
228,8.750000e-01,-1.250000e-02,
229,-2.500000e-01,1.250000e-02,
230,-2.187500e-01,0.000000e+00,
231,-1.062500e+00,-3.125000e-02,
232,-1.062500e+00,-3.125000e-02,
233,-4.062500e-01,6.250000e-03,
234,-4.375000e-01,-1.250000e-02,
235,7.812500e-01,1.250000e-02,
236,7.187500e-01,6.250000e-03,
237,1.031250e+00,-1.250000e-02,
238,8.750000e-01,0.000000e+00,
239,-2.500000e-01,-1.875000e-02,
240,-2.187500e-01,-1.250000e-02,
241,-1.062500e+00,1.250000e-02,
242,-1.062500e+00,6.250000e-03,
243,-4.062500e-01,-1.250000e-02,
244,-4.375000e-01,6.250000e-03,
245,7.812500e-01,-1.250000e-02,
246,7.187500e-01,-6.250000e-03,
247,1.031250e+00,1.250000e-02,
248,8.750000e-01,-1.250000e-02,
249,-2.500000e-01,6.250000e-03,
250,-2.187500e-01,-1.875000e-02,
251,-1.062500e+00,0.000000e+00,
252,-1.093750e+00,6.250000e-03,
253,-4.062500e-01,-1.250000e-02,
254,-4.375000e-01,-6.250000e-03,
255,7.812500e-01,6.250000e-03,
256,7.187500e-01,6.250000e-03,
257,1.031250e+00,-1.875000e-02,
258,8.750000e-01,-6.250000e-03,
259,-2.500000e-01,-1.875000e-02,
260,-2.187500e-01,-1.875000e-02,
261,-1.062500e+00,0.000000e+00,
262,-1.093750e+00,1.250000e-02,
263,-4.062500e-01,-1.250000e-02,
264,-4.375000e-01,0.000000e+00,
265,7.812500e-01,-2.500000e-02,
266,7.187500e-01,-3.125000e-02,
267,1.031250e+00,-6.250000e-03,
268,8.750000e-01,-1.250000e-02,
269,-2.500000e-01,6.250000e-03,
270,-2.187500e-01,-1.875000e-02,
271,-1.062500e+00,6.250000e-03,
272,-1.062500e+00,6.250000e-03,
273,-4.062500e-01,-1.250000e-02,
274,-4.375000e-01,1.250000e-02,
275,7.500000e-01,-1.875000e-02,
276,7.187500e-01,-1.250000e-02,
277,1.031250e+00,6.250000e-03,
278,8.750000e-01,6.250000e-03,
279,-2.500000e-01,-1.250000e-02,
280,-2.187500e-01,6.250000e-03,
281,-1.062500e+00,-1.250000e-02,
282,-1.062500e+00,-1.250000e-02,
283,-3.750000e-01,6.250000e-03,
284,-4.375000e-01,-1.250000e-02,
285,7.500000e-01,6.250000e-03,
286,7.187500e-01,6.250000e-03,
287,1.031250e+00,-1.250000e-02,
288,8.750000e-01,-1.250000e-02,
289,-2.500000e-01,6.250000e-03,
290,-2.187500e-01,6.250000e-03,
291,-1.062500e+00,-1.875000e-02,
292,-1.093750e+00,0.000000e+00,
293,-4.062500e-01,-1.250000e-02,
294,-4.375000e-01,-1.250000e-02,
295,3.125000e-02,6.250000e-03,
296,3.125000e-02,0.000000e+00,
297,-6.250000e-02,-1.875000e-02,
298,-6.250000e-02,-1.875000e-02,
299,3.125000e-02,0.000000e+00,
300,-6.250000e-02,-1.250000e-02,
301,3.125000e-02,6.250000e-03,
302,-6.250000e-02,6.250000e-03,
303,3.125000e-02,-1.250000e-02,
304,-6.250000e-02,-1.250000e-02,
305,3.125000e-02,6.250000e-03,
306,-6.250000e-02,-1.875000e-02,
307,3.125000e-02,1.250000e-02,
308,-6.250000e-02,6.250000e-03,
309,3.125000e-02,-1.250000e-02,
310,-6.250000e-02,6.250000e-03,
311,3.125000e-02,-1.250000e-02,
312,-6.250000e-02,1.250000e-02,
313,3.125000e-02,-1.250000e-02,
314,-6.250000e-02,6.250000e-03,
315,3.125000e-02,-1.875000e-02,
316,-6.250000e-02,0.000000e+00,
317,3.125000e-02,-1.875000e-02,
318,-6.250000e-02,-1.875000e-02,
319,3.125000e-02,0.000000e+00,
320,-6.250000e-02,-1.875000e-02,
321,3.125000e-02,0.000000e+00,
322,-6.250000e-02,-1.875000e-02,
323,3.125000e-02,6.250000e-03,
324,-6.250000e-02,0.000000e+00,
325,3.125000e-02,-1.875000e-02,
326,-6.250000e-02,-6.250000e-03,
327,3.125000e-02,-3.125000e-02,
328,-6.250000e-02,-1.875000e-02,
329,3.125000e-02,1.250000e-02,
330,-6.250000e-02,1.875000e-02,
331,3.125000e-02,-1.250000e-02,
332,-6.250000e-02,0.000000e+00,
333,3.125000e-02,-1.875000e-02,
334,-6.250000e-02,-1.250000e-02,
335,3.125000e-02,6.250000e-03,
336,-6.250000e-02,0.000000e+00,
337,3.125000e-02,-2.500000e-02,
338,-6.250000e-02,-2.500000e-02,
339,3.125000e-02,6.250000e-03,
340,-6.250000e-02,-6.250000e-03,
341,3.125000e-02,2.500000e-02,
342,3.125000e-02,1.250000e-02,
343,-6.250000e-02,-1.250000e-02,
344,-6.250000e-02,-1.250000e-02,
345,3.125000e-02,0.000000e+00,
346,-6.250000e-02,0.000000e+00,
347,3.125000e-02,-1.250000e-02,
348,-6.250000e-02,0.000000e+00,
349,3.125000e-02,-1.875000e-02,
350,-6.250000e-02,-6.250000e-03,
351,3.125000e-02,6.250000e-03,
352,-6.250000e-02,6.250000e-03,
353,3.125000e-02,-2.500000e-02,
354,3.125000e-02,-2.500000e-02,
355,-6.250000e-02,0.000000e+00,
356,-6.250000e-02,-1.250000e-02,
357,3.125000e-02,1.250000e-02,
358,-6.250000e-02,0.000000e+00,
359,3.125000e-02,-1.875000e-02,
360,-6.250000e-02,-1.875000e-02,
361,3.125000e-02,1.250000e-02,
362,-6.250000e-02,6.250000e-03,
363,3.125000e-02,-1.250000e-02,
364,-6.250000e-02,-1.875000e-02,
365,3.125000e-02,1.250000e-02,
366,-6.250000e-02,1.250000e-02,
367,3.125000e-02,-1.875000e-02,
368,-6.250000e-02,-2.500000e-02,
369,3.125000e-02,0.000000e+00,
370,3.125000e-02,-1.250000e-02,
371,-6.250000e-02,1.250000e-02,
372,-6.250000e-02,1.250000e-02,
373,3.125000e-02,-1.250000e-02,
374,-6.250000e-02,6.250000e-03,
375,3.125000e-02,-1.875000e-02,
376,-6.250000e-02,6.250000e-03,
377,3.125000e-02,-1.875000e-02,
378,-6.250000e-02,-6.250000e-03,
379,3.125000e-02,-2.500000e-02,
380,-6.250000e-02,-2.500000e-02,
381,3.125000e-02,6.250000e-03,
382,-6.250000e-02,6.250000e-03,
383,3.125000e-02,-1.250000e-02,
384,-6.250000e-02,-1.250000e-02,
385,3.125000e-02,0.000000e+00,
386,-6.250000e-02,0.000000e+00,
387,3.125000e-02,-3.125000e-02,
388,-6.250000e-02,-2.500000e-02,
389,3.125000e-02,0.000000e+00,
390,-6.250000e-02,-1.250000e-02,
391,3.125000e-02,1.250000e-02,
392,-6.250000e-02,1.875000e-02,
393,3.125000e-02,-1.250000e-02,
394,-6.250000e-02,0.000000e+00,
395,3.125000e-02,-2.500000e-02,
396,-6.250000e-02,-1.875000e-02,
397,3.125000e-02,1.250000e-02,
398,-6.250000e-02,6.250000e-03,
399,3.125000e-02,-2.500000e-02,
400,3.125000e-02,-2.500000e-02,
401,-6.250000e-02,1.250000e-02,
402,-6.250000e-02,1.250000e-02,
403,3.125000e-02,-6.250000e-03,
404,-6.250000e-02,6.250000e-03,
405,3.125000e-02,-1.875000e-02,
406,-6.250000e-02,0.000000e+00,
407,3.125000e-02,-1.875000e-02,
408,3.125000e-02,-2.500000e-02,
409,-6.250000e-02,0.000000e+00,
410,-6.250000e-02,0.000000e+00,
411,3.125000e-02,-1.875000e-02,
412,-6.250000e-02,-1.250000e-02,
413,3.125000e-02,6.250000e-03,
414,-6.250000e-02,6.250000e-03,
415,3.125000e-02,-1.875000e-02,
416,-6.250000e-02,-6.250000e-03,
417,3.125000e-02,-2.500000e-02,
418,3.125000e-02,-6.250000e-03,
419,-6.250000e-02,-2.500000e-02,
420,-6.250000e-02,-1.875000e-02,
421,3.125000e-02,6.250000e-03,
422,-6.250000e-02,-6.250000e-03,
423,3.125000e-02,1.250000e-02,
424,-6.250000e-02,1.250000e-02,
425,3.125000e-02,-1.250000e-02,
426,-6.250000e-02,0.000000e+00,
427,3.125000e-02,-1.875000e-02,
428,-6.250000e-02,-2.500000e-02,
429,3.125000e-02,0.000000e+00,
430,3.125000e-02,-6.250000e-03,
431,-6.250000e-02,1.250000e-02,
432,-6.250000e-02,1.250000e-02,
433,3.125000e-02,-6.250000e-03,
434,-6.250000e-02,6.250000e-03,
435,3.125000e-02,-1.875000e-02,
436,-6.250000e-02,-6.250000e-03,
437,3.125000e-02,-1.875000e-02,
438,-6.250000e-02,-1.875000e-02,
439,3.125000e-02,0.000000e+00,
440,-6.250000e-02,6.250000e-03,
441,3.125000e-02,-1.875000e-02,
442,-6.250000e-02,-1.875000e-02,
443,3.125000e-02,0.000000e+00,
444,-6.250000e-02,-1.875000e-02,
445,3.125000e-02,0.000000e+00,
446,-6.250000e-02,-1.875000e-02,
447,3.125000e-02,0.000000e+00,
448,3.125000e-02,-6.250000e-03,
449,-6.250000e-02,-2.500000e-02,
450,-6.250000e-02,-1.875000e-02,
451,3.125000e-02,6.250000e-03,
452,-6.250000e-02,1.250000e-02,
453,3.125000e-02,-1.250000e-02,
454,-6.250000e-02,0.000000e+00,
455,3.125000e-02,-2.500000e-02,
456,3.125000e-02,-6.250000e-03,
457,-6.250000e-02,1.875000e-02,
458,-6.250000e-02,1.250000e-02,
459,3.125000e-02,-3.125000e-02,
460,-6.250000e-02,-3.125000e-02,
461,3.125000e-02,0.000000e+00,
462,-6.250000e-02,-6.250000e-03,
463,3.125000e-02,1.875000e-02,
464,-6.250000e-02,6.250000e-03,
465,3.125000e-02,-1.250000e-02,
466,-6.250000e-02,-1.875000e-02,
467,3.125000e-02,0.000000e+00,
468,-6.250000e-02,-2.500000e-02,
469,3.125000e-02,0.000000e+00,
470,-6.250000e-02,-1.875000e-02,
471,3.125000e-02,6.250000e-03,
472,-6.250000e-02,-1.250000e-02,
473,3.125000e-02,6.250000e-03,
474,-6.250000e-02,0.000000e+00,
475,3.125000e-02,-1.875000e-02,
476,-6.250000e-02,-6.250000e-03,
477,3.125000e-02,-3.125000e-02,
478,3.125000e-02,-1.250000e-02,
479,-6.250000e-02,1.250000e-02,
480,-6.250000e-02,1.250000e-02,
481,3.125000e-02,-1.250000e-02,
482,3.125000e-02,-1.250000e-02,
483,-6.250000e-02,6.250000e-03,
484,-6.250000e-02,6.250000e-03,
485,3.125000e-02,-1.250000e-02,
486,-6.250000e-02,0.000000e+00,
487,3.125000e-02,-2.500000e-02,
488,-6.250000e-02,-1.875000e-02,
489,3.125000e-02,1.250000e-02,
490,-6.250000e-02,1.250000e-02,
491,3.125000e-02,-1.875000e-02,
492,-6.250000e-02,-1.875000e-02,
493,3.125000e-02,6.250000e-03,
494,-6.250000e-02,-1.250000e-02,
495,3.125000e-02,1.250000e-02,
496,-6.250000e-02,0.000000e+00,
497,3.125000e-02,-1.875000e-02,
498,-6.250000e-02,-1.875000e-02,
499,3.125000e-02,6.250000e-03,
500,-6.250000e-02,6.250000e-03,
501,3.125000e-02,-1.250000e-02,
502,-6.250000e-02,0.000000e+00,
503,3.125000e-02,-1.875000e-02,
504,-6.250000e-02,-1.250000e-02,
505,3.125000e-02,0.000000e+00,
506,-6.250000e-02,0.000000e+00,
507,3.125000e-02,-2.500000e-02,
508,-6.250000e-02,-1.875000e-02,
509,3.125000e-02,6.250000e-03,
510,0.000000e+00,-1.875000e-02,
511,-6.250000e-02,0.000000e+00,
512,-6.250000e-02,-1.250000e-02,
513,3.125000e-02,1.250000e-02,
514,3.125000e-02,6.250000e-03,
515,-9.375000e-02,-1.875000e-02,
516,-6.250000e-02,-1.875000e-02,
517,3.125000e-02,-6.250000e-03,
518,-6.250000e-02,-1.875000e-02,
519,0.000000e+00,1.875000e-02,
520,3.125000e-02,1.250000e-02,
521,-6.250000e-02,-1.875000e-02,
522,-6.250000e-02,-2.500000e-02,
523,3.125000e-02,0.000000e+00,
524,-6.250000e-02,-6.250000e-03,
525,3.125000e-02,6.250000e-03,
526,-6.250000e-02,6.250000e-03,
527,3.125000e-02,-1.875000e-02,
528,-6.250000e-02,-1.875000e-02,
529,3.125000e-02,6.250000e-03,
530,-6.250000e-02,6.250000e-03,
531,3.125000e-02,-1.875000e-02,
532,-6.250000e-02,-1.875000e-02,
533,3.125000e-02,0.000000e+00,
534,-6.250000e-02,-1.875000e-02,
535,3.125000e-02,6.250000e-03,
536,-6.250000e-02,6.250000e-03,
537,3.125000e-02,-1.875000e-02,
538,-6.250000e-02,-1.875000e-02,
539,3.125000e-02,0.000000e+00,
540,-6.250000e-02,6.250000e-03,
541,3.125000e-02,-1.875000e-02,
542,-6.250000e-02,-1.875000e-02,
543,3.125000e-02,0.000000e+00,
544,-6.250000e-02,-1.250000e-02,
545,3.125000e-02,6.250000e-03,
546,3.125000e-02,6.250000e-03,
547,-9.375000e-02,-1.250000e-02,
548,-6.250000e-02,6.250000e-03,
549,3.125000e-02,-1.250000e-02,
550,-6.250000e-02,0.000000e+00,
551,3.125000e-02,-1.875000e-02,
552,-6.250000e-02,-1.250000e-02,
553,3.125000e-02,0.000000e+00,
554,0.000000e+00,-1.250000e-02,
555,-6.250000e-02,0.000000e+00,
556,-6.250000e-02,-1.250000e-02,
557,3.125000e-02,6.250000e-03,
558,-6.250000e-02,0.000000e+00,
559,3.125000e-02,-1.875000e-02,
560,-6.250000e-02,-1.250000e-02,
561,3.125000e-02,6.250000e-03,
562,-6.250000e-02,0.000000e+00,
563,3.125000e-02,-1.875000e-02,
564,-6.250000e-02,-1.875000e-02,
565,3.125000e-02,0.000000e+00,
566,-6.250000e-02,-1.875000e-02,
567,3.125000e-02,0.000000e+00,
568,-6.250000e-02,-2.500000e-02,
569,3.125000e-02,6.250000e-03,
570,-6.250000e-02,0.000000e+00,
571,3.125000e-02,-1.875000e-02,
572,-6.250000e-02,-1.250000e-02,
573,3.125000e-02,6.250000e-03,
574,-6.250000e-02,-1.250000e-02,
575,3.125000e-02,6.250000e-03,
576,-6.250000e-02,0.000000e+00,
577,3.125000e-02,-1.875000e-02,
578,-6.250000e-02,0.000000e+00,
579,3.125000e-02,-1.875000e-02,
580,-6.250000e-02,-1.250000e-02,
581,3.125000e-02,1.250000e-02,
582,-6.250000e-02,1.875000e-02,
583,3.125000e-02,-2.500000e-02,
584,3.125000e-02,-3.125000e-02,
585,-6.250000e-02,-6.250000e-03,
586,-6.250000e-02,-1.875000e-02,
587,3.125000e-02,6.250000e-03,
588,3.125000e-02,6.250000e-03,
589,-6.250000e-02,-1.875000e-02,
590,-6.250000e-02,-1.875000e-02,
591,3.125000e-02,6.250000e-03,
592,-6.250000e-02,0.000000e+00,
593,3.125000e-02,-1.875000e-02,
594,-6.250000e-02,-1.875000e-02,
595,3.125000e-02,0.000000e+00,
596,-6.250000e-02,-1.250000e-02,
597,3.125000e-02,6.250000e-03,
598,-6.250000e-02,6.250000e-03,
599,3.125000e-02,-1.875000e-02,
600,3.125000e-02,-1.875000e-02,
601,-6.250000e-02,6.250000e-03,
602,-6.250000e-02,0.000000e+00,
603,3.125000e-02,-1.250000e-02,
604,-6.250000e-02,-1.250000e-02,
605,3.125000e-02,6.250000e-03,
606,-6.250000e-02,6.250000e-03,
607,3.125000e-02,-1.250000e-02,
608,-6.250000e-02,-1.250000e-02,
609,3.125000e-02,1.250000e-02,
610,-6.250000e-02,6.250000e-03,
611,3.125000e-02,-1.875000e-02,
612,-6.250000e-02,-6.250000e-03,
613,3.125000e-02,-1.875000e-02,
614,-6.250000e-02,-1.250000e-02,
615,3.125000e-02,6.250000e-03,
616,-6.250000e-02,6.250000e-03,
617,3.125000e-02,-1.875000e-02,
618,-6.250000e-02,-1.250000e-02,
619,3.125000e-02,6.250000e-03,
620,-6.250000e-02,0.000000e+00,
621,3.125000e-02,-1.875000e-02,
622,-6.250000e-02,-1.875000e-02,
623,3.125000e-02,0.000000e+00,
624,-6.250000e-02,-1.875000e-02,
