lab/data/171128/plate2/100Vpp10pXmm20mm40mm14/065.csv

X,CH1,CH2,Start,Increment,
Sequence,Volt,Volt,-1.014000e-04,5.000000e-07,
0,0.000000e+00,-1.250000e-02,
1,-6.250000e-02,1.250000e-02,
2,-6.250000e-02,6.250000e-03,
3,0.000000e+00,-1.250000e-02,
4,-6.250000e-02,-1.250000e-02,
5,3.125000e-02,1.875000e-02,
6,0.000000e+00,6.250000e-03,
7,-6.250000e-02,-1.250000e-02,
8,-6.250000e-02,-1.250000e-02,
9,3.125000e-02,0.000000e+00,
10,0.000000e+00,0.000000e+00,
11,-6.250000e-02,-1.875000e-02,
12,0.000000e+00,-1.250000e-02,
13,-6.250000e-02,0.000000e+00,
14,-6.250000e-02,-1.250000e-02,
15,0.000000e+00,1.250000e-02,
16,-6.250000e-02,1.250000e-02,
17,3.125000e-02,-1.250000e-02,
18,-6.250000e-02,6.250000e-03,
19,0.000000e+00,-1.875000e-02,
20,-6.250000e-02,-6.250000e-03,
21,0.000000e+00,-3.125000e-02,
22,0.000000e+00,-2.500000e-02,
23,-6.250000e-02,6.250000e-03,
24,-6.250000e-02,6.250000e-03,
25,3.125000e-02,-1.250000e-02,
26,-6.250000e-02,1.250000e-02,
27,3.125000e-02,-1.875000e-02,
28,0.000000e+00,-6.250000e-03,
29,-6.250000e-02,-2.500000e-02,
30,-6.250000e-02,-1.875000e-02,
31,3.125000e-02,6.250000e-03,
32,0.000000e+00,-1.875000e-02,
33,-6.250000e-02,6.250000e-03,
34,-6.250000e-02,-6.250000e-03,
35,3.125000e-02,1.250000e-02,
36,-6.250000e-02,6.250000e-03,
37,0.000000e+00,-1.250000e-02,
38,-6.250000e-02,1.250000e-02,
39,3.125000e-02,-1.250000e-02,
40,-6.250000e-02,0.000000e+00,
41,3.125000e-02,-1.875000e-02,
42,-6.250000e-02,-1.875000e-02,
43,3.125000e-02,6.250000e-03,
44,-6.250000e-02,-6.250000e-03,
45,3.125000e-02,1.250000e-02,
46,-6.250000e-02,1.250000e-02,
47,3.125000e-02,-1.250000e-02,
48,-6.250000e-02,0.000000e+00,
49,3.125000e-02,-1.875000e-02,
50,-6.250000e-02,-1.875000e-02,
51,3.125000e-02,0.000000e+00,
52,-6.250000e-02,-2.500000e-02,
53,3.125000e-02,6.250000e-03,
54,-6.250000e-02,6.250000e-03,
55,3.125000e-02,-1.875000e-02,
56,-6.250000e-02,-1.875000e-02,
57,3.125000e-02,1.250000e-02,
58,0.000000e+00,1.250000e-02,
59,-6.250000e-02,-1.875000e-02,
60,-6.250000e-02,-1.875000e-02,
61,3.125000e-02,0.000000e+00,
62,-6.250000e-02,0.000000e+00,
63,3.125000e-02,-1.875000e-02,
64,-6.250000e-02,6.250000e-03,
65,3.125000e-02,-1.250000e-02,
66,0.000000e+00,-6.250000e-03,
67,-6.250000e-02,6.250000e-03,
68,-6.250000e-02,6.250000e-03,
69,3.125000e-02,-1.250000e-02,
70,-6.250000e-02,6.250000e-03,
71,3.125000e-02,-1.875000e-02,
72,-6.250000e-02,6.250000e-03,
73,3.125000e-02,-1.875000e-02,
74,-6.250000e-02,-1.875000e-02,
75,3.125000e-02,1.250000e-02,
76,-6.250000e-02,1.250000e-02,
77,3.125000e-02,-1.250000e-02,
78,-6.250000e-02,0.000000e+00,
79,3.125000e-02,-1.875000e-02,
80,-6.250000e-02,0.000000e+00,
81,3.125000e-02,-1.875000e-02,
82,-6.250000e-02,-6.250000e-03,
83,3.125000e-02,-2.500000e-02,
84,-6.250000e-02,-6.250000e-03,
85,0.000000e+00,-2.500000e-02,
86,-6.250000e-02,-1.875000e-02,
87,3.125000e-02,1.250000e-02,
88,0.000000e+00,6.250000e-03,
89,-6.250000e-02,-1.875000e-02,
90,-6.250000e-02,-1.875000e-02,
91,3.125000e-02,6.250000e-03,
92,0.000000e+00,6.250000e-03,
93,-6.250000e-02,-2.500000e-02,
94,-6.250000e-02,-2.500000e-02,
95,3.125000e-02,1.250000e-02,
96,-6.250000e-02,1.250000e-02,
97,3.125000e-02,-1.250000e-02,
98,-6.250000e-02,-1.250000e-02,
99,3.125000e-02,1.250000e-02,
100,-6.250000e-02,1.250000e-02,
101,0.000000e+00,-1.250000e-02,
102,-6.250000e-02,-1.250000e-02,
103,3.125000e-02,0.000000e+00,
104,-6.250000e-02,1.250000e-02,
105,3.125000e-02,-1.875000e-02,
106,-6.250000e-02,0.000000e+00,
107,3.125000e-02,-1.875000e-02,
108,-6.250000e-02,-1.250000e-02,
109,3.125000e-02,6.250000e-03,
110,-6.250000e-02,-1.250000e-02,
111,3.125000e-02,6.250000e-03,
112,-6.250000e-02,0.000000e+00,
113,3.125000e-02,-3.125000e-02,
114,-6.250000e-02,-1.875000e-02,
115,3.125000e-02,6.250000e-03,
116,-6.250000e-02,0.000000e+00,
117,3.125000e-02,-1.875000e-02,
118,-6.250000e-02,-1.250000e-02,
119,3.125000e-02,1.875000e-02,
120,-6.250000e-02,6.250000e-03,
121,3.125000e-02,-2.500000e-02,
122,-6.250000e-02,-1.875000e-02,
123,3.125000e-02,6.250000e-03,
124,-6.250000e-02,0.000000e+00,
125,3.125000e-02,-1.875000e-02,
126,-6.250000e-02,-1.250000e-02,
127,3.125000e-02,1.250000e-02,
128,-6.250000e-02,1.250000e-02,
129,3.125000e-02,-6.250000e-03,
130,-6.250000e-02,1.250000e-02,
131,3.125000e-02,-6.250000e-03,
132,0.000000e+00,6.250000e-03,
133,-6.250000e-02,-1.875000e-02,
134,-6.250000e-02,-1.875000e-02,
135,3.125000e-02,0.000000e+00,
136,-6.250000e-02,-1.250000e-02,
137,3.125000e-02,0.000000e+00,
138,-6.250000e-02,-1.250000e-02,
139,3.125000e-02,1.250000e-02,
140,-6.250000e-02,6.250000e-03,
141,3.125000e-02,-1.250000e-02,
142,-6.250000e-02,0.000000e+00,
143,3.125000e-02,-1.875000e-02,
144,-6.250000e-02,-6.250000e-03,
145,3.125000e-02,-3.125000e-02,
146,-6.250000e-02,-1.875000e-02,
147,3.125000e-02,6.250000e-03,
148,-6.250000e-02,0.000000e+00,
149,3.125000e-02,-1.875000e-02,
150,-6.250000e-02,-1.250000e-02,
151,0.000000e+00,1.250000e-02,
152,-6.250000e-02,6.250000e-03,
153,3.125000e-02,-1.250000e-02,
154,-6.250000e-02,0.000000e+00,
155,3.125000e-02,-1.875000e-02,
156,-6.250000e-02,-1.875000e-02,
157,3.125000e-02,0.000000e+00,
158,-6.250000e-02,-1.250000e-02,
159,3.125000e-02,1.250000e-02,
160,3.125000e-02,1.250000e-02,
161,-6.250000e-02,-6.250000e-03,
162,0.000000e+00,1.250000e-02,
163,-6.250000e-02,-1.250000e-02,
164,-6.250000e-02,6.250000e-03,
165,0.000000e+00,-1.875000e-02,
166,-6.250000e-02,-1.875000e-02,
167,0.000000e+00,0.000000e+00,
168,-6.250000e-02,-1.250000e-02,
169,3.125000e-02,0.000000e+00,
170,-6.250000e-02,-1.250000e-02,
171,3.125000e-02,1.250000e-02,
172,-6.250000e-02,-1.250000e-02,
173,3.125000e-02,1.250000e-02,
174,-6.250000e-02,0.000000e+00,
175,3.125000e-02,-1.875000e-02,
176,0.000000e+00,6.250000e-03,
177,-6.250000e-02,-2.500000e-02,
178,0.000000e+00,-1.875000e-02,
179,-6.250000e-02,6.250000e-03,
180,-6.250000e-02,6.250000e-03,
181,3.125000e-02,-1.875000e-02,
182,-6.250000e-02,-1.875000e-02,
183,3.125000e-02,1.250000e-02,
184,-6.250000e-02,6.250000e-03,
185,3.125000e-02,-1.250000e-02,
186,-6.250000e-02,6.250000e-03,
187,0.000000e+00,-1.250000e-02,
188,0.000000e+00,6.250000e-03,
189,-6.250000e-02,-1.250000e-02,
190,-6.250000e-02,-1.250000e-02,
191,3.125000e-02,6.250000e-03,
192,-6.250000e-02,-1.250000e-02,
193,0.000000e+00,6.250000e-03,
194,-6.250000e-02,-1.250000e-02,
195,7.812500e-01,1.250000e-02,
196,7.187500e-01,1.250000e-02,
197,1.031250e+00,-1.250000e-02,
198,8.750000e-01,0.000000e+00,
199,-2.812500e-01,-1.875000e-02,
200,-2.500000e-01,-1.875000e-02,
201,-1.093750e+00,0.000000e+00,
202,-1.093750e+00,0.000000e+00,
203,-4.062500e-01,-1.250000e-02,
204,-4.375000e-01,1.250000e-02,
205,7.812500e-01,-1.875000e-02,
206,7.500000e-01,-1.875000e-02,
207,1.031250e+00,6.250000e-03,
208,8.750000e-01,0.000000e+00,
209,-2.812500e-01,-2.500000e-02,
210,-2.187500e-01,-3.125000e-02,
211,-1.062500e+00,1.250000e-02,
212,-1.093750e+00,1.250000e-02,
213,-4.062500e-01,-1.875000e-02,
214,-4.375000e-01,-1.875000e-02,
215,7.812500e-01,1.250000e-02,
216,7.500000e-01,1.250000e-02,
217,1.031250e+00,-1.250000e-02,
218,8.750000e-01,-1.250000e-02,
219,-2.812500e-01,6.250000e-03,
220,-2.500000e-01,0.000000e+00,
221,-1.093750e+00,-1.250000e-02,
222,-1.093750e+00,-1.250000e-02,
223,-3.750000e-01,0.000000e+00,
224,-4.375000e-01,-1.250000e-02,
225,7.812500e-01,6.250000e-03,
226,7.187500e-01,-6.250000e-03,
227,1.031250e+00,1.250000e-02,
228,8.750000e-01,6.250000e-03,
229,-2.812500e-01,-1.875000e-02,
230,-2.187500e-01,-2.500000e-02,
231,-1.062500e+00,0.000000e+00,
232,-1.093750e+00,-1.875000e-02,
233,-4.062500e-01,6.250000e-03,
234,-4.375000e-01,6.250000e-03,
235,7.812500e-01,-1.875000e-02,
236,7.500000e-01,6.250000e-03,
237,1.031250e+00,-1.875000e-02,
238,8.750000e-01,0.000000e+00,
239,-2.812500e-01,-2.500000e-02,
240,-2.500000e-01,6.250000e-03,
241,-1.093750e+00,-1.875000e-02,
242,-1.093750e+00,-1.875000e-02,
243,-3.750000e-01,0.000000e+00,
244,-4.062500e-01,-1.250000e-02,
245,7.812500e-01,6.250000e-03,
246,7.500000e-01,6.250000e-03,
247,1.031250e+00,-1.250000e-02,
248,8.750000e-01,6.250000e-03,
249,-2.812500e-01,-1.250000e-02,
250,-2.500000e-01,-1.250000e-02,
251,-1.062500e+00,6.250000e-03,
252,-1.093750e+00,-1.250000e-02,
253,-4.062500e-01,0.000000e+00,
254,-4.375000e-01,-1.250000e-02,
255,7.812500e-01,6.250000e-03,
256,7.187500e-01,-6.250000e-03,
257,1.031250e+00,1.250000e-02,
258,8.750000e-01,6.250000e-03,
259,-2.812500e-01,-1.875000e-02,
260,-2.500000e-01,-1.875000e-02,
261,-1.062500e+00,0.000000e+00,
262,-1.093750e+00,-1.875000e-02,
263,-3.750000e-01,0.000000e+00,
264,-4.375000e-01,-1.250000e-02,
265,7.812500e-01,0.000000e+00,
266,7.187500e-01,-1.250000e-02,
267,1.031250e+00,0.000000e+00,
268,8.750000e-01,-1.250000e-02,
269,-2.812500e-01,6.250000e-03,
270,-2.187500e-01,0.000000e+00,
271,-1.062500e+00,-1.875000e-02,
272,-1.093750e+00,0.000000e+00,
273,-3.750000e-01,-2.500000e-02,
274,-4.375000e-01,-1.250000e-02,
275,7.812500e-01,6.250000e-03,
276,7.187500e-01,6.250000e-03,
277,1.031250e+00,-1.250000e-02,
278,8.750000e-01,6.250000e-03,
279,-2.812500e-01,-1.250000e-02,
280,-2.500000e-01,-1.250000e-02,
281,-1.093750e+00,6.250000e-03,
282,-1.093750e+00,-1.250000e-02,
283,-3.750000e-01,6.250000e-03,
284,-4.375000e-01,-1.250000e-02,
285,7.812500e-01,6.250000e-03,
286,7.187500e-01,-1.250000e-02,
287,1.031250e+00,6.250000e-03,
288,8.750000e-01,-1.250000e-02,
289,-2.812500e-01,1.250000e-02,
290,-2.500000e-01,1.250000e-02,
291,-1.062500e+00,-1.250000e-02,
292,-1.093750e+00,0.000000e+00,
293,-3.750000e-01,-1.875000e-02,
294,-4.375000e-01,-1.875000e-02,
295,3.125000e-02,0.000000e+00,
296,-6.250000e-02,6.250000e-03,
297,3.125000e-02,-1.875000e-02,
298,-6.250000e-02,-1.250000e-02,
299,3.125000e-02,0.000000e+00,
300,-6.250000e-02,6.250000e-03,
301,3.125000e-02,-1.875000e-02,
302,-6.250000e-02,-1.875000e-02,
303,3.125000e-02,6.250000e-03,
304,-6.250000e-02,-1.875000e-02,
305,3.125000e-02,1.250000e-02,
306,-6.250000e-02,-1.250000e-02,
307,3.125000e-02,6.250000e-03,
308,-6.250000e-02,6.250000e-03,
309,0.000000e+00,-1.250000e-02,
310,-6.250000e-02,6.250000e-03,
311,3.125000e-02,-1.875000e-02,
312,-6.250000e-02,-1.875000e-02,
313,3.125000e-02,6.250000e-03,
314,-6.250000e-02,-1.250000e-02,
315,3.125000e-02,6.250000e-03,
316,-6.250000e-02,6.250000e-03,
317,3.125000e-02,-1.250000e-02,
318,-6.250000e-02,-6.250000e-03,
319,3.125000e-02,6.250000e-03,
320,-6.250000e-02,6.250000e-03,
321,3.125000e-02,-1.875000e-02,
322,-6.250000e-02,-1.875000e-02,
323,3.125000e-02,6.250000e-03,
324,-6.250000e-02,6.250000e-03,
325,3.125000e-02,-2.500000e-02,
326,-6.250000e-02,-2.500000e-02,
327,3.125000e-02,0.000000e+00,
328,-6.250000e-02,6.250000e-03,
329,3.125000e-02,-1.875000e-02,
330,-6.250000e-02,-2.500000e-02,
331,3.125000e-02,1.250000e-02,
332,-6.250000e-02,1.875000e-02,
333,3.125000e-02,-1.250000e-02,
334,-6.250000e-02,0.000000e+00,
335,3.125000e-02,-3.125000e-02,
336,-6.250000e-02,-1.250000e-02,
337,3.125000e-02,1.250000e-02,
338,-6.250000e-02,6.250000e-03,
339,3.125000e-02,-3.125000e-02,
340,-6.250000e-02,-1.875000e-02,
341,3.125000e-02,1.875000e-02,
342,0.000000e+00,1.875000e-02,
343,-6.250000e-02,-1.875000e-02,
344,3.125000e-02,-1.875000e-02,
345,-6.250000e-02,6.250000e-03,
346,-6.250000e-02,-6.250000e-03,
347,3.125000e-02,1.250000e-02,
348,-6.250000e-02,6.250000e-03,
349,3.125000e-02,-1.250000e-02,
350,-6.250000e-02,1.250000e-02,
351,0.000000e+00,-1.250000e-02,
352,-6.250000e-02,0.000000e+00,
353,3.125000e-02,-1.875000e-02,
354,-6.250000e-02,6.250000e-03,
355,3.125000e-02,-1.875000e-02,
356,0.000000e+00,-6.250000e-03,
357,-6.250000e-02,-1.875000e-02,
358,-6.250000e-02,-1.250000e-02,
359,3.125000e-02,6.250000e-03,
360,-6.250000e-02,6.250000e-03,
361,3.125000e-02,-1.250000e-02,
362,-6.250000e-02,-1.250000e-02,
363,3.125000e-02,1.250000e-02,
364,-6.250000e-02,1.250000e-02,
365,3.125000e-02,-1.875000e-02,
366,-6.250000e-02,-1.875000e-02,
367,3.125000e-02,6.250000e-03,
368,-6.250000e-02,6.250000e-03,
369,3.125000e-02,-1.250000e-02,
370,-6.250000e-02,-2.500000e-02,
371,3.125000e-02,0.000000e+00,
372,-6.250000e-02,-1.250000e-02,
373,3.125000e-02,1.250000e-02,
374,-6.250000e-02,6.250000e-03,
375,3.125000e-02,-1.875000e-02,
376,0.000000e+00,-1.250000e-02,
377,-6.250000e-02,6.250000e-03,
378,-6.250000e-02,0.000000e+00,
379,3.125000e-02,-1.875000e-02,
380,-6.250000e-02,-1.250000e-02,
381,0.000000e+00,6.250000e-03,
382,-6.250000e-02,0.000000e+00,
383,3.125000e-02,-1.875000e-02,
384,-6.250000e-02,-1.875000e-02,
385,3.125000e-02,0.000000e+00,
386,-6.250000e-02,0.000000e+00,
387,3.125000e-02,-2.500000e-02,
388,-6.250000e-02,-1.875000e-02,
389,3.125000e-02,1.250000e-02,
390,-6.250000e-02,1.250000e-02,
391,3.125000e-02,-1.875000e-02,
392,-6.250000e-02,-2.500000e-02,
393,3.125000e-02,6.250000e-03,
394,-6.250000e-02,6.250000e-03,
395,3.125000e-02,-1.875000e-02,
396,-6.250000e-02,-1.875000e-02,
397,3.125000e-02,0.000000e+00,
398,-6.250000e-02,-1.250000e-02,
399,3.125000e-02,6.250000e-03,
400,-6.250000e-02,6.250000e-03,
401,3.125000e-02,-1.250000e-02,
402,-6.250000e-02,-1.250000e-02,
403,3.125000e-02,6.250000e-03,
404,0.000000e+00,-1.250000e-02,
405,-6.250000e-02,1.250000e-02,
406,0.000000e+00,6.250000e-03,
407,-6.250000e-02,-1.250000e-02,
408,0.000000e+00,0.000000e+00,
409,-6.250000e-02,-1.875000e-02,
410,-6.250000e-02,-1.875000e-02,
411,3.125000e-02,0.000000e+00,
412,-6.250000e-02,-1.875000e-02,
413,3.125000e-02,0.000000e+00,
414,-6.250000e-02,-1.250000e-02,
415,3.125000e-02,6.250000e-03,
416,-6.250000e-02,6.250000e-03,
417,3.125000e-02,-1.875000e-02,
418,-6.250000e-02,-1.875000e-02,
419,3.125000e-02,0.000000e+00,
420,-6.250000e-02,-1.250000e-02,
421,3.125000e-02,6.250000e-03,
422,0.000000e+00,-1.250000e-02,
423,-6.250000e-02,6.250000e-03,
424,-6.250000e-02,1.250000e-02,
425,3.125000e-02,-1.250000e-02,
426,-6.250000e-02,0.000000e+00,
427,3.125000e-02,-1.875000e-02,
428,-6.250000e-02,-1.875000e-02,
429,3.125000e-02,6.250000e-03,
430,-6.250000e-02,6.250000e-03,
431,3.125000e-02,-1.250000e-02,
432,-6.250000e-02,-1.250000e-02,
433,3.125000e-02,6.250000e-03,
434,-6.250000e-02,0.000000e+00,
435,3.125000e-02,-1.875000e-02,
436,-6.250000e-02,-1.875000e-02,
437,3.125000e-02,6.250000e-03,
438,-6.250000e-02,1.250000e-02,
439,3.125000e-02,-1.875000e-02,
440,-6.250000e-02,0.000000e+00,
441,3.125000e-02,-1.875000e-02,
442,-6.250000e-02,-1.875000e-02,
443,3.125000e-02,-6.250000e-03,
444,-6.250000e-02,-1.875000e-02,
445,3.125000e-02,6.250000e-03,
446,0.000000e+00,6.250000e-03,
447,-6.250000e-02,-1.250000e-02,
448,0.000000e+00,0.000000e+00,
449,-6.250000e-02,-1.875000e-02,
450,-6.250000e-02,-1.250000e-02,
451,3.125000e-02,6.250000e-03,
452,-6.250000e-02,-1.875000e-02,
453,3.125000e-02,0.000000e+00,
454,-6.250000e-02,0.000000e+00,
455,3.125000e-02,-1.875000e-02,
456,-6.250000e-02,-1.875000e-02,
457,3.125000e-02,6.250000e-03,
458,-6.250000e-02,1.250000e-02,
459,3.125000e-02,-1.250000e-02,
460,-6.250000e-02,6.250000e-03,
461,3.125000e-02,-1.250000e-02,
462,-6.250000e-02,-1.250000e-02,
463,3.125000e-02,6.250000e-03,
464,-6.250000e-02,0.000000e+00,
465,3.125000e-02,-1.250000e-02,
466,-6.250000e-02,-1.250000e-02,
467,3.125000e-02,6.250000e-03,
468,-6.250000e-02,6.250000e-03,
469,3.125000e-02,-1.250000e-02,
470,-6.250000e-02,0.000000e+00,
471,0.000000e+00,-1.875000e-02,
472,-6.250000e-02,-1.875000e-02,
473,3.125000e-02,6.250000e-03,
474,-6.250000e-02,0.000000e+00,
475,3.125000e-02,-1.875000e-02,
476,-6.250000e-02,-1.875000e-02,
477,3.125000e-02,6.250000e-03,
478,0.000000e+00,-6.250000e-03,
479,-6.250000e-02,6.250000e-03,
480,-6.250000e-02,6.250000e-03,
481,3.125000e-02,-1.250000e-02,
482,0.000000e+00,0.000000e+00,
483,-6.250000e-02,-1.875000e-02,
484,3.125000e-02,-1.875000e-02,
485,-6.250000e-02,0.000000e+00,
486,0.000000e+00,-1.250000e-02,
487,-6.250000e-02,6.250000e-03,
488,-6.250000e-02,-1.250000e-02,
489,0.000000e+00,6.250000e-03,
490,-6.250000e-02,-1.250000e-02,
491,3.125000e-02,6.250000e-03,
492,-6.250000e-02,6.250000e-03,
493,3.125000e-02,-1.875000e-02,
494,-6.250000e-02,-1.875000e-02,
495,3.125000e-02,0.000000e+00,
496,-6.250000e-02,6.250000e-03,
497,3.125000e-02,-1.875000e-02,
498,-6.250000e-02,0.000000e+00,
499,3.125000e-02,-1.875000e-02,
500,-6.250000e-02,-1.875000e-02,
501,3.125000e-02,6.250000e-03,
502,-6.250000e-02,6.250000e-03,
503,3.125000e-02,-1.875000e-02,
504,-6.250000e-02,-1.875000e-02,
505,3.125000e-02,6.250000e-03,
506,-6.250000e-02,-1.875000e-02,
507,3.125000e-02,6.250000e-03,
508,-6.250000e-02,6.250000e-03,
509,3.125000e-02,-1.875000e-02,
510,-6.250000e-02,-1.875000e-02,
511,3.125000e-02,6.250000e-03,
512,-6.250000e-02,0.000000e+00,
513,3.125000e-02,-2.500000e-02,
514,-6.250000e-02,-2.500000e-02,
515,3.125000e-02,0.000000e+00,
516,-6.250000e-02,-1.250000e-02,
517,3.125000e-02,6.250000e-03,
518,-6.250000e-02,-6.250000e-03,
519,3.125000e-02,1.250000e-02,
520,3.125000e-02,6.250000e-03,
521,-6.250000e-02,-1.250000e-02,
522,3.125000e-02,0.000000e+00,
523,-6.250000e-02,-1.875000e-02,
524,-6.250000e-02,-1.250000e-02,
525,3.125000e-02,6.250000e-03,
526,-6.250000e-02,-1.875000e-02,
527,3.125000e-02,6.250000e-03,
528,0.000000e+00,6.250000e-03,
529,-6.250000e-02,-1.250000e-02,
530,-6.250000e-02,-1.250000e-02,
531,0.000000e+00,6.250000e-03,
532,-6.250000e-02,0.000000e+00,
533,0.000000e+00,-1.875000e-02,
534,-6.250000e-02,-2.500000e-02,
535,3.125000e-02,0.000000e+00,
536,-6.250000e-02,-1.250000e-02,
537,3.125000e-02,6.250000e-03,
538,-6.250000e-02,1.250000e-02,
539,3.125000e-02,-1.875000e-02,
540,-6.250000e-02,6.250000e-03,
541,3.125000e-02,-1.875000e-02,
542,-6.250000e-02,0.000000e+00,
543,3.125000e-02,-1.875000e-02,
544,0.000000e+00,-1.875000e-02,
545,-6.250000e-02,0.000000e+00,
546,-6.250000e-02,-1.250000e-02,
547,3.125000e-02,6.250000e-03,
548,0.000000e+00,-6.250000e-03,
549,-6.250000e-02,1.250000e-02,
550,-6.250000e-02,6.250000e-03,
551,3.125000e-02,-1.250000e-02,
552,-6.250000e-02,6.250000e-03,
553,3.125000e-02,-1.875000e-02,
554,-6.250000e-02,0.000000e+00,
555,3.125000e-02,-2.500000e-02,
556,0.000000e+00,-2.500000e-02,
557,-6.250000e-02,0.000000e+00,
558,-6.250000e-02,-1.250000e-02,
559,3.125000e-02,1.250000e-02,
560,0.000000e+00,1.250000e-02,
561,-6.250000e-02,-1.250000e-02,
562,0.000000e+00,0.000000e+00,
563,-6.250000e-02,-1.875000e-02,
564,-6.250000e-02,-6.250000e-03,
565,3.125000e-02,-1.875000e-02,
566,-6.250000e-02,-1.875000e-02,
567,3.125000e-02,0.000000e+00,
568,0.000000e+00,-1.250000e-02,
569,-6.250000e-02,6.250000e-03,
570,-6.250000e-02,6.250000e-03,
571,3.125000e-02,-1.875000e-02,
572,-6.250000e-02,0.000000e+00,
573,3.125000e-02,-2.500000e-02,
574,-6.250000e-02,-1.875000e-02,
575,3.125000e-02,0.000000e+00,
576,0.000000e+00,-1.250000e-02,
577,-6.250000e-02,6.250000e-03,
578,-6.250000e-02,-6.250000e-03,
579,3.125000e-02,1.250000e-02,
580,-6.250000e-02,-6.250000e-03,
581,3.125000e-02,1.250000e-02,
582,0.000000e+00,6.250000e-03,
583,-6.250000e-02,-1.250000e-02,
584,-6.250000e-02,0.000000e+00,
585,0.000000e+00,-2.500000e-02,
586,-6.250000e-02,-2.500000e-02,
587,3.125000e-02,0.000000e+00,
588,-6.250000e-02,-1.875000e-02,
589,3.125000e-02,6.250000e-03,
590,-6.250000e-02,-6.250000e-03,
591,3.125000e-02,1.250000e-02,
592,-6.250000e-02,6.250000e-03,
593,3.125000e-02,-1.250000e-02,
594,-6.250000e-02,0.000000e+00,
595,3.125000e-02,-2.500000e-02,
596,3.125000e-02,-2.500000e-02,
597,-6.250000e-02,0.000000e+00,
598,-6.250000e-02,-1.250000e-02,
599,3.125000e-02,1.250000e-02,
600,-6.250000e-02,1.250000e-02,
601,0.000000e+00,-6.250000e-03,
602,-6.250000e-02,6.250000e-03,
603,3.125000e-02,-1.875000e-02,
604,-6.250000e-02,0.000000e+00,
605,3.125000e-02,-2.500000e-02,
606,-6.250000e-02,-2.500000e-02,
607,3.125000e-02,6.250000e-03,
608,-6.250000e-02,6.250000e-03,
609,3.125000e-02,-6.250000e-03,
610,-6.250000e-02,-6.250000e-03,
611,3.125000e-02,1.250000e-02,
612,-6.250000e-02,1.250000e-02,
613,3.125000e-02,-1.250000e-02,
614,-6.250000e-02,0.000000e+00,
615,3.125000e-02,-3.125000e-02,
616,-6.250000e-02,-3.750000e-02,
617,3.125000e-02,-6.250000e-03,
618,-6.250000e-02,-1.875000e-02,
619,3.125000e-02,6.250000e-03,
620,0.000000e+00,-6.250000e-03,
621,-6.250000e-02,1.250000e-02,
622,0.000000e+00,1.250000e-02,
623,-6.250000e-02,-1.250000e-02,
624,-6.250000e-02,0.000000e+00,
