lab/data/171205/200v10pXmm2cm45mm14/125.csv

X,CH1,CH2,Start,Increment,
Sequence,Volt,Volt,-5.039998e-05,5.000000e-07,
0,1.562500e-01,1.562500e-02,
1,-1.562500e-01,-3.125000e-02,
2,-1.562500e-01,1.562500e-02,
3,1.562500e-01,-3.125000e-02,
4,-1.562500e-01,1.562500e-02,
5,3.125000e-01,-3.125000e-02,
6,-1.562500e-01,1.562500e-02,
7,1.562500e-01,-3.125000e-02,
8,-1.562500e-01,1.562500e-02,
9,1.562500e-01,-3.125000e-02,
10,1.562500e-01,3.125000e-02,
11,-3.125000e-01,-3.125000e-02,
12,-1.562500e-01,-3.125000e-02,
13,1.562500e-01,1.562500e-02,
14,-1.562500e-01,1.562500e-02,
15,1.562500e-01,-3.125000e-02,
16,-1.562500e-01,1.562500e-02,
17,1.562500e-01,-3.125000e-02,
18,-1.562500e-01,1.562500e-02,
19,1.562500e-01,-3.125000e-02,
20,1.562500e-01,1.562500e-02,
21,-3.125000e-01,-3.125000e-02,
22,1.562500e-01,1.562500e-02,
23,-1.562500e-01,-3.125000e-02,
24,1.562500e-01,1.562500e-02,
25,-1.562500e-01,-3.125000e-02,
26,1.562500e-01,-3.125000e-02,
27,-3.125000e-01,3.125000e-02,
28,-1.562500e-01,-3.125000e-02,
29,1.562500e-01,1.562500e-02,
30,-1.562500e-01,-3.125000e-02,
31,1.562500e-01,3.125000e-02,
32,-1.562500e-01,1.562500e-02,
33,1.562500e-01,-3.125000e-02,
34,-1.562500e-01,1.562500e-02,
35,1.562500e-01,-3.125000e-02,
36,-1.562500e-01,1.562500e-02,
37,1.562500e-01,-3.125000e-02,
38,-1.562500e-01,-3.125000e-02,
39,1.562500e-01,1.562500e-02,
40,-1.562500e-01,1.562500e-02,
41,1.562500e-01,-3.125000e-02,
42,-1.562500e-01,1.562500e-02,
43,1.562500e-01,-3.125000e-02,
44,-1.562500e-01,-3.125000e-02,
45,1.562500e-01,3.125000e-02,
46,-1.562500e-01,1.562500e-02,
47,1.562500e-01,-3.125000e-02,
48,-1.562500e-01,-3.125000e-02,
49,1.562500e-01,1.562500e-02,
50,-1.562500e-01,-3.125000e-02,
51,1.562500e-01,1.562500e-02,
52,-1.562500e-01,1.562500e-02,
53,1.562500e-01,-3.125000e-02,
54,-1.562500e-01,3.125000e-02,
55,1.562500e-01,-3.125000e-02,
56,-1.562500e-01,1.562500e-02,
57,3.125000e-01,-3.125000e-02,
58,-1.562500e-01,1.562500e-02,
59,1.562500e-01,-3.125000e-02,
60,-1.562500e-01,-3.125000e-02,
61,1.562500e-01,1.562500e-02,
62,-1.562500e-01,-3.125000e-02,
63,1.562500e-01,1.562500e-02,
64,-1.562500e-01,1.562500e-02,
65,1.562500e-01,-4.687500e-02,
66,1.562500e-01,1.562500e-02,
67,-1.562500e-01,-4.687500e-02,
68,-1.562500e-01,-3.125000e-02,
69,1.562500e-01,1.562500e-02,
70,-1.562500e-01,-3.125000e-02,
71,1.562500e-01,3.125000e-02,
72,-1.562500e-01,-3.125000e-02,
73,1.562500e-01,3.125000e-02,
74,-1.562500e-01,-1.562500e-02,
75,1.562500e-01,1.562500e-02,
76,-1.562500e-01,1.562500e-02,
77,1.562500e-01,-3.125000e-02,
78,-1.562500e-01,1.562500e-02,
79,1.562500e-01,-3.125000e-02,
80,1.562500e-01,1.562500e-02,
81,-1.562500e-01,-3.125000e-02,
82,1.562500e-01,1.562500e-02,
83,-3.125000e-01,-3.125000e-02,
84,-1.562500e-01,3.125000e-02,
85,1.562500e-01,-3.125000e-02,
86,1.562500e-01,-3.125000e-02,
87,-3.125000e-01,3.125000e-02,
88,1.562500e-01,1.562500e-02,
89,-3.125000e-01,-3.125000e-02,
90,-1.562500e-01,-3.125000e-02,
91,1.562500e-01,1.562500e-02,
92,-1.562500e-01,-3.125000e-02,
93,1.562500e-01,3.125000e-02,
94,-1.562500e-01,-3.125000e-02,
95,1.562500e-01,3.125000e-02,
96,-1.562500e-01,1.562500e-02,
97,1.562500e-01,-3.125000e-02,
98,-1.562500e-01,1.562500e-02,
99,1.562500e-01,-3.125000e-02,
100,-1.562500e-01,1.562500e-02,
101,6.250000e-01,-3.125000e-02,
102,4.687500e-01,1.562500e-02,
103,2.187500e+00,-3.125000e-02,
104,2.187500e+00,-1.562500e-02,
105,6.250000e-01,3.125000e-02,
106,7.812500e-01,1.562500e-02,
107,-1.718750e+00,-3.125000e-02,
108,-1.562500e+00,1.562500e-02,
109,-2.343750e+00,-3.125000e-02,
110,-1.875000e+00,-3.125000e-02,
111,6.250000e-01,1.562500e-02,
112,4.687500e-01,1.562500e-02,
113,2.187500e+00,-3.125000e-02,
114,2.187500e+00,-1.562500e-02,
115,6.250000e-01,3.125000e-02,
116,7.812500e-01,1.562500e-02,
117,-1.718750e+00,-3.125000e-02,
118,-1.562500e+00,1.562500e-02,
119,-2.343750e+00,-3.125000e-02,
120,-1.875000e+00,1.562500e-02,
121,6.250000e-01,-3.125000e-02,
122,4.687500e-01,1.562500e-02,
123,2.187500e+00,-3.125000e-02,
124,2.187500e+00,1.562500e-02,
125,6.250000e-01,-3.125000e-02,
126,7.812500e-01,3.125000e-02,
127,-1.718750e+00,-3.125000e-02,
128,-1.562500e+00,1.562500e-02,
129,-2.187500e+00,-3.125000e-02,
130,-1.875000e+00,1.562500e-02,
131,6.250000e-01,-3.125000e-02,
132,3.125000e-01,-3.125000e-02,
133,2.187500e+00,1.562500e-02,
134,2.187500e+00,1.562500e-02,
135,6.250000e-01,-3.125000e-02,
136,7.812500e-01,3.125000e-02,
137,-1.718750e+00,-3.125000e-02,
138,-1.562500e+00,-3.125000e-02,
139,-2.187500e+00,3.125000e-02,
140,-1.875000e+00,1.562500e-02,
141,6.250000e-01,-3.125000e-02,
142,4.687500e-01,1.562500e-02,
143,2.187500e+00,-3.125000e-02,
144,2.187500e+00,1.562500e-02,
145,6.250000e-01,-3.125000e-02,
146,7.812500e-01,1.562500e-02,
147,-1.718750e+00,-3.125000e-02,
148,-1.406250e+00,1.562500e-02,
149,-2.187500e+00,-3.125000e-02,
150,-1.875000e+00,1.562500e-02,
151,6.250000e-01,-3.125000e-02,
152,4.687500e-01,-3.125000e-02,
153,2.187500e+00,1.562500e-02,
154,2.187500e+00,1.562500e-02,
155,6.250000e-01,-3.125000e-02,
156,7.812500e-01,1.562500e-02,
157,-1.718750e+00,-3.125000e-02,
158,-1.562500e+00,1.562500e-02,
159,-2.187500e+00,-3.125000e-02,
160,-1.875000e+00,1.562500e-02,
161,6.250000e-01,-3.125000e-02,
162,3.125000e-01,-3.125000e-02,
163,2.187500e+00,1.562500e-02,
164,2.187500e+00,1.562500e-02,
165,6.250000e-01,-3.125000e-02,
166,7.812500e-01,1.562500e-02,
167,-1.718750e+00,-3.125000e-02,
168,-1.406250e+00,3.125000e-02,
169,-2.187500e+00,-3.125000e-02,
170,-1.875000e+00,1.562500e-02,
171,6.250000e-01,-3.125000e-02,
172,4.687500e-01,1.562500e-02,
173,2.187500e+00,-3.125000e-02,
174,2.187500e+00,1.562500e-02,
175,6.250000e-01,-3.125000e-02,
176,7.812500e-01,1.562500e-02,
177,-1.718750e+00,-3.125000e-02,
178,-1.562500e+00,1.562500e-02,
179,-2.187500e+00,-3.125000e-02,
180,-1.875000e+00,1.562500e-02,
181,6.250000e-01,-3.125000e-02,
182,3.125000e-01,1.562500e-02,
183,2.187500e+00,-3.125000e-02,
184,2.187500e+00,-3.125000e-02,
185,6.250000e-01,3.125000e-02,
186,9.375000e-01,-3.125000e-02,
187,-1.718750e+00,3.125000e-02,
188,-1.562500e+00,1.562500e-02,
189,-2.187500e+00,-3.125000e-02,
190,-1.875000e+00,1.562500e-02,
191,6.250000e-01,-3.125000e-02,
192,4.687500e-01,1.562500e-02,
193,2.187500e+00,-3.125000e-02,
194,2.187500e+00,1.562500e-02,
195,6.250000e-01,-3.125000e-02,
196,7.812500e-01,-3.125000e-02,
197,-1.718750e+00,3.125000e-02,
198,-1.562500e+00,1.562500e-02,
199,-2.187500e+00,-3.125000e-02,
200,-1.875000e+00,1.562500e-02,
201,1.562500e-01,-3.125000e-02,
202,-1.562500e-01,1.562500e-02,
203,1.562500e-01,-3.125000e-02,
204,-1.562500e-01,1.562500e-02,
205,1.562500e-01,-3.125000e-02,
206,1.562500e-01,1.562500e-02,
207,-3.125000e-01,-3.125000e-02,
208,-1.562500e-01,-3.125000e-02,
209,1.562500e-01,1.562500e-02,
210,1.562500e-01,1.562500e-02,
211,-1.562500e-01,-3.125000e-02,
212,-1.562500e-01,-3.125000e-02,
213,1.562500e-01,1.562500e-02,
214,-1.562500e-01,1.562500e-02,
215,1.562500e-01,-3.125000e-02,
216,1.562500e-01,1.562500e-02,
217,-3.125000e-01,-3.125000e-02,
218,1.562500e-01,1.562500e-02,
219,-3.125000e-01,-3.125000e-02,
220,-1.562500e-01,1.562500e-02,
221,1.562500e-01,-3.125000e-02,
222,1.562500e-01,-3.125000e-02,
223,-3.125000e-01,3.125000e-02,
224,1.562500e-01,1.562500e-02,
225,-3.125000e-01,-3.125000e-02,
226,-1.562500e-01,-3.125000e-02,
227,1.562500e-01,1.562500e-02,
228,-1.562500e-01,1.562500e-02,
229,1.562500e-01,-3.125000e-02,
230,-1.562500e-01,1.562500e-02,
231,1.562500e-01,-3.125000e-02,
232,-1.562500e-01,1.562500e-02,
233,1.562500e-01,-4.687500e-02,
234,-1.562500e-01,1.562500e-02,
235,1.562500e-01,-3.125000e-02,
236,-1.562500e-01,-3.125000e-02,
237,1.562500e-01,3.125000e-02,
238,-1.562500e-01,-3.125000e-02,
239,1.562500e-01,3.125000e-02,
240,-1.562500e-01,-3.125000e-02,
241,1.562500e-01,3.125000e-02,
242,-1.562500e-01,1.562500e-02,
243,1.562500e-01,-3.125000e-02,
244,-1.562500e-01,1.562500e-02,
245,1.562500e-01,-3.125000e-02,
246,-1.562500e-01,1.562500e-02,
247,1.562500e-01,-3.125000e-02,
248,1.562500e-01,1.562500e-02,
249,-1.562500e-01,-3.125000e-02,
250,-1.562500e-01,1.562500e-02,
251,1.562500e-01,-3.125000e-02,
252,-1.562500e-01,-3.125000e-02,
253,1.562500e-01,3.125000e-02,
254,1.562500e-01,1.562500e-02,
255,-3.125000e-01,-3.125000e-02,
256,-1.562500e-01,-3.125000e-02,
257,1.562500e-01,1.562500e-02,
258,-1.562500e-01,1.562500e-02,
259,1.562500e-01,-3.125000e-02,
260,1.562500e-01,1.562500e-02,
261,-3.125000e-01,-3.125000e-02,
262,-1.562500e-01,1.562500e-02,
263,1.562500e-01,-3.125000e-02,
264,1.562500e-01,1.562500e-02,
265,-1.562500e-01,-3.125000e-02,
266,-1.562500e-01,1.562500e-02,
267,1.562500e-01,-3.125000e-02,
268,-1.562500e-01,1.562500e-02,
269,1.562500e-01,-3.125000e-02,
270,-1.562500e-01,1.562500e-02,
271,1.562500e-01,-3.125000e-02,
272,-1.562500e-01,1.562500e-02,
273,1.562500e-01,-3.125000e-02,
274,-1.562500e-01,1.562500e-02,
275,1.562500e-01,-3.125000e-02,
276,-1.562500e-01,1.562500e-02,
277,1.562500e-01,-3.125000e-02,
278,-1.562500e-01,1.562500e-02,
279,1.562500e-01,-3.125000e-02,
280,-1.562500e-01,1.562500e-02,
281,1.562500e-01,-3.125000e-02,
282,-1.562500e-01,3.125000e-02,
283,1.562500e-01,-3.125000e-02,
284,-1.562500e-01,1.562500e-02,
285,1.562500e-01,-3.125000e-02,
286,-1.562500e-01,1.562500e-02,
287,1.562500e-01,-3.125000e-02,
288,-1.562500e-01,1.562500e-02,
289,1.562500e-01,-3.125000e-02,
290,1.562500e-01,1.562500e-02,
291,-1.562500e-01,-3.125000e-02,
292,1.562500e-01,1.562500e-02,
293,-1.562500e-01,-3.125000e-02,
294,-1.562500e-01,1.562500e-02,
295,1.562500e-01,-3.125000e-02,
296,1.562500e-01,1.562500e-02,
297,-1.562500e-01,-3.125000e-02,
298,-1.562500e-01,-3.125000e-02,
299,1.562500e-01,1.562500e-02,
300,-1.562500e-01,-3.125000e-02,
301,1.562500e-01,3.125000e-02,
302,-1.562500e-01,1.562500e-02,
303,1.562500e-01,-3.125000e-02,
304,-1.562500e-01,1.562500e-02,
305,1.562500e-01,-3.125000e-02,
306,-1.562500e-01,-3.125000e-02,
307,1.562500e-01,1.562500e-02,
308,1.562500e-01,1.562500e-02,
309,-3.125000e-01,-3.125000e-02,
310,-1.562500e-01,1.562500e-02,
311,1.562500e-01,-3.125000e-02,
312,-1.562500e-01,1.562500e-02,
313,1.562500e-01,-3.125000e-02,
314,-1.562500e-01,1.562500e-02,
315,1.562500e-01,-3.125000e-02,
316,-1.562500e-01,-3.125000e-02,
317,1.562500e-01,1.562500e-02,
318,-1.562500e-01,1.562500e-02,
319,1.562500e-01,-3.125000e-02,
320,-1.562500e-01,-3.125000e-02,
321,1.562500e-01,1.562500e-02,
322,-1.562500e-01,1.562500e-02,
323,1.562500e-01,-3.125000e-02,
324,-1.562500e-01,-3.125000e-02,
325,1.562500e-01,1.562500e-02,
326,1.562500e-01,1.562500e-02,
327,-3.125000e-01,-3.125000e-02,
328,1.562500e-01,-3.125000e-02,
329,-3.125000e-01,1.562500e-02,
330,-1.562500e-01,-1.562500e-02,
331,1.562500e-01,1.562500e-02,
332,-1.562500e-01,1.562500e-02,
333,1.562500e-01,-3.125000e-02,
334,-3.125000e-01,1.562500e-02,
335,1.562500e-01,-3.125000e-02,
336,-1.562500e-01,-3.125000e-02,
337,1.562500e-01,1.562500e-02,
338,-1.562500e-01,1.562500e-02,
339,1.562500e-01,-3.125000e-02,
340,-1.562500e-01,-1.562500e-02,
341,1.562500e-01,3.125000e-02,
342,-1.562500e-01,1.562500e-02,
343,1.562500e-01,-3.125000e-02,
344,-1.562500e-01,1.562500e-02,
345,1.562500e-01,-3.125000e-02,
346,-1.562500e-01,-3.125000e-02,
347,1.562500e-01,1.562500e-02,
348,-1.562500e-01,1.562500e-02,
349,1.562500e-01,-3.125000e-02,
350,-1.562500e-01,-1.562500e-02,
351,1.562500e-01,3.125000e-02,
352,-1.562500e-01,1.562500e-02,
353,1.562500e-01,-3.125000e-02,
354,-1.562500e-01,-3.125000e-02,
355,1.562500e-01,1.562500e-02,
356,-1.562500e-01,-3.125000e-02,
357,1.562500e-01,1.562500e-02,
358,-1.562500e-01,1.562500e-02,
359,1.562500e-01,-3.125000e-02,
360,-1.562500e-01,-3.125000e-02,
361,1.562500e-01,3.125000e-02,
362,-1.562500e-01,3.125000e-02,
363,1.562500e-01,-3.125000e-02,
364,-1.562500e-01,1.562500e-02,
365,3.125000e-01,-3.125000e-02,
366,-1.562500e-01,1.562500e-02,
367,1.562500e-01,-3.125000e-02,
368,-1.562500e-01,-3.125000e-02,
369,1.562500e-01,3.125000e-02,
370,-1.562500e-01,-3.125000e-02,
371,1.562500e-01,3.125000e-02,
372,-1.562500e-01,-1.562500e-02,
373,1.562500e-01,3.125000e-02,
374,-1.562500e-01,1.562500e-02,
375,1.562500e-01,-3.125000e-02,
376,-1.562500e-01,1.562500e-02,
377,1.562500e-01,-4.687500e-02,
378,-1.562500e-01,-3.125000e-02,
379,1.562500e-01,1.562500e-02,
380,1.562500e-01,-3.125000e-02,
381,-3.125000e-01,3.125000e-02,
382,1.562500e-01,3.125000e-02,
383,-1.562500e-01,-3.125000e-02,
384,-1.562500e-01,1.562500e-02,
385,1.562500e-01,-3.125000e-02,
386,-1.562500e-01,1.562500e-02,
387,1.562500e-01,-3.125000e-02,
388,-1.562500e-01,1.562500e-02,
389,1.562500e-01,-3.125000e-02,
390,-1.562500e-01,-1.562500e-02,
391,1.562500e-01,3.125000e-02,
392,-1.562500e-01,3.125000e-02,
393,1.562500e-01,-3.125000e-02,
394,-1.562500e-01,1.562500e-02,
395,1.562500e-01,-3.125000e-02,
396,1.562500e-01,1.562500e-02,
397,-3.125000e-01,-4.687500e-02,
398,1.562500e-01,-3.125000e-02,
399,-1.562500e-01,1.562500e-02,
400,-1.562500e-01,-3.125000e-02,
401,1.562500e-01,3.125000e-02,
402,-1.562500e-01,3.125000e-02,
403,3.125000e-01,-3.125000e-02,
404,1.562500e-01,1.562500e-02,
405,-3.125000e-01,-3.125000e-02,
406,-1.562500e-01,1.562500e-02,
407,1.562500e-01,-4.687500e-02,
408,-1.562500e-01,-3.125000e-02,
409,1.562500e-01,3.125000e-02,
410,-1.562500e-01,1.562500e-02,
411,1.562500e-01,-3.125000e-02,
412,1.562500e-01,3.125000e-02,
413,-3.125000e-01,-3.125000e-02,
414,-1.562500e-01,1.562500e-02,
415,1.562500e-01,-3.125000e-02,
416,-1.562500e-01,-3.125000e-02,
417,1.562500e-01,1.562500e-02,
418,-1.562500e-01,-3.125000e-02,
419,1.562500e-01,1.562500e-02,
420,-1.562500e-01,1.562500e-02,
421,1.562500e-01,-3.125000e-02,
422,-1.562500e-01,1.562500e-02,
423,1.562500e-01,-3.125000e-02,
424,1.562500e-01,1.562500e-02,
425,-1.562500e-01,-3.125000e-02,
426,-1.562500e-01,-3.125000e-02,
427,1.562500e-01,1.562500e-02,
428,1.562500e-01,-3.125000e-02,
429,-1.562500e-01,1.562500e-02,
430,1.562500e-01,-3.125000e-02,
431,-3.125000e-01,3.125000e-02,
432,-1.562500e-01,-3.125000e-02,
433,1.562500e-01,3.125000e-02,
434,-1.562500e-01,-3.125000e-02,
435,1.562500e-01,1.562500e-02,
436,-1.562500e-01,1.562500e-02,
437,1.562500e-01,-3.125000e-02,
438,1.562500e-01,1.562500e-02,
439,-1.562500e-01,-3.125000e-02,
440,-1.562500e-01,1.562500e-02,
441,1.562500e-01,-3.125000e-02,
442,-1.562500e-01,-3.125000e-02,
443,1.562500e-01,1.562500e-02,
444,-1.562500e-01,1.562500e-02,
445,1.562500e-01,-3.125000e-02,
446,-1.562500e-01,-3.125000e-02,
447,1.562500e-01,1.562500e-02,
448,-1.562500e-01,-3.125000e-02,
449,1.562500e-01,1.562500e-02,
450,-1.562500e-01,-3.125000e-02,
451,1.562500e-01,3.125000e-02,
452,-1.562500e-01,-3.125000e-02,
453,1.562500e-01,1.562500e-02,
454,-1.562500e-01,-3.125000e-02,
455,1.562500e-01,1.562500e-02,
456,-1.562500e-01,3.125000e-02,
457,1.562500e-01,-3.125000e-02,
458,1.562500e-01,1.562500e-02,
459,-1.562500e-01,-3.125000e-02,
460,1.562500e-01,-3.125000e-02,
461,-1.562500e-01,1.562500e-02,
462,-1.562500e-01,1.562500e-02,
463,1.562500e-01,-3.125000e-02,
464,1.562500e-01,-3.125000e-02,
465,-1.562500e-01,1.562500e-02,
466,-1.562500e-01,-3.125000e-02,
467,1.562500e-01,1.562500e-02,
468,-1.562500e-01,-1.562500e-02,
469,1.562500e-01,3.125000e-02,
470,-1.562500e-01,1.562500e-02,
471,1.562500e-01,-4.687500e-02,
472,-1.562500e-01,-3.125000e-02,
473,1.562500e-01,1.562500e-02,
474,1.562500e-01,-3.125000e-02,
475,-1.562500e-01,1.562500e-02,
476,1.562500e-01,1.562500e-02,
477,-1.562500e-01,-3.125000e-02,
478,1.562500e-01,-1.562500e-02,
479,-1.562500e-01,3.125000e-02,
480,-1.562500e-01,3.125000e-02,
481,1.562500e-01,-3.125000e-02,
482,1.562500e-01,-3.125000e-02,
483,-1.562500e-01,1.562500e-02,
484,-1.562500e-01,-3.125000e-02,
485,1.562500e-01,1.562500e-02,
486,-1.562500e-01,-3.125000e-02,
487,1.562500e-01,3.125000e-02,
488,-1.562500e-01,-1.562500e-02,
489,1.562500e-01,3.125000e-02,
490,-1.562500e-01,1.562500e-02,
491,1.562500e-01,-3.125000e-02,
492,1.562500e-01,1.562500e-02,
493,-3.125000e-01,-3.125000e-02,
494,1.562500e-01,-3.125000e-02,
495,-3.125000e-01,1.562500e-02,
496,-1.562500e-01,1.562500e-02,
497,1.562500e-01,-3.125000e-02,
498,1.562500e-01,-1.562500e-02,
499,-1.562500e-01,3.125000e-02,
500,-1.562500e-01,1.562500e-02,
501,1.562500e-01,-3.125000e-02,
502,1.562500e-01,1.562500e-02,
503,-1.562500e-01,-4.687500e-02,
504,-1.562500e-01,-3.125000e-02,
505,1.562500e-01,1.562500e-02,
506,-1.562500e-01,-3.125000e-02,
507,1.562500e-01,1.562500e-02,
508,-1.562500e-01,-1.562500e-02,
509,1.562500e-01,3.125000e-02,
510,1.562500e-01,3.125000e-02,
511,-3.125000e-01,-3.125000e-02,
512,-1.562500e-01,1.562500e-02,
513,1.562500e-01,-4.687500e-02,
514,-1.562500e-01,-3.125000e-02,
515,1.562500e-01,1.562500e-02,
516,-1.562500e-01,-3.125000e-02,
517,1.562500e-01,1.562500e-02,
518,-1.562500e-01,-1.562500e-02,
519,1.562500e-01,4.687500e-02,
520,-1.562500e-01,3.125000e-02,
521,1.562500e-01,-3.125000e-02,
522,-1.562500e-01,-3.125000e-02,
523,1.562500e-01,1.562500e-02,
524,-1.562500e-01,-4.687500e-02,
525,1.562500e-01,1.562500e-02,
526,-1.562500e-01,-4.687500e-02,
527,1.562500e-01,1.562500e-02,
528,-1.562500e-01,-3.125000e-02,
529,1.562500e-01,3.125000e-02,
530,-1.562500e-01,3.125000e-02,
531,1.562500e-01,-3.125000e-02,
532,-1.562500e-01,1.562500e-02,
533,1.562500e-01,-3.125000e-02,
534,-1.562500e-01,1.562500e-02,
535,1.562500e-01,-4.687500e-02,
536,-1.562500e-01,-3.125000e-02,
537,1.562500e-01,1.562500e-02,
538,-1.562500e-01,-1.562500e-02,
539,1.562500e-01,3.125000e-02,
540,1.562500e-01,3.125000e-02,
541,-3.125000e-01,-3.125000e-02,
542,-1.562500e-01,1.562500e-02,
543,1.562500e-01,-4.687500e-02,
544,-1.562500e-01,1.562500e-02,
545,1.562500e-01,-4.687500e-02,
546,-1.562500e-01,-3.125000e-02,
547,1.562500e-01,1.562500e-02,
548,1.562500e-01,-3.125000e-02,
549,-1.562500e-01,3.125000e-02,
550,-1.562500e-01,3.125000e-02,
551,1.562500e-01,-3.125000e-02,
552,-1.562500e-01,1.562500e-02,
553,1.562500e-01,-4.687500e-02,
554,-1.562500e-01,-4.687500e-02,
555,1.562500e-01,1.562500e-02,
556,1.562500e-01,-3.125000e-02,
557,-1.562500e-01,1.562500e-02,
558,1.562500e-01,-3.125000e-02,
559,-3.125000e-01,3.125000e-02,
560,-1.562500e-01,3.125000e-02,
561,1.562500e-01,-3.125000e-02,
562,1.562500e-01,1.562500e-02,
563,-3.125000e-01,-3.125000e-02,
564,-1.562500e-01,-3.125000e-02,
565,1.562500e-01,1.562500e-02,
566,-1.562500e-01,-3.125000e-02,
567,1.562500e-01,3.125000e-02,
568,-1.562500e-01,-1.562500e-02,
569,1.562500e-01,3.125000e-02,
570,-1.562500e-01,3.125000e-02,
571,1.562500e-01,-3.125000e-02,
572,-1.562500e-01,1.562500e-02,
573,1.562500e-01,-4.687500e-02,
574,1.562500e-01,-3.125000e-02,
575,-3.125000e-01,1.562500e-02,
576,-1.562500e-01,-3.125000e-02,
577,1.562500e-01,1.562500e-02,
578,-1.562500e-01,-3.125000e-02,
579,1.562500e-01,3.125000e-02,
580,1.562500e-01,3.125000e-02,
581,-1.562500e-01,-3.125000e-02,
582,-1.562500e-01,1.562500e-02,
583,1.562500e-01,-4.687500e-02,
584,-1.562500e-01,0.000000e+00,
585,1.562500e-01,-4.687500e-02,
586,1.562500e-01,-3.125000e-02,
587,-1.562500e-01,1.562500e-02,
588,1.562500e-01,-3.125000e-02,
589,-1.562500e-01,3.125000e-02,
590,-1.562500e-01,-1.562500e-02,
591,1.562500e-01,3.125000e-02,
592,-1.562500e-01,1.562500e-02,
593,1.562500e-01,-3.125000e-02,
594,1.562500e-01,1.562500e-02,
595,-1.562500e-01,-4.687500e-02,
596,1.562500e-01,-3.125000e-02,
597,-1.562500e-01,1.562500e-02,
598,-1.562500e-01,-3.125000e-02,
599,1.562500e-01,3.125000e-02,
600,-1.562500e-01,3.125000e-02,
601,1.562500e-01,-3.125000e-02,
602,-1.562500e-01,1.562500e-02,
603,1.562500e-01,-3.125000e-02,
604,-1.562500e-01,0.000000e+00,
605,1.562500e-01,-4.687500e-02,
606,1.562500e-01,-4.687500e-02,
607,-3.125000e-01,1.562500e-02,
608,-1.562500e-01,-3.125000e-02,
609,1.562500e-01,3.125000e-02,
610,-1.562500e-01,-1.562500e-02,
611,1.562500e-01,3.125000e-02,
612,1.562500e-01,1.562500e-02,
613,-3.125000e-01,-3.125000e-02,
614,-1.562500e-01,1.562500e-02,
615,1.562500e-01,-4.687500e-02,
616,1.562500e-01,-4.687500e-02,
617,-1.562500e-01,1.562500e-02,
618,-1.562500e-01,-3.125000e-02,
619,1.562500e-01,1.562500e-02,
620,-1.562500e-01,3.125000e-02,
621,1.562500e-01,-3.125000e-02,
622,1.562500e-01,1.562500e-02,
623,-1.562500e-01,-4.687500e-02,
624,-1.562500e-01,1.562500e-02,
625,1.562500e-01,-4.687500e-02,
