lab/data/171128/plate2/10pulseXmm20mm45mm14/70.csv

X,CH1,CH2,Start,Increment,
Sequence,Volt,Volt,-1.014000e-04,5.000000e-07,
0,-6.250000e-02,-1.250000e-02,
1,3.125000e-02,6.250000e-03,
2,-6.250000e-02,0.000000e+00,
3,3.125000e-02,-1.875000e-02,
4,-6.250000e-02,-1.875000e-02,
5,3.125000e-02,0.000000e+00,
6,-6.250000e-02,-1.875000e-02,
7,3.125000e-02,0.000000e+00,
8,-6.250000e-02,-1.250000e-02,
9,3.125000e-02,1.250000e-02,
10,-6.250000e-02,6.250000e-03,
11,3.125000e-02,-3.125000e-02,
12,-6.250000e-02,-2.500000e-02,
13,3.125000e-02,6.250000e-03,
14,-6.250000e-02,1.250000e-02,
15,3.125000e-02,-1.250000e-02,
16,-6.250000e-02,0.000000e+00,
17,3.125000e-02,-1.875000e-02,
18,-6.250000e-02,-1.875000e-02,
19,3.125000e-02,0.000000e+00,
20,-6.250000e-02,-1.250000e-02,
21,3.125000e-02,6.250000e-03,
22,-6.250000e-02,-1.250000e-02,
23,3.125000e-02,6.250000e-03,
24,-6.250000e-02,-6.250000e-03,
25,3.125000e-02,6.250000e-03,
26,3.125000e-02,6.250000e-03,
27,-6.250000e-02,-1.250000e-02,
28,-6.250000e-02,0.000000e+00,
29,3.125000e-02,-1.875000e-02,
30,-6.250000e-02,-6.250000e-03,
31,3.125000e-02,1.250000e-02,
32,-6.250000e-02,1.250000e-02,
33,3.125000e-02,-1.875000e-02,
34,-6.250000e-02,-6.250000e-03,
35,3.125000e-02,-3.125000e-02,
36,-6.250000e-02,-2.500000e-02,
37,3.125000e-02,1.250000e-02,
38,-6.250000e-02,1.250000e-02,
39,3.125000e-02,-1.875000e-02,
40,-6.250000e-02,-1.875000e-02,
41,3.125000e-02,-6.250000e-03,
42,0.000000e+00,-1.250000e-02,
43,-6.250000e-02,6.250000e-03,
44,-6.250000e-02,6.250000e-03,
45,3.125000e-02,-1.875000e-02,
46,-6.250000e-02,-1.875000e-02,
47,3.125000e-02,0.000000e+00,
48,-6.250000e-02,0.000000e+00,
49,3.125000e-02,-1.875000e-02,
50,-6.250000e-02,-1.875000e-02,
51,3.125000e-02,6.250000e-03,
52,-6.250000e-02,-1.250000e-02,
53,3.125000e-02,6.250000e-03,
54,-6.250000e-02,1.250000e-02,
55,3.125000e-02,-1.250000e-02,
56,3.125000e-02,6.250000e-03,
57,-6.250000e-02,-2.500000e-02,
58,0.000000e+00,-2.500000e-02,
59,-6.250000e-02,0.000000e+00,
60,-6.250000e-02,-1.250000e-02,
61,3.125000e-02,6.250000e-03,
62,-6.250000e-02,6.250000e-03,
63,0.000000e+00,-1.250000e-02,
64,-6.250000e-02,-1.250000e-02,
65,3.125000e-02,6.250000e-03,
66,-6.250000e-02,0.000000e+00,
67,3.125000e-02,-1.875000e-02,
68,-6.250000e-02,0.000000e+00,
69,3.125000e-02,-1.875000e-02,
70,-6.250000e-02,-1.875000e-02,
71,3.125000e-02,6.250000e-03,
72,-6.250000e-02,6.250000e-03,
73,3.125000e-02,-1.875000e-02,
74,-6.250000e-02,-1.875000e-02,
75,3.125000e-02,0.000000e+00,
76,-6.250000e-02,-1.250000e-02,
77,3.125000e-02,1.250000e-02,
78,-6.250000e-02,6.250000e-03,
79,3.125000e-02,-1.875000e-02,
80,-6.250000e-02,0.000000e+00,
81,3.125000e-02,-2.500000e-02,
82,0.000000e+00,-1.875000e-02,
83,-6.250000e-02,6.250000e-03,
84,-6.250000e-02,-6.250000e-03,
85,3.125000e-02,1.250000e-02,
86,-6.250000e-02,-6.250000e-03,
87,3.125000e-02,1.250000e-02,
88,-6.250000e-02,1.250000e-02,
89,3.125000e-02,-1.250000e-02,
90,-6.250000e-02,0.000000e+00,
91,3.125000e-02,-1.875000e-02,
92,-6.250000e-02,0.000000e+00,
93,3.125000e-02,-1.875000e-02,
94,0.000000e+00,-1.875000e-02,
95,-6.250000e-02,6.250000e-03,
96,0.000000e+00,-6.250000e-03,
97,-6.250000e-02,1.250000e-02,
98,-6.250000e-02,1.250000e-02,
99,3.125000e-02,-1.875000e-02,
100,-6.250000e-02,-1.875000e-02,
101,3.125000e-02,-6.250000e-03,
102,0.000000e+00,-1.250000e-02,
103,-6.250000e-02,0.000000e+00,
104,-6.250000e-02,-1.250000e-02,
105,3.125000e-02,6.250000e-03,
106,-6.250000e-02,-1.250000e-02,
107,3.125000e-02,6.250000e-03,
108,-6.250000e-02,0.000000e+00,
109,3.125000e-02,-1.875000e-02,
110,-6.250000e-02,-1.875000e-02,
111,3.125000e-02,0.000000e+00,
112,-6.250000e-02,-1.250000e-02,
113,3.125000e-02,0.000000e+00,
114,-6.250000e-02,0.000000e+00,
115,3.125000e-02,-1.875000e-02,
116,3.125000e-02,-1.250000e-02,
117,-6.250000e-02,1.250000e-02,
118,-6.250000e-02,6.250000e-03,
119,3.125000e-02,-1.875000e-02,
120,-6.250000e-02,0.000000e+00,
121,3.125000e-02,-1.875000e-02,
122,-6.250000e-02,-1.875000e-02,
123,3.125000e-02,0.000000e+00,
124,3.125000e-02,6.250000e-03,
125,-6.250000e-02,-1.875000e-02,
126,-6.250000e-02,-1.250000e-02,
127,3.125000e-02,6.250000e-03,
128,0.000000e+00,-1.250000e-02,
129,-6.250000e-02,6.250000e-03,
130,-6.250000e-02,0.000000e+00,
131,0.000000e+00,-1.875000e-02,
132,-6.250000e-02,-1.875000e-02,
133,3.125000e-02,0.000000e+00,
134,-6.250000e-02,-1.250000e-02,
135,3.125000e-02,6.250000e-03,
136,-6.250000e-02,1.250000e-02,
137,3.125000e-02,-1.250000e-02,
138,-6.250000e-02,6.250000e-03,
139,3.125000e-02,-1.250000e-02,
140,-6.250000e-02,0.000000e+00,
141,3.125000e-02,-2.500000e-02,
142,-6.250000e-02,-2.500000e-02,
143,3.125000e-02,0.000000e+00,
144,-6.250000e-02,-6.250000e-03,
145,3.125000e-02,1.250000e-02,
146,-6.250000e-02,-6.250000e-03,
147,3.125000e-02,1.250000e-02,
148,-6.250000e-02,1.250000e-02,
149,3.125000e-02,-1.250000e-02,
150,-6.250000e-02,0.000000e+00,
151,3.125000e-02,-1.875000e-02,
152,-6.250000e-02,-1.250000e-02,
153,3.125000e-02,0.000000e+00,
154,-6.250000e-02,-1.250000e-02,
155,3.125000e-02,0.000000e+00,
156,3.125000e-02,-1.250000e-02,
157,-6.250000e-02,1.250000e-02,
158,0.000000e+00,1.250000e-02,
159,-6.250000e-02,-6.250000e-03,
160,-6.250000e-02,6.250000e-03,
161,3.125000e-02,-3.125000e-02,
162,-6.250000e-02,-3.125000e-02,
163,3.125000e-02,6.250000e-03,
164,-6.250000e-02,6.250000e-03,
165,3.125000e-02,-1.250000e-02,
166,-6.250000e-02,-1.875000e-02,
167,3.125000e-02,6.250000e-03,
168,-6.250000e-02,6.250000e-03,
169,3.125000e-02,-1.250000e-02,
170,-6.250000e-02,0.000000e+00,
171,3.125000e-02,-2.500000e-02,
172,3.125000e-02,-2.500000e-02,
173,-6.250000e-02,6.250000e-03,
174,-6.250000e-02,6.250000e-03,
175,3.125000e-02,-1.250000e-02,
176,-6.250000e-02,0.000000e+00,
177,3.125000e-02,-2.500000e-02,
178,-6.250000e-02,-1.875000e-02,
179,3.125000e-02,1.250000e-02,
180,-6.250000e-02,-6.250000e-03,
181,3.125000e-02,1.250000e-02,
182,-6.250000e-02,6.250000e-03,
183,3.125000e-02,-1.250000e-02,
184,-6.250000e-02,0.000000e+00,
185,3.125000e-02,-1.875000e-02,
186,-6.250000e-02,-2.500000e-02,
187,3.125000e-02,0.000000e+00,
188,-6.250000e-02,-1.250000e-02,
189,3.125000e-02,1.250000e-02,
190,-6.250000e-02,6.250000e-03,
191,3.125000e-02,-1.875000e-02,
192,-6.250000e-02,-1.250000e-02,
193,3.125000e-02,0.000000e+00,
194,-6.250000e-02,0.000000e+00,
195,7.500000e-01,-1.875000e-02,
196,7.187500e-01,-1.875000e-02,
197,1.031250e+00,0.000000e+00,
198,8.750000e-01,-1.250000e-02,
199,-2.187500e-01,1.250000e-02,
200,-1.875000e-01,-6.250000e-03,
201,-1.062500e+00,6.250000e-03,
202,-1.062500e+00,0.000000e+00,
203,-4.375000e-01,-1.250000e-02,
204,-4.687500e-01,-1.250000e-02,
205,7.500000e-01,0.000000e+00,
206,7.187500e-01,0.000000e+00,
207,1.031250e+00,-1.250000e-02,
208,9.062500e-01,-1.250000e-02,
209,-2.500000e-01,1.250000e-02,
210,-1.875000e-01,6.250000e-03,
211,-1.062500e+00,-1.250000e-02,
212,-1.093750e+00,6.250000e-03,
213,-4.375000e-01,-6.250000e-03,
214,-4.687500e-01,6.250000e-03,
215,7.500000e-01,-3.125000e-02,
216,7.187500e-01,-3.750000e-02,
217,1.031250e+00,1.875000e-02,
218,8.750000e-01,1.875000e-02,
219,-2.500000e-01,-2.500000e-02,
220,-2.187500e-01,-3.125000e-02,
221,-1.062500e+00,1.250000e-02,
222,-1.093750e+00,1.875000e-02,
223,-4.375000e-01,-6.250000e-03,
224,-4.687500e-01,6.250000e-03,
225,7.500000e-01,-3.125000e-02,
226,7.187500e-01,-2.500000e-02,
227,1.031250e+00,-6.250000e-03,
228,9.062500e-01,-1.875000e-02,
229,-2.500000e-01,0.000000e+00,
230,-1.875000e-01,-1.250000e-02,
231,-1.062500e+00,6.250000e-03,
232,-1.093750e+00,-1.250000e-02,
233,-4.375000e-01,1.250000e-02,
234,-4.687500e-01,1.250000e-02,
235,7.500000e-01,-1.875000e-02,
236,7.187500e-01,-6.250000e-03,
237,1.031250e+00,-2.500000e-02,
238,8.750000e-01,-1.250000e-02,
239,-2.500000e-01,6.250000e-03,
240,-2.187500e-01,6.250000e-03,
241,-1.062500e+00,-1.250000e-02,
242,-1.062500e+00,-1.250000e-02,
243,-4.375000e-01,1.250000e-02,
244,-4.687500e-01,1.250000e-02,
245,7.500000e-01,-1.250000e-02,
246,7.187500e-01,0.000000e+00,
247,1.031250e+00,-2.500000e-02,
248,9.062500e-01,-1.875000e-02,
249,-2.500000e-01,6.250000e-03,
250,-1.875000e-01,0.000000e+00,
251,-1.062500e+00,-2.500000e-02,
252,-1.062500e+00,-1.875000e-02,
253,-4.062500e-01,1.250000e-02,
254,-4.687500e-01,1.250000e-02,
255,7.500000e-01,-1.250000e-02,
256,7.187500e-01,0.000000e+00,
257,1.031250e+00,-2.500000e-02,
258,9.062500e-01,-2.500000e-02,
259,-2.500000e-01,0.000000e+00,
260,-1.875000e-01,-1.875000e-02,
261,-1.062500e+00,6.250000e-03,
262,-1.093750e+00,6.250000e-03,
263,-4.062500e-01,-1.250000e-02,
264,-4.687500e-01,-6.250000e-03,
265,7.500000e-01,1.250000e-02,
266,7.187500e-01,6.250000e-03,
267,1.031250e+00,-1.875000e-02,
268,9.062500e-01,-1.875000e-02,
269,-2.187500e-01,6.250000e-03,
270,-1.875000e-01,-6.250000e-03,
271,-1.062500e+00,1.250000e-02,
272,-1.062500e+00,1.250000e-02,
273,-4.375000e-01,-1.250000e-02,
274,-4.687500e-01,-1.250000e-02,
275,7.500000e-01,6.250000e-03,
276,7.187500e-01,6.250000e-03,
277,1.031250e+00,-3.125000e-02,
278,9.062500e-01,-3.125000e-02,
279,-2.187500e-01,2.500000e-02,
280,-1.875000e-01,2.500000e-02,
281,-1.062500e+00,-5.000000e-02,
282,-1.093750e+00,-5.000000e-02,
283,-4.375000e-01,1.250000e-02,
284,-4.687500e-01,2.500000e-02,
285,7.500000e-01,0.000000e+00,
286,7.187500e-01,1.250000e-02,
287,1.031250e+00,-2.500000e-02,
288,9.062500e-01,-2.500000e-02,
289,-2.187500e-01,0.000000e+00,
290,-1.875000e-01,-6.250000e-03,
291,-1.062500e+00,-2.500000e-02,
292,-1.093750e+00,-1.875000e-02,
293,-4.062500e-01,0.000000e+00,
294,-4.687500e-01,-1.250000e-02,
295,3.125000e-02,1.250000e-02,
296,3.125000e-02,1.250000e-02,
297,-6.250000e-02,-1.875000e-02,
298,-6.250000e-02,-2.500000e-02,
299,3.125000e-02,6.250000e-03,
300,-6.250000e-02,6.250000e-03,
301,3.125000e-02,-1.250000e-02,
302,-6.250000e-02,0.000000e+00,
303,3.125000e-02,-1.875000e-02,
304,-6.250000e-02,-1.250000e-02,
305,3.125000e-02,1.250000e-02,
306,-6.250000e-02,1.250000e-02,
307,3.125000e-02,-1.875000e-02,
308,-6.250000e-02,-1.875000e-02,
309,3.125000e-02,1.250000e-02,
310,-6.250000e-02,1.875000e-02,
311,3.125000e-02,-1.875000e-02,
312,-6.250000e-02,-6.250000e-03,
313,3.125000e-02,-3.750000e-02,
314,3.125000e-02,-2.500000e-02,
315,-6.250000e-02,2.500000e-02,
316,-6.250000e-02,2.500000e-02,
317,3.125000e-02,-1.250000e-02,
318,-6.250000e-02,0.000000e+00,
319,3.125000e-02,-1.875000e-02,
320,-6.250000e-02,0.000000e+00,
321,3.125000e-02,-1.875000e-02,
322,-6.250000e-02,-2.500000e-02,
323,3.125000e-02,0.000000e+00,
324,-6.250000e-02,-1.250000e-02,
325,3.125000e-02,1.250000e-02,
326,3.125000e-02,1.875000e-02,
327,-6.250000e-02,-6.250000e-03,
328,-6.250000e-02,6.250000e-03,
329,3.125000e-02,-1.875000e-02,
330,-6.250000e-02,-1.875000e-02,
331,3.125000e-02,1.250000e-02,
332,3.125000e-02,1.250000e-02,
333,-6.250000e-02,-1.875000e-02,
334,-6.250000e-02,-1.875000e-02,
335,3.125000e-02,6.250000e-03,
336,-6.250000e-02,-6.250000e-03,
337,3.125000e-02,1.250000e-02,
338,-6.250000e-02,6.250000e-03,
339,3.125000e-02,-1.875000e-02,
340,-6.250000e-02,-1.875000e-02,
341,3.125000e-02,6.250000e-03,
342,-6.250000e-02,1.250000e-02,
343,3.125000e-02,-1.250000e-02,
344,-6.250000e-02,-2.500000e-02,
345,3.125000e-02,0.000000e+00,
346,-6.250000e-02,-1.250000e-02,
347,3.125000e-02,1.250000e-02,
348,-6.250000e-02,1.250000e-02,
349,3.125000e-02,-1.250000e-02,
350,-6.250000e-02,0.000000e+00,
351,3.125000e-02,-2.500000e-02,
352,-6.250000e-02,-1.875000e-02,
353,3.125000e-02,6.250000e-03,
354,-6.250000e-02,0.000000e+00,
355,3.125000e-02,-1.875000e-02,
356,-6.250000e-02,-1.250000e-02,
357,3.125000e-02,1.250000e-02,
358,-6.250000e-02,-6.250000e-03,
359,3.125000e-02,1.250000e-02,
360,-6.250000e-02,6.250000e-03,
361,3.125000e-02,-1.250000e-02,
362,3.125000e-02,0.000000e+00,
363,-6.250000e-02,-1.875000e-02,
364,-6.250000e-02,-1.250000e-02,
365,3.125000e-02,1.250000e-02,
366,-6.250000e-02,1.250000e-02,
367,3.125000e-02,-1.875000e-02,
368,-6.250000e-02,-1.875000e-02,
369,3.125000e-02,0.000000e+00,
370,-6.250000e-02,0.000000e+00,
371,3.125000e-02,-1.875000e-02,
372,-6.250000e-02,-1.250000e-02,
373,3.125000e-02,6.250000e-03,
374,-6.250000e-02,6.250000e-03,
375,3.125000e-02,-1.250000e-02,
376,-6.250000e-02,-1.250000e-02,
377,3.125000e-02,6.250000e-03,
378,3.125000e-02,6.250000e-03,
379,-6.250000e-02,-1.250000e-02,
380,-6.250000e-02,6.250000e-03,
381,3.125000e-02,-1.875000e-02,
382,-6.250000e-02,-1.250000e-02,
383,3.125000e-02,6.250000e-03,
384,-6.250000e-02,6.250000e-03,
385,3.125000e-02,-1.875000e-02,
386,-6.250000e-02,-1.875000e-02,
387,3.125000e-02,6.250000e-03,
388,-6.250000e-02,-6.250000e-03,
389,3.125000e-02,6.250000e-03,
390,-6.250000e-02,-6.250000e-03,
391,3.125000e-02,6.250000e-03,
392,-6.250000e-02,-6.250000e-03,
393,3.125000e-02,6.250000e-03,
394,-6.250000e-02,6.250000e-03,
395,3.125000e-02,-1.250000e-02,
396,-6.250000e-02,0.000000e+00,
397,3.125000e-02,-1.875000e-02,
398,-6.250000e-02,-1.875000e-02,
399,3.125000e-02,0.000000e+00,
400,-6.250000e-02,-1.250000e-02,
401,3.125000e-02,1.250000e-02,
402,-6.250000e-02,1.875000e-02,
403,3.125000e-02,-1.250000e-02,
404,-6.250000e-02,-6.250000e-03,
405,3.125000e-02,-3.125000e-02,
406,-6.250000e-02,-1.875000e-02,
407,3.125000e-02,1.250000e-02,
408,-6.250000e-02,1.250000e-02,
409,3.125000e-02,-1.250000e-02,
410,-6.250000e-02,-1.875000e-02,
411,3.125000e-02,6.250000e-03,
412,-6.250000e-02,-1.250000e-02,
413,3.125000e-02,6.250000e-03,
414,-6.250000e-02,0.000000e+00,
415,3.125000e-02,-1.875000e-02,
416,-6.250000e-02,-1.875000e-02,
417,3.125000e-02,6.250000e-03,
418,-6.250000e-02,6.250000e-03,
419,3.125000e-02,-1.250000e-02,
420,0.000000e+00,6.250000e-03,
421,-6.250000e-02,-1.250000e-02,
422,-6.250000e-02,-1.250000e-02,
423,3.125000e-02,6.250000e-03,
424,-6.250000e-02,-1.250000e-02,
425,3.125000e-02,6.250000e-03,
426,-6.250000e-02,6.250000e-03,
427,3.125000e-02,-1.875000e-02,
428,0.000000e+00,-6.250000e-03,
429,-6.250000e-02,-2.500000e-02,
430,-6.250000e-02,-1.875000e-02,
431,3.125000e-02,1.250000e-02,
432,-6.250000e-02,6.250000e-03,
433,3.125000e-02,-1.250000e-02,
434,-6.250000e-02,0.000000e+00,
435,3.125000e-02,-1.875000e-02,
436,-6.250000e-02,-1.250000e-02,
437,3.125000e-02,6.250000e-03,
438,-6.250000e-02,6.250000e-03,
439,3.125000e-02,-1.250000e-02,
440,-6.250000e-02,-1.250000e-02,
441,3.125000e-02,6.250000e-03,
442,-6.250000e-02,-6.250000e-03,
443,3.125000e-02,6.250000e-03,
444,0.000000e+00,6.250000e-03,
445,-6.250000e-02,-1.875000e-02,
446,-6.250000e-02,-1.875000e-02,
447,3.125000e-02,6.250000e-03,
448,-6.250000e-02,6.250000e-03,
449,3.125000e-02,-1.250000e-02,
450,-6.250000e-02,6.250000e-03,
451,3.125000e-02,-1.250000e-02,
452,-6.250000e-02,-6.250000e-03,
453,3.125000e-02,1.250000e-02,
454,-6.250000e-02,6.250000e-03,
455,0.000000e+00,-1.875000e-02,
456,3.125000e-02,-2.500000e-02,
457,-9.375000e-02,0.000000e+00,
458,-6.250000e-02,-1.875000e-02,
459,3.125000e-02,0.000000e+00,
460,-6.250000e-02,-1.250000e-02,
461,3.125000e-02,1.250000e-02,
462,-6.250000e-02,1.875000e-02,
463,3.125000e-02,-2.500000e-02,
464,-6.250000e-02,-3.125000e-02,
465,3.125000e-02,0.000000e+00,
466,-6.250000e-02,-1.250000e-02,
467,3.125000e-02,1.250000e-02,
468,-6.250000e-02,1.250000e-02,
469,3.125000e-02,-1.250000e-02,
470,-6.250000e-02,-1.250000e-02,
471,3.125000e-02,0.000000e+00,
472,-9.375000e-02,0.000000e+00,
473,3.125000e-02,-1.250000e-02,
474,-6.250000e-02,0.000000e+00,
475,3.125000e-02,-1.875000e-02,
476,-6.250000e-02,6.250000e-03,
477,3.125000e-02,-1.875000e-02,
478,-6.250000e-02,-1.875000e-02,
479,3.125000e-02,6.250000e-03,
480,-6.250000e-02,-1.250000e-02,
481,3.125000e-02,1.250000e-02,
482,-6.250000e-02,-6.250000e-03,
483,3.125000e-02,1.250000e-02,
484,-6.250000e-02,6.250000e-03,
485,3.125000e-02,-2.500000e-02,
486,3.125000e-02,-1.875000e-02,
487,-6.250000e-02,6.250000e-03,
488,-6.250000e-02,6.250000e-03,
489,3.125000e-02,-1.875000e-02,
490,-6.250000e-02,-1.875000e-02,
491,3.125000e-02,2.500000e-02,
492,-6.250000e-02,2.500000e-02,
493,3.125000e-02,-3.125000e-02,
494,-6.250000e-02,-3.125000e-02,
495,3.125000e-02,-6.250000e-03,
496,-6.250000e-02,-1.250000e-02,
497,3.125000e-02,1.875000e-02,
498,-6.250000e-02,1.250000e-02,
499,3.125000e-02,-1.250000e-02,
500,-6.250000e-02,-1.250000e-02,
501,3.125000e-02,6.250000e-03,
502,-6.250000e-02,-6.250000e-03,
503,3.125000e-02,1.250000e-02,
504,-6.250000e-02,6.250000e-03,
505,3.125000e-02,-1.875000e-02,
506,-6.250000e-02,-2.500000e-02,
507,3.125000e-02,6.250000e-03,
508,-6.250000e-02,1.250000e-02,
509,3.125000e-02,-1.250000e-02,
510,-6.250000e-02,-1.875000e-02,
511,3.125000e-02,6.250000e-03,
512,3.125000e-02,-1.250000e-02,
513,-6.250000e-02,1.875000e-02,
514,-6.250000e-02,1.250000e-02,
515,3.125000e-02,-1.250000e-02,
516,-6.250000e-02,0.000000e+00,
517,3.125000e-02,-3.125000e-02,
518,-6.250000e-02,-3.125000e-02,
519,3.125000e-02,6.250000e-03,
520,-6.250000e-02,1.875000e-02,
521,3.125000e-02,-2.500000e-02,
522,-6.250000e-02,-2.500000e-02,
523,3.125000e-02,2.500000e-02,
524,-6.250000e-02,2.500000e-02,
525,3.125000e-02,-3.125000e-02,
526,-6.250000e-02,-4.375000e-02,
527,3.125000e-02,0.000000e+00,
528,0.000000e+00,-1.250000e-02,
529,-6.250000e-02,1.250000e-02,
530,-6.250000e-02,6.250000e-03,
531,3.125000e-02,-1.875000e-02,
532,-6.250000e-02,-1.875000e-02,
533,3.125000e-02,1.250000e-02,
534,-6.250000e-02,6.250000e-03,
535,3.125000e-02,-1.875000e-02,
536,-6.250000e-02,6.250000e-03,
537,3.125000e-02,-1.875000e-02,
538,-6.250000e-02,-1.875000e-02,
539,3.125000e-02,0.000000e+00,
540,-6.250000e-02,0.000000e+00,
541,3.125000e-02,-1.875000e-02,
542,-6.250000e-02,-1.875000e-02,
543,3.125000e-02,1.250000e-02,
544,-6.250000e-02,1.875000e-02,
545,3.125000e-02,-1.250000e-02,
546,-6.250000e-02,-1.250000e-02,
547,3.125000e-02,6.250000e-03,
548,-6.250000e-02,-1.250000e-02,
549,3.125000e-02,6.250000e-03,
550,3.125000e-02,0.000000e+00,
551,-6.250000e-02,-2.500000e-02,
552,-6.250000e-02,-1.875000e-02,
553,3.125000e-02,6.250000e-03,
554,-6.250000e-02,-6.250000e-03,
555,3.125000e-02,2.500000e-02,
556,-6.250000e-02,1.250000e-02,
557,3.125000e-02,-1.250000e-02,
558,-6.250000e-02,0.000000e+00,
559,3.125000e-02,-2.500000e-02,
560,-6.250000e-02,-1.250000e-02,
561,3.125000e-02,6.250000e-03,
562,-6.250000e-02,-1.250000e-02,
563,3.125000e-02,6.250000e-03,
564,-6.250000e-02,-1.250000e-02,
565,3.125000e-02,1.250000e-02,
566,3.125000e-02,1.250000e-02,
567,-9.375000e-02,-1.250000e-02,
568,3.125000e-02,0.000000e+00,
569,-6.250000e-02,-1.875000e-02,
570,-6.250000e-02,-1.250000e-02,
571,3.125000e-02,6.250000e-03,
572,-6.250000e-02,-1.875000e-02,
573,3.125000e-02,0.000000e+00,
574,3.125000e-02,-1.875000e-02,
575,-6.250000e-02,1.250000e-02,
576,-6.250000e-02,1.250000e-02,
577,3.125000e-02,-1.250000e-02,
578,-6.250000e-02,0.000000e+00,
579,3.125000e-02,-2.500000e-02,
580,-6.250000e-02,-2.500000e-02,
581,3.125000e-02,-6.250000e-03,
582,-6.250000e-02,-1.875000e-02,
583,3.125000e-02,2.500000e-02,
584,-6.250000e-02,2.500000e-02,
585,3.125000e-02,-1.875000e-02,
586,-6.250000e-02,-2.500000e-02,
587,3.125000e-02,0.000000e+00,
588,-6.250000e-02,-1.250000e-02,
589,3.125000e-02,1.250000e-02,
590,-6.250000e-02,0.000000e+00,
591,3.125000e-02,-2.500000e-02,
592,0.000000e+00,-1.875000e-02,
593,-6.250000e-02,1.250000e-02,
594,-6.250000e-02,1.250000e-02,
595,3.125000e-02,-1.250000e-02,
596,-6.250000e-02,-1.250000e-02,
597,3.125000e-02,0.000000e+00,
598,-6.250000e-02,-1.250000e-02,
599,3.125000e-02,6.250000e-03,
600,-6.250000e-02,0.000000e+00,
601,3.125000e-02,-1.875000e-02,
602,-6.250000e-02,-1.875000e-02,
603,3.125000e-02,0.000000e+00,
604,-6.250000e-02,-1.250000e-02,
605,3.125000e-02,1.875000e-02,
606,-6.250000e-02,1.250000e-02,
607,3.125000e-02,-1.875000e-02,
608,-6.250000e-02,-1.875000e-02,
609,3.125000e-02,0.000000e+00,
610,-6.250000e-02,0.000000e+00,
611,3.125000e-02,-1.875000e-02,
612,-6.250000e-02,-1.875000e-02,
613,3.125000e-02,1.250000e-02,
614,-6.250000e-02,0.000000e+00,
615,3.125000e-02,2.500000e-02,
616,0.000000e+00,1.250000e-02,
617,-6.250000e-02,-2.500000e-02,
618,-6.250000e-02,-2.500000e-02,
619,3.125000e-02,1.250000e-02,
620,-6.250000e-02,1.250000e-02,
621,3.125000e-02,-1.250000e-02,
622,-6.250000e-02,0.000000e+00,
623,0.000000e+00,-1.875000e-02,
624,-6.250000e-02,-1.875000e-02,
